time,[HUME],[TEMP],[PRES],[RADI],[RAPV],[DIRV],[PREC]
2020-02-23T00:00:00-05:00,97.11,12.31,739.68,0.98,0.51,202.93,0
2020-02-23T00:01:00-05:00,97.04,12.29,739.65,0.98,0.2,205.97,0
2020-02-23T00:02:00-05:00,97.09,12.3,739.98,0.09,0.29,201.92,0
2020-02-23T00:03:00-05:00,97.17,12.29,738.88,-0.79,0.27,209.29,0
2020-02-23T00:04:00-05:00,97.06,12.28,739.55,0.53,0.23,206,0
2020-02-23T00:05:00-05:00,97.03,12.29,739.55,0.39,0.28,218.27,0
2020-02-23T00:06:00-05:00,97.13,12.29,739.08,0.39,0.55,224.84,0
2020-02-23T00:07:00-05:00,97.27,12.27,739.51,0.09,0.58,228.18,0.1
2020-02-23T00:08:00-05:00,97.14,12.28,738.01,0.83,0.4,208.9,0
2020-02-23T00:09:00-05:00,97.29,12.27,738.24,-0.35,0.25,271.99,0
2020-02-23T00:10:00-05:00,97.14,12.28,738.21,0.83,0.5,267.96,0
2020-02-23T00:11:00-05:00,97.31,12.26,738.14,-0.49,0.57,205.3,0
2020-02-23T00:12:00-05:00,97.19,12.26,740.02,-0.05,0.22,230.89,0
2020-02-23T00:13:00-05:00,97.14,12.25,738.14,-0.79,0.4,205.06,0
2020-02-23T00:14:00-05:00,97.18,12.23,738.64,-0.94,0.57,245.75,0
2020-02-23T00:15:00-05:00,97.04,12.21,739.28,-0.94,0.43,197.96,0
2020-02-23T00:16:00-05:00,97.14,12.21,739.51,-0.94,0.45,253.7,0
2020-02-23T00:17:00-05:00,97.04,12.17,738.81,0.83,0.4,220.81,0
2020-02-23T00:18:00-05:00,97.11,12.17,737.91,-0.05,0.15,195.92,0
2020-02-23T00:19:00-05:00,97.24,12.15,738.74,0.24,0.56,212.84,0
2020-02-23T00:20:00-05:00,97.17,12.15,737.87,1.27,0.3,237.76,0.1
2020-02-23T00:21:00-05:00,97.37,12.15,738.14,1.12,0.42,226.79,0
2020-02-23T00:22:00-05:00,97.38,12.15,739.35,-0.49,0.51,254.08,0
2020-02-23T00:23:00-05:00,97.18,12.15,737.81,-0.79,0.22,330.49,0
2020-02-23T00:24:00-05:00,97.3,12.11,739.28,1.12,0.2,222.27,0
2020-02-23T00:25:00-05:00,97.15,12.11,739.28,-1.08,0.61,254.73,0
2020-02-23T00:26:00-05:00,97.11,12.08,738.78,-1.23,0.59,227.17,0
2020-02-23T00:27:00-05:00,97,12.07,739.08,-0.2,0.23,274.73,0
2020-02-23T00:28:00-05:00,97.01,12.04,739.11,-1.38,0.27,271.1,0
2020-02-23T00:29:00-05:00,97.07,12.01,738.95,-1.08,0.24,221.91,0
2020-02-23T00:30:00-05:00,97.16,12.01,738.71,0.98,0.25,250.07,0
2020-02-23T00:31:00-05:00,97.1,11.99,739.48,0.98,0.2,260.73,0
2020-02-23T00:32:00-05:00,97.1,12,737.54,-1.08,0.6,237.71,0
2020-02-23T00:33:00-05:00,97.1,11.99,739.65,-0.94,0.53,212.84,0
2020-02-23T00:34:00-05:00,97.29,11.98,739.11,-1.23,0.4,214.95,0.1
2020-02-23T00:35:00-05:00,97.26,11.96,739.28,-0.49,0.27,212.86,0
2020-02-23T00:36:00-05:00,97.21,11.97,737.94,-0.79,0.12,192.96,0
2020-02-23T00:37:00-05:00,97.44,11.95,737.74,-0.49,0.19,172.13,0
2020-02-23T00:38:00-05:00,97.44,11.95,737.91,0.09,0.21,178.08,0
2020-02-23T00:39:00-05:00,97.28,11.96,737.84,-0.49,0.25,210.9,0
2020-02-23T00:40:00-05:00,97.48,11.97,738.31,0.53,0.15,100.93,0
2020-02-23T00:41:00-05:00,97.48,11.96,739.18,-0.64,0.27,60.29,0
2020-02-23T00:42:00-05:00,97.54,11.94,739.15,-0.79,0.12,150.28,0
2020-02-23T00:43:00-05:00,97.52,11.96,737.74,1.27,0.31,251.1,0
2020-02-23T00:44:00-05:00,97.39,11.97,737.71,-0.05,0.24,280.87,0
2020-02-23T00:45:00-05:00,97.48,11.97,737.57,1.27,0.28,267.09,0
2020-02-23T00:46:00-05:00,97.44,11.97,739.05,1.56,0.2,245.75,0
2020-02-23T00:47:00-05:00,97.39,11.98,737.74,0.53,0.24,274.05,0.1
2020-02-23T00:48:00-05:00,97.48,11.97,739.05,-0.64,0.19,228.78,0
2020-02-23T00:49:00-05:00,97.65,11.97,738.14,-0.05,0.28,259.15,0
2020-02-23T00:50:00-05:00,97.52,11.99,738.08,-0.35,0.52,228.8,0
2020-02-23T00:51:00-05:00,97.56,11.99,739.18,1.56,0.13,278.66,0
2020-02-23T00:52:00-05:00,97.48,11.99,738.28,-0.79,0.17,222.9,0
2020-02-23T00:53:00-05:00,97.57,11.99,739.21,-0.2,0.45,203.91,0
2020-02-23T00:54:00-05:00,97.55,11.95,739.08,1.42,0.43,217.88,0
2020-02-23T00:55:00-05:00,97.54,11.97,737.67,-1.38,0.43,238.84,0
2020-02-23T00:56:00-05:00,97.5,11.95,739.01,1.12,0.28,190.01,0
2020-02-23T00:57:00-05:00,97.52,11.95,739.05,-0.94,0.12,175.13,0
2020-02-23T00:58:00-05:00,97.47,11.96,738.61,-0.49,0.43,165.14,0
2020-02-23T00:59:00-05:00,97.6,11.94,738.88,0.24,0.52,188.04,0
2020-02-23T01:00:00-05:00,97.42,11.95,737.57,-1.23,0.49,159.48,0
2020-02-23T01:01:00-05:00,97.42,11.92,738.71,0.24,0.43,14.58,0.1
2020-02-23T01:02:00-05:00,97.43,11.91,737.44,0.39,0.28,40.63,0
2020-02-23T01:03:00-05:00,97.38,11.89,737.27,0.53,0.33,158.25,0
2020-02-23T01:04:00-05:00,97.45,11.91,738.74,1.27,0.38,52.37,0
2020-02-23T01:05:00-05:00,97.34,11.88,737.57,-0.35,0.06,42.6,0
2020-02-23T01:06:00-05:00,97.39,11.87,737.41,0.24,0.26,270.07,0
2020-02-23T01:07:00-05:00,97.56,11.86,738.54,-0.35,0.18,206.02,0
2020-02-23T01:08:00-05:00,97.57,11.86,738.14,-1.38,0.26,224.19,0
2020-02-23T01:09:00-05:00,97.46,11.85,737.64,-0.79,0.47,197.98,0
2020-02-23T01:10:00-05:00,97.45,11.85,737.2,-1.08,0.48,189.03,0
2020-02-23T01:11:00-05:00,97.5,11.83,737.97,0.24,0.29,191,0
2020-02-23T01:12:00-05:00,97.54,11.83,737.24,0.09,0.48,197.98,0
2020-02-23T01:13:00-05:00,97.42,11.83,737.67,1.12,0.47,210.92,0
2020-02-23T01:14:00-05:00,97.63,11.83,738.11,-0.94,0.55,203.91,0
2020-02-23T01:15:00-05:00,97.52,11.81,738.85,-0.94,0.57,204.99,0
2020-02-23T01:16:00-05:00,97.64,11.81,738.91,-0.64,0.27,222.9,0.1
2020-02-23T01:17:00-05:00,97.58,11.81,737.1,0.68,0.47,206.26,0
2020-02-23T01:18:00-05:00,97.79,11.83,738.24,1.42,0.36,180.36,0
2020-02-23T01:19:00-05:00,97.85,11.83,737.31,0.98,0.26,221.24,0
2020-02-23T01:20:00-05:00,97.74,11.84,738.68,0.98,0.32,220.79,0
2020-02-23T01:21:00-05:00,97.56,11.83,738.14,1.12,0.45,263.01,0
2020-02-23T01:22:00-05:00,97.56,11.82,738.21,0.98,0.2,182.04,0
2020-02-23T01:23:00-05:00,97.71,11.81,738.08,-0.35,0.3,199.33,0
2020-02-23T01:24:00-05:00,97.8,11.81,738.51,-0.79,0.23,191,0
2020-02-23T01:25:00-05:00,97.72,11.83,738.81,-1.08,0.13,213.18,0
2020-02-23T01:26:00-05:00,97.64,11.81,737,0.24,0.2,233.82,0
2020-02-23T01:27:00-05:00,97.75,11.81,738.91,-0.94,0.17,271.03,0
2020-02-23T01:28:00-05:00,97.72,11.81,738.85,0.68,0.15,256.82,0
2020-02-23T01:29:00-05:00,97.83,11.83,737.24,-0.35,0.49,256.79,0
2020-02-23T01:30:00-05:00,97.84,11.83,737.64,-0.49,0.22,164.21,0
2020-02-23T01:31:00-05:00,97.8,11.83,737.81,1.71,0.3,278.64,0
2020-02-23T01:32:00-05:00,97.58,11.81,738.38,1.27,0.2,199.95,0
2020-02-23T01:33:00-05:00,97.57,11.81,738.38,0.53,0.19,215.86,0
2020-02-23T01:34:00-05:00,97.75,11.8,737.81,0.09,0.07,242.77,0
2020-02-23T01:35:00-05:00,97.58,11.79,738.64,1.27,0.52,213.92,0
2020-02-23T01:36:00-05:00,97.66,11.78,737.87,-1.08,0.2,252.76,0
2020-02-23T01:37:00-05:00,97.58,11.78,738.18,-0.79,0.28,213.87,0
2020-02-23T01:38:00-05:00,97.56,11.77,737.1,-1.52,0.23,225.15,0
2020-02-23T01:39:00-05:00,97.66,11.77,738.95,-1.38,0.13,289.56,0
2020-02-23T01:40:00-05:00,97.81,11.77,738.68,1.27,0.21,191.36,0
2020-02-23T01:41:00-05:00,97.62,11.77,738.24,-0.49,0.24,207.92,0
2020-02-23T01:42:00-05:00,97.73,11.75,737.14,1.42,0.45,219.2,0
2020-02-23T01:43:00-05:00,97.62,11.77,738.68,-1.08,0.36,242.8,0
2020-02-23T01:44:00-05:00,97.75,11.77,736.9,0.39,0.31,197.31,0
2020-02-23T01:45:00-05:00,97.67,11.76,737.17,0.53,0.53,222.9,0
2020-02-23T01:46:00-05:00,97.8,11.76,737,-0.05,0.28,189.41,0.1
2020-02-23T01:47:00-05:00,97.83,11.76,738.38,1.71,0.53,211.88,0
2020-02-23T01:48:00-05:00,97.72,11.75,736.84,-0.2,0.4,229.84,0
2020-02-23T01:49:00-05:00,97.68,11.74,736.9,-0.94,0.29,217.88,0
2020-02-23T01:50:00-05:00,97.73,11.74,737.24,0.24,0.34,213.92,0
2020-02-23T01:51:00-05:00,97.78,11.71,738.68,-1.52,0.54,201.25,0
2020-02-23T01:52:00-05:00,97.76,11.71,738.14,-1.08,0.54,207.25,0
2020-02-23T01:53:00-05:00,97.69,11.69,736.94,0.39,0.55,195.92,0
2020-02-23T01:54:00-05:00,97.48,11.65,736.7,-1.67,0.54,203.89,0
2020-02-23T01:55:00-05:00,97.46,11.63,737.67,-1.08,0.22,188.04,0
2020-02-23T01:56:00-05:00,97.6,11.62,737.44,0.09,0.42,228.76,0
2020-02-23T01:57:00-05:00,97.62,11.61,736.64,-0.05,0.49,216.44,0
2020-02-23T01:58:00-05:00,97.64,11.62,737.84,-1.52,0.33,193.9,0
2020-02-23T01:59:00-05:00,97.72,11.6,736.97,-1.23,0.31,169.46,0
2020-02-23T02:00:00-05:00,97.56,11.59,738.04,-0.49,0.14,131.46,0
2020-02-23T02:01:00-05:00,97.73,11.59,738.04,-1.08,0.49,179.42,0
2020-02-23T02:02:00-05:00,97.74,11.58,737.31,0.53,0.57,151.27,0
2020-02-23T02:03:00-05:00,97.76,11.57,737.54,0.09,0.28,156.67,0.1
2020-02-23T02:04:00-05:00,97.59,11.56,738.08,-1.67,0.47,156.28,0
2020-02-23T02:05:00-05:00,97.78,11.55,737.87,-0.05,0.5,178.37,0
2020-02-23T02:06:00-05:00,97.77,11.57,737.71,1.12,0.24,155.32,0
2020-02-23T02:07:00-05:00,97.71,11.54,738.04,-1.23,0.33,145.34,0
2020-02-23T02:08:00-05:00,97.64,11.52,736.47,-1.08,0.42,149.27,0
2020-02-23T02:09:00-05:00,97.62,11.52,737.87,-0.05,0.25,151.27,0
2020-02-23T02:10:00-05:00,97.66,11.51,736.4,-1.52,0.21,150.28,0
2020-02-23T02:11:00-05:00,97.83,11.52,738.01,0.39,0.24,97.98,0
2020-02-23T02:12:00-05:00,97.86,11.52,738.28,-1.97,0.26,75.19,0
2020-02-23T02:13:00-05:00,97.82,11.54,736.74,0.68,0.07,258.76,0
2020-02-23T02:14:00-05:00,97.84,11.54,737.94,-1.52,0.22,206.96,0
2020-02-23T02:15:00-05:00,97.81,11.51,736.74,-1.08,0.3,189.05,0
2020-02-23T02:16:00-05:00,97.73,11.5,737.04,-0.2,0.31,207.97,0
2020-02-23T02:17:00-05:00,97.63,11.52,736.4,-0.94,0.19,191.96,0
2020-02-23T02:18:00-05:00,97.84,11.51,737.37,-0.05,0.27,197.31,0
2020-02-23T02:19:00-05:00,97.79,11.52,737.91,1.42,0.18,214.88,0
2020-02-23T02:20:00-05:00,97.66,11.51,736.4,-1.23,0.23,187.32,0.1
2020-02-23T02:21:00-05:00,97.84,11.5,737.97,-0.35,0.24,181.03,0
2020-02-23T02:22:00-05:00,97.66,11.48,737.54,-1.38,0.41,182.35,0
2020-02-23T02:23:00-05:00,97.74,11.5,736.77,0.98,0.43,197,0
2020-02-23T02:24:00-05:00,97.7,11.5,738.08,-0.35,0.54,189.31,0
2020-02-23T02:25:00-05:00,97.72,11.49,737.31,1.12,0.49,169.37,0
2020-02-23T02:26:00-05:00,97.75,11.49,737.44,1.27,0.25,128.46,0
2020-02-23T02:27:00-05:00,97.95,11.5,736.33,-0.05,0.31,186.94,0
2020-02-23T02:28:00-05:00,97.94,11.5,736.27,1.42,0.51,197.98,0
2020-02-23T02:29:00-05:00,97.76,11.5,736.7,-1.23,0.27,191.93,0
2020-02-23T02:30:00-05:00,97.86,11.5,738.18,0.53,0.25,179.11,0
2020-02-23T02:31:00-05:00,97.95,11.5,737.97,1.12,0.23,200.96,0
2020-02-23T02:32:00-05:00,97.91,11.51,737.84,-0.2,0.24,181.06,0
2020-02-23T02:33:00-05:00,97.83,11.5,737.54,0.53,0.5,155.3,0
2020-02-23T02:34:00-05:00,97.97,11.5,737.14,1.42,0.08,196.97,0
2020-02-23T02:35:00-05:00,97.87,11.52,737.81,0.53,0.26,157.32,0
2020-02-23T02:36:00-05:00,97.85,11.52,738.21,1.42,0.48,148.36,0
2020-02-23T02:37:00-05:00,97.84,11.52,736.33,1.86,0.09,152.56,0
2020-02-23T02:38:00-05:00,98.02,11.53,736.6,-1.08,0.16,322.52,0
2020-02-23T02:39:00-05:00,97.85,11.54,737.74,0.68,0.17,344.82,0
2020-02-23T02:40:00-05:00,97.88,11.52,736.4,-0.49,0.06,214.9,0.1
2020-02-23T02:41:00-05:00,97.87,11.53,737.91,-1.23,0.25,244.12,0
2020-02-23T02:42:00-05:00,97.94,11.55,736.33,0.53,0.35,218.91,0
2020-02-23T02:43:00-05:00,97.87,11.54,737.77,1.27,0.23,196.28,0
2020-02-23T02:44:00-05:00,97.86,11.54,736.5,-0.94,0.23,240.81,0
2020-02-23T02:45:00-05:00,98.03,11.56,736.37,-1.67,0.23,186.05,0
2020-02-23T02:46:00-05:00,97.9,11.54,736.97,-0.2,0.29,199.95,0
2020-02-23T02:47:00-05:00,97.93,11.54,737.07,-0.94,0.28,169.1,0
2020-02-23T02:48:00-05:00,97.9,11.54,736.74,-0.05,0.23,166.2,0
2020-02-23T02:49:00-05:00,98.03,11.56,736.84,-1.38,0.25,135.23,0
2020-02-23T02:50:00-05:00,97.87,11.58,736.43,0.09,0.21,137.66,0
2020-02-23T02:51:00-05:00,98.03,11.54,736.47,-0.49,0.32,93.56,0
2020-02-23T02:52:00-05:00,97.91,11.56,737.64,-1.97,0.21,147.43,0
2020-02-23T02:53:00-05:00,97.98,11.59,737.04,-0.35,0.18,72.48,0
2020-02-23T02:54:00-05:00,98.12,11.59,737.67,0.39,0.13,155.32,0
2020-02-23T02:55:00-05:00,97.97,11.58,736.37,-1.38,0.55,140.37,0
2020-02-23T02:56:00-05:00,97.78,11.57,737.74,0.98,0.32,140.7,0
2020-02-23T02:57:00-05:00,97.88,11.56,737.81,-1.82,0.23,129.81,0
2020-02-23T02:58:00-05:00,97.82,11.57,737.44,-0.35,0.22,105.54,0
2020-02-23T02:59:00-05:00,97.87,11.56,737.44,1.12,0.25,214.23,0
2020-02-23T03:00:00-05:00,97.79,11.55,737.61,-1.38,0.43,209.24,0.1
2020-02-23T03:01:00-05:00,97.72,11.52,736.23,-1.08,0.4,207.97,0
2020-02-23T03:02:00-05:00,97.58,11.52,737.51,-1.97,0.59,210.25,0
2020-02-23T03:03:00-05:00,97.7,11.49,736,0.68,0.54,229.79,0
2020-02-23T03:04:00-05:00,97.68,11.47,737.74,-0.64,0.6,202.88,0
2020-02-23T03:05:00-05:00,97.73,11.48,736.9,0.83,0.31,209.94,0
2020-02-23T03:06:00-05:00,97.72,11.46,736.5,-1.97,0.45,190.01,0
2020-02-23T03:07:00-05:00,97.64,11.46,736.97,-0.05,0.22,153.21,0
2020-02-23T03:08:00-05:00,97.66,11.46,735.8,0.53,0.25,145.41,0
2020-02-23T03:09:00-05:00,97.78,11.44,736.07,-0.2,0.54,37.65,0
2020-02-23T03:10:00-05:00,97.76,11.46,737.67,-1.08,0.49,125.15,0
2020-02-23T03:11:00-05:00,97.85,11.44,737.2,-0.79,0.25,135.28,0
2020-02-23T03:12:00-05:00,97.81,11.44,737.04,-1.08,0.17,102.8,0
2020-02-23T03:13:00-05:00,97.9,11.45,737.17,-1.97,0.3,45.43,0
2020-02-23T03:14:00-05:00,97.88,11.45,736.03,-1.52,0.26,92.84,0
2020-02-23T03:15:00-05:00,97.82,11.46,737.41,-1.08,0.24,107.94,0
2020-02-23T03:16:00-05:00,97.85,11.47,736.9,0.09,0.08,97.95,0
2020-02-23T03:17:00-05:00,97.78,11.45,736.77,-1.67,0.09,70.03,0
2020-02-23T03:18:00-05:00,97.7,11.46,736.17,-1.08,0.18,45.93,0
2020-02-23T03:19:00-05:00,97.82,11.46,736.13,-0.35,0.26,7.31,0
2020-02-23T03:20:00-05:00,97.87,11.47,737.27,-1.08,0.58,40.58,0
2020-02-23T03:21:00-05:00,98.06,11.5,736,-2.26,0.62,22.14,0
2020-02-23T03:22:00-05:00,97.97,11.5,736.97,0.53,0.65,49.05,0
2020-02-23T03:23:00-05:00,97.98,11.52,737.07,-1.67,0.67,42.48,0.1
2020-02-23T03:24:00-05:00,98.13,11.52,736.17,-0.05,0.56,66.65,0
2020-02-23T03:25:00-05:00,98.24,11.55,736.03,-0.49,0.58,53.21,0
2020-02-23T03:26:00-05:00,98.05,11.55,736.84,-1.23,0.77,37.34,0
2020-02-23T03:27:00-05:00,98.19,11.57,736,-0.79,0.86,57.74,0
2020-02-23T03:28:00-05:00,97.94,11.55,737.17,-0.79,0.65,43.8,0
2020-02-23T03:29:00-05:00,97.94,11.53,736.5,0.98,0.61,38.97,0
2020-02-23T03:30:00-05:00,97.92,11.53,735.97,-1.38,0.86,86.17,0
2020-02-23T03:31:00-05:00,98.08,11.53,736.64,-1.52,0.56,341.56,0
2020-02-23T03:32:00-05:00,98.01,11.55,737.24,-1.97,0.58,67.54,0
2020-02-23T03:33:00-05:00,97.88,11.54,737.14,0.24,0.34,81.2,0
2020-02-23T03:34:00-05:00,97.9,11.51,736.03,-1.97,0.58,89.07,0
2020-02-23T03:35:00-05:00,97.67,11.52,735.67,-0.49,0.78,99.22,0
2020-02-23T03:36:00-05:00,97.6,11.48,736.54,-2.85,0.57,61.56,0
2020-02-23T03:37:00-05:00,97.8,11.48,736.57,-1.67,0.67,61.63,0
2020-02-23T03:38:00-05:00,97.9,11.49,737.31,-1.67,0.64,40.22,0
2020-02-23T03:39:00-05:00,97.72,11.48,735.73,-1.08,0.4,9.83,0
2020-02-23T03:40:00-05:00,97.8,11.5,737.17,-0.35,0.82,51.26,0
2020-02-23T03:41:00-05:00,97.84,11.49,735.87,-0.49,0.17,45.72,0
2020-02-23T03:42:00-05:00,97.88,11.5,736.57,0.53,0.6,22.77,0
2020-02-23T03:43:00-05:00,97.85,11.5,737.17,0.09,0.27,63.89,0
2020-02-23T03:44:00-05:00,97.96,11.5,735.67,-2.26,0.17,25.14,0
2020-02-23T03:45:00-05:00,97.9,11.52,737.2,-1.82,0.18,133.24,0
2020-02-23T03:46:00-05:00,97.79,11.49,737.17,0.09,0.23,147.35,0
2020-02-23T03:47:00-05:00,97.6,11.47,735.63,0.24,0.41,165.19,0
2020-02-23T03:48:00-05:00,97.51,11.46,736.64,-0.35,0.4,188.02,0
2020-02-23T03:49:00-05:00,97.4,11.43,736.94,-0.64,0.32,189.05,0.1
2020-02-23T03:50:00-05:00,97.44,11.42,737.24,-0.64,0.38,162.21,0
2020-02-23T03:51:00-05:00,97.5,11.42,737.04,-0.35,0.31,155.28,0
2020-02-23T03:52:00-05:00,97.41,11.4,736.33,-1.97,0.24,134.25,0
2020-02-23T03:53:00-05:00,97.55,11.38,736.94,0.39,0.57,121.45,0
2020-02-23T03:54:00-05:00,97.46,11.4,735.43,0.09,0.65,126.52,0
2020-02-23T03:55:00-05:00,97.65,11.39,737.07,-1.97,0.59,130.62,0
2020-02-23T03:56:00-05:00,97.53,11.4,737.14,0.98,0.59,123.11,0
2020-02-23T03:57:00-05:00,97.66,11.38,735.63,0.68,0.42,115.96,0
2020-02-23T03:58:00-05:00,97.66,11.38,736.64,0.68,0.38,105.37,0
2020-02-23T03:59:00-05:00,97.5,11.38,737.07,-1.23,0.76,123.76,0
2020-02-23T04:00:00-05:00,97.68,11.38,737.27,-0.2,0.61,118.02,0
2020-02-23T04:01:00-05:00,97.59,11.38,735.53,0.09,0.76,104.27,0
2020-02-23T04:02:00-05:00,97.52,11.37,736.9,-1.97,0.33,102.22,0
2020-02-23T04:03:00-05:00,97.56,11.38,736.27,-1.67,0.21,103.04,0
2020-02-23T04:04:00-05:00,97.51,11.38,736.5,-1.82,0.14,81.94,0
2020-02-23T04:05:00-05:00,97.67,11.4,736.94,0.83,0.57,147.02,0
2020-02-23T04:06:00-05:00,97.55,11.36,735.7,-2.11,0.61,134.54,0
2020-02-23T04:07:00-05:00,97.36,11.35,736.8,-1.38,0.67,136.14,0
2020-02-23T04:08:00-05:00,97.41,11.36,737.14,0.24,0.56,109.09,0
2020-02-23T04:09:00-05:00,97.52,11.36,736.84,-0.64,0.56,93.63,0
2020-02-23T04:10:00-05:00,97.51,11.35,737.14,0.53,0.25,75,0
2020-02-23T04:11:00-05:00,97.6,11.37,737.04,-1.08,0.52,93.27,0
2020-02-23T04:12:00-05:00,97.46,11.37,737.31,0.39,0.56,71.83,0
2020-02-23T04:13:00-05:00,97.56,11.38,736.94,-1.23,0.59,71.67,0
2020-02-23T04:14:00-05:00,97.62,11.38,736.54,-1.67,0.39,74.67,0
2020-02-23T04:15:00-05:00,97.76,11.37,736.23,0.39,0.56,138.35,0
2020-02-23T04:16:00-05:00,97.7,11.39,736.97,-2.26,0.32,65.78,0
2020-02-23T04:17:00-05:00,97.58,11.4,736.57,0.09,0.49,110.65,0.1
2020-02-23T04:18:00-05:00,97.67,11.42,736.87,-0.64,0.59,83.98,0
2020-02-23T04:19:00-05:00,97.63,11.4,735.83,-0.05,0.56,74.33,0
2020-02-23T04:20:00-05:00,97.7,11.42,736.74,-1.52,0.58,106.02,0
2020-02-23T04:21:00-05:00,97.57,11.44,735.73,-0.49,0.26,129.45,0
2020-02-23T04:22:00-05:00,97.64,11.42,737.2,-1.67,0.37,114.44,0
2020-02-23T04:23:00-05:00,97.63,11.44,735.7,-2.11,0.22,106.69,0
2020-02-23T04:24:00-05:00,97.61,11.44,735.4,-1.08,0.23,115.21,0
2020-02-23T04:25:00-05:00,97.39,11.44,736.87,-1.52,0.56,106.91,0
2020-02-23T04:26:00-05:00,97.48,11.42,736.4,-0.79,0.56,124.41,0
2020-02-23T04:27:00-05:00,97.42,11.4,736.94,0.24,0.55,86.96,0
2020-02-23T04:28:00-05:00,97.37,11.4,736.94,-0.94,0.47,109.4,0
2020-02-23T04:29:00-05:00,97.3,11.41,736.33,-2.26,0.56,129.47,0
2020-02-23T04:30:00-05:00,97.18,11.4,736.1,0.09,0.53,113.29,0
2020-02-23T04:31:00-05:00,97.34,11.42,736.6,-2.11,0.28,122.39,0
2020-02-23T04:32:00-05:00,97.26,11.38,736.57,-0.94,0.17,324.63,0
2020-02-23T04:33:00-05:00,97.3,11.37,735.4,-1.82,0.46,28.67,0
2020-02-23T04:34:00-05:00,97.3,11.4,735.4,-1.23,0.19,131.22,0
2020-02-23T04:35:00-05:00,97.35,11.39,737,-2.11,0.59,134.85,0
2020-02-23T04:36:00-05:00,97.18,11.4,735.43,-0.35,0.19,100.18,0
2020-02-23T04:37:00-05:00,97.04,11.38,735.7,0.09,0.83,72.51,0
2020-02-23T04:38:00-05:00,97.08,11.39,735.77,-1.82,0.99,75.41,0
2020-02-23T04:39:00-05:00,97.3,11.42,736.8,-2.11,0.81,56.95,0
2020-02-23T04:40:00-05:00,97.11,11.44,735.6,-1.67,0.56,74.45,0
2020-02-23T04:41:00-05:00,97.07,11.43,736.4,-0.64,0.25,98.84,0
2020-02-23T04:42:00-05:00,97.11,11.43,737.04,0.24,0.24,70.49,0
2020-02-23T04:43:00-05:00,96.9,11.42,736.8,-1.82,0.21,101.46,0
2020-02-23T04:44:00-05:00,96.94,11.42,737,-2.26,0.58,96.32,0
2020-02-23T04:45:00-05:00,96.88,11.42,736.54,-2.7,0.37,85.95,0
2020-02-23T04:46:00-05:00,96.81,11.41,737.27,-2.41,0.56,109.5,0
2020-02-23T04:47:00-05:00,96.91,11.4,736.74,-0.79,0.53,99.99,0
2020-02-23T04:48:00-05:00,96.99,11.42,737.2,-0.94,0.59,69.24,0.1
2020-02-23T04:49:00-05:00,96.83,11.42,735.8,0.09,0.4,123.08,0
2020-02-23T04:50:00-05:00,96.89,11.41,735.56,-1.52,0.22,56.9,0
2020-02-23T04:51:00-05:00,96.88,11.41,736.94,0.09,0.18,107.63,0
2020-02-23T04:52:00-05:00,96.92,11.42,737.04,-0.05,0.17,186.34,0
2020-02-23T04:53:00-05:00,96.89,11.39,736.67,-0.64,0.1,65.74,0
2020-02-23T04:54:00-05:00,96.62,11.4,736.33,-2.11,0.15,194.31,0
2020-02-23T04:55:00-05:00,96.61,11.4,735.67,-2.7,0.35,55.03,0
2020-02-23T04:56:00-05:00,96.71,11.37,735.53,-1.52,0.46,91.01,0
2020-02-23T04:57:00-05:00,96.73,11.35,736.94,-2.11,0.23,38.9,0
2020-02-23T04:58:00-05:00,96.54,11.34,737.34,0.24,0.63,23.46,0
2020-02-23T04:59:00-05:00,96.34,11.35,735.97,-1.67,0.69,345.4,0
2020-02-23T05:00:00-05:00,96.67,11.36,735.8,-0.05,0.25,88.45,0
2020-02-23T05:01:00-05:00,96.56,11.38,736.27,-1.38,1.45,40.63,0
2020-02-23T05:02:00-05:00,96.7,11.42,735.33,-0.94,0.74,47.4,0
2020-02-23T05:03:00-05:00,96.59,11.44,736.9,-0.05,0.61,43.65,0
2020-02-23T05:04:00-05:00,96.56,11.45,735.9,-0.35,0.8,64.85,0
2020-02-23T05:05:00-05:00,96.54,11.47,736.64,-0.05,0.84,64.7,0
2020-02-23T05:06:00-05:00,96.29,11.46,736.07,1.12,0.72,31.7,0
2020-02-23T05:07:00-05:00,96.2,11.46,736,-0.64,0.69,52.58,0
2020-02-23T05:08:00-05:00,96.11,11.48,736.23,-0.35,0.68,58.56,0
2020-02-23T05:09:00-05:00,96.08,11.5,735.93,0.09,0.2,283.94,0
2020-02-23T05:10:00-05:00,96.1,11.5,735.97,-1.97,0.51,120.13,0
2020-02-23T05:11:00-05:00,95.83,11.48,737.24,-0.2,0.6,84.53,0
2020-02-23T05:12:00-05:00,95.89,11.47,737.17,-2.26,0.3,48.26,0
2020-02-23T05:13:00-05:00,95.68,11.46,736.77,-2.41,0.26,26.3,0
2020-02-23T05:14:00-05:00,95.75,11.48,736.57,-0.2,0.9,40.75,0
2020-02-23T05:15:00-05:00,95.99,11.48,736.07,-0.94,0.69,76.54,0
2020-02-23T05:16:00-05:00,95.97,11.52,737.44,-0.94,0.69,83.91,0
2020-02-23T05:17:00-05:00,95.94,11.51,737.24,0.98,0.9,76.35,0
2020-02-23T05:18:00-05:00,95.91,11.52,736.6,0.39,0.75,105.15,0
2020-02-23T05:19:00-05:00,96.02,11.54,736.17,0.83,0.71,55.89,0
2020-02-23T05:20:00-05:00,95.89,11.56,737.67,-1.08,0.42,58.75,0
2020-02-23T05:21:00-05:00,95.83,11.54,737.24,-0.05,0.35,79.66,0
2020-02-23T05:22:00-05:00,95.74,11.54,737.57,0.68,0.21,49.99,0
2020-02-23T05:23:00-05:00,95.75,11.55,737.54,-0.2,0.14,163.22,0.1
2020-02-23T05:24:00-05:00,95.66,11.55,736.87,0.68,0.18,194.91,0
2020-02-23T05:25:00-05:00,95.48,11.54,736.33,0.53,0.41,103.35,0
2020-02-23T05:26:00-05:00,95.56,11.54,736,0.68,0.35,86.89,0
2020-02-23T05:27:00-05:00,95.58,11.54,736.43,-1.38,0.62,130.21,0
2020-02-23T05:28:00-05:00,95.4,11.52,736.37,0.53,0.4,152.56,0
2020-02-23T05:29:00-05:00,95.38,11.52,736.7,-1.23,0.7,112.26,0
2020-02-23T05:30:00-05:00,95.36,11.51,737.57,0.24,0.61,80.5,0
2020-02-23T05:31:00-05:00,95.56,11.52,737.44,0.39,0.74,101.86,0
2020-02-23T05:32:00-05:00,95.38,11.5,737.44,-0.2,0.54,93.82,0
2020-02-23T05:33:00-05:00,95.48,11.5,736.07,0.24,0.22,201.89,0
2020-02-23T05:34:00-05:00,95.46,11.5,736.84,-1.08,0.38,153.6,0
2020-02-23T05:35:00-05:00,95.43,11.5,736.57,0.39,0.56,121.12,0
2020-02-23T05:36:00-05:00,95.6,11.49,736.27,1.71,0.64,96.87,0
2020-02-23T05:37:00-05:00,95.66,11.48,736.77,-0.35,0.5,129.23,0
2020-02-23T05:38:00-05:00,95.63,11.48,737.74,2,0.57,121.26,0
2020-02-23T05:39:00-05:00,95.61,11.48,736.13,0.09,0.17,165.19,0
2020-02-23T05:40:00-05:00,95.67,11.48,736.6,1.12,0.35,108.75,0
2020-02-23T05:41:00-05:00,95.78,11.49,737.67,-0.2,0.45,72.75,0
2020-02-23T05:42:00-05:00,96.03,11.48,736.84,1.86,0.57,94.23,0
2020-02-23T05:43:00-05:00,95.91,11.5,737.87,0.83,0.56,80.67,0
2020-02-23T05:44:00-05:00,95.91,11.54,737.97,2.45,0.57,82.06,0
2020-02-23T05:45:00-05:00,96.13,11.52,736.37,1.42,0.76,64.3,0
2020-02-23T05:46:00-05:00,96.2,11.54,738.04,0.53,0.95,63.72,0
2020-02-23T05:47:00-05:00,96.26,11.59,736.17,1.71,0.57,59.28,0
2020-02-23T05:48:00-05:00,96.27,11.58,737.74,1.71,0.51,98.82,0
2020-02-23T05:49:00-05:00,96.23,11.59,736.94,-1.08,0.4,83.67,0
2020-02-23T05:50:00-05:00,96.21,11.61,737.94,-0.2,0.55,115.96,0
2020-02-23T05:51:00-05:00,96.14,11.6,736.57,-0.49,0.48,81.94,0
2020-02-23T05:52:00-05:00,96.08,11.61,736.47,-0.94,0.55,123.93,0
2020-02-23T05:53:00-05:00,96.23,11.6,736.57,-1.38,0.4,68.86,0
2020-02-23T05:54:00-05:00,96.19,11.6,737.2,0.24,0.42,103.04,0
2020-02-23T05:55:00-05:00,96.05,11.58,736.67,-0.35,0.43,105.78,0
2020-02-23T05:56:00-05:00,96.21,11.61,736.6,-0.35,0.21,91.64,0
2020-02-23T05:57:00-05:00,96.21,11.6,737.34,-1.52,0.23,113.72,0
2020-02-23T05:58:00-05:00,96.07,11.6,736.43,-0.79,0.24,93.94,0
2020-02-23T05:59:00-05:00,96.25,11.6,737.91,-1.38,0.06,113.07,0
2020-02-23T06:00:00-05:00,96.05,11.6,737.17,-0.94,0.34,132.25,0
2020-02-23T06:01:00-05:00,96.11,11.59,736.8,-1.23,0.58,161.18,0
2020-02-23T06:02:00-05:00,95.97,11.58,736.7,0.24,0.59,163.22,0.1
2020-02-23T06:03:00-05:00,96.09,11.58,736.54,1.27,0.56,170.04,0
2020-02-23T06:04:00-05:00,96.11,11.56,736.47,-0.2,0.52,166.15,0
2020-02-23T06:05:00-05:00,95.98,11.57,737.64,0.98,0.58,191,0
2020-02-23T06:06:00-05:00,96.03,11.54,737.81,0.09,0.57,194.31,0
2020-02-23T06:07:00-05:00,96.08,11.52,737.84,-1.08,0.64,174.1,0
2020-02-23T06:08:00-05:00,96.07,11.5,737.94,1.71,0.25,194.24,0
2020-02-23T06:09:00-05:00,96.2,11.51,737.84,2,0.52,146.35,0
2020-02-23T06:10:00-05:00,96.13,11.5,736.8,-0.35,0.42,143.66,0
2020-02-23T06:11:00-05:00,96.17,11.49,736.6,2,0.52,132.69,0
2020-02-23T06:12:00-05:00,96.17,11.48,736.57,1.27,0.37,138.71,0
2020-02-23T06:13:00-05:00,96.36,11.48,737.14,3.03,0.28,117.04,0
2020-02-23T06:14:00-05:00,96.33,11.5,736.74,3.47,0.35,129.57,0
2020-02-23T06:15:00-05:00,96.41,11.52,736.6,2.15,0.42,93.34,0
2020-02-23T06:16:00-05:00,96.39,11.5,736.43,4.06,0.42,133.86,0
2020-02-23T06:17:00-05:00,96.43,11.52,737.91,3.62,0.36,111.44,0
2020-02-23T06:18:00-05:00,96.53,11.53,737.31,4.21,0.19,95.58,0
2020-02-23T06:19:00-05:00,96.53,11.54,736.5,5.97,0.18,100.86,0
2020-02-23T06:20:00-05:00,96.37,11.54,737.91,6.12,0.51,127.17,0
2020-02-23T06:21:00-05:00,96.52,11.56,737.64,5.39,0.27,153.19,0
2020-02-23T06:22:00-05:00,96.33,11.54,737.71,7.59,0.46,128.27,0
2020-02-23T06:23:00-05:00,96.38,11.54,736.74,6.86,0.55,145.36,0
2020-02-23T06:24:00-05:00,96.22,11.54,738.08,7.15,0.54,140.37,0
2020-02-23T06:25:00-05:00,96.41,11.55,736.64,8.91,0.31,131.63,0
2020-02-23T06:26:00-05:00,96.35,11.56,738.14,8.47,0.64,151.27,0
2020-02-23T06:27:00-05:00,96.26,11.56,738.18,7.74,0.6,148.63,0
2020-02-23T06:28:00-05:00,96.37,11.58,738.28,10.09,0.69,139.34,0
2020-02-23T06:29:00-05:00,96.41,11.58,737.31,11.41,0.66,142.65,0
2020-02-23T06:30:00-05:00,96.26,11.59,736.64,11.71,0.6,137.7,0
2020-02-23T06:31:00-05:00,96.23,11.61,736.8,10.68,0.67,130.81,0
2020-02-23T06:32:00-05:00,96.15,11.63,737.04,11.71,0.5,129.3,0
2020-02-23T06:33:00-05:00,96.18,11.6,737.71,13.47,0.65,132.54,0
2020-02-23T06:34:00-05:00,96.37,11.64,736.97,13.77,0.55,129.28,0
2020-02-23T06:35:00-05:00,96.29,11.65,736.94,16.12,0.42,127.69,0
2020-02-23T06:36:00-05:00,96.33,11.69,737.1,14.94,0.22,107.58,0
2020-02-23T06:37:00-05:00,96.33,11.67,738.44,17.44,0.31,86.91,0
2020-02-23T06:38:00-05:00,96.21,11.71,738.48,18.03,0.21,110.15,0
2020-02-23T06:39:00-05:00,96.4,11.72,738.31,20.38,0.42,98.05,0
2020-02-23T06:40:00-05:00,96.42,11.73,738.31,20.53,0.13,122.08,0
2020-02-23T06:41:00-05:00,96.31,11.72,737.2,22.15,0.21,97.98,0
2020-02-23T06:42:00-05:00,96.39,11.75,737.94,23.03,0.14,115.96,0
2020-02-23T06:43:00-05:00,96.33,11.77,738.58,24.94,0.12,185.95,0
2020-02-23T06:44:00-05:00,96.28,11.77,737.27,26.41,0.4,153.57,0
2020-02-23T06:45:00-05:00,96.29,11.79,738.38,25.82,0.29,159.21,0.1
2020-02-23T06:46:00-05:00,96.24,11.79,738.21,27,0.27,139.7,0
2020-02-23T06:47:00-05:00,96.28,11.81,737.51,28.47,0.18,137.34,0
2020-02-23T06:48:00-05:00,96.43,11.82,737.84,29.64,0.28,134.56,0
2020-02-23T06:49:00-05:00,96.31,11.82,737.44,32.44,0.12,125.7,0
2020-02-23T06:50:00-05:00,96.49,11.85,738.98,32.88,0.25,149.66,0
2020-02-23T06:51:00-05:00,96.45,11.85,738.01,35.53,0.25,152.23,0
2020-02-23T06:52:00-05:00,96.35,11.85,739.15,37.14,0.34,139.62,0
2020-02-23T06:53:00-05:00,96.23,11.87,737.84,38.17,0.27,136.29,0
2020-02-23T06:54:00-05:00,96.25,11.89,739.08,40.67,0.23,130.89,0
2020-02-23T06:55:00-05:00,96.33,11.89,738.48,41.85,0.23,137.39,0
2020-02-23T06:56:00-05:00,96.31,11.9,737.41,42,0.42,166.15,0
2020-02-23T06:57:00-05:00,96.42,11.92,738.68,42.88,0.51,151.29,0
2020-02-23T06:58:00-05:00,96.16,11.91,739.08,44.94,0.54,163.27,0
2020-02-23T06:59:00-05:00,96.13,11.92,737.57,44.79,0.42,145.36,0
2020-02-23T07:00:00-05:00,96.26,11.93,738.98,45.23,0.43,164.21,0
2020-02-23T07:01:00-05:00,96.09,11.93,738.51,48.32,0.22,189.07,0
2020-02-23T07:02:00-05:00,96.2,11.94,738.85,48.61,0.22,182.04,0
2020-02-23T07:03:00-05:00,96.2,11.95,737.81,48.61,0.09,197.33,0
2020-02-23T07:04:00-05:00,96.3,11.96,738.48,49.64,0.17,286.92,0
2020-02-23T07:05:00-05:00,96.27,11.99,737.84,51.11,0.21,26.18,0
2020-02-23T07:06:00-05:00,96.22,12,737.77,52.29,0.15,132.71,0
2020-02-23T07:07:00-05:00,96.39,12.03,738.08,56.4,0.3,174.5,0
2020-02-23T07:08:00-05:00,96.36,12.05,738.01,58.76,0.24,170.04,0
2020-02-23T07:09:00-05:00,96.43,12.08,738.54,59.49,0.19,182.45,0
2020-02-23T07:10:00-05:00,96.45,12.09,737.71,62.87,0.16,160.24,0
2020-02-23T07:11:00-05:00,96.44,12.13,739.05,65.22,0.24,164.21,0
2020-02-23T07:12:00-05:00,96.35,12.14,738.48,69.34,0.57,288.62,0
2020-02-23T07:13:00-05:00,96.25,12.13,739.05,71.84,0.2,194.91,0
2020-02-23T07:14:00-05:00,96.43,12.18,739.48,75.52,0.34,161.18,0
2020-02-23T07:15:00-05:00,96.21,12.18,738.71,78.31,0.51,76.04,0
2020-02-23T07:16:00-05:00,96.08,12.17,738.31,79.19,0.19,68.28,0
2020-02-23T07:17:00-05:00,96.1,12.17,738.64,82.57,0.06,191,0
2020-02-23T07:18:00-05:00,96.13,12.21,738.21,85.37,0.34,39.38,0
2020-02-23T07:19:00-05:00,95.84,12.21,737.77,88.75,0.44,87.15,0
2020-02-23T07:20:00-05:00,95.93,12.25,739.45,93.75,0.16,1.81,0
2020-02-23T07:21:00-05:00,95.78,12.25,738.28,97.86,0.41,349.38,0
2020-02-23T07:22:00-05:00,95.99,12.3,739.55,102.13,0.42,205.33,0
2020-02-23T07:23:00-05:00,95.85,12.32,738.18,106.24,0.21,278.64,0
2020-02-23T07:24:00-05:00,95.72,12.34,738.01,112.86,0.27,225.2,0
2020-02-23T07:25:00-05:00,96.02,12.37,739.21,116.54,0.23,222.95,0
2020-02-23T07:26:00-05:00,96.03,12.43,738.61,119.62,0.09,224.24,0
2020-02-23T07:27:00-05:00,96.07,12.46,739.68,120.65,0.2,282.69,0.1
2020-02-23T07:28:00-05:00,95.99,12.51,738.88,124.77,0.42,334.88,0
2020-02-23T07:29:00-05:00,95.44,12.48,739.21,127.56,0.34,357.4,0
2020-02-23T07:30:00-05:00,95.52,12.48,739.72,129.62,0.25,316.57,0
2020-02-23T07:31:00-05:00,95.56,12.54,738.34,134.47,0.22,213.92,0
2020-02-23T07:32:00-05:00,95.61,12.58,738.41,139.18,0.14,235.81,0
2020-02-23T07:33:00-05:00,95.87,12.64,739.41,142.85,0.57,225.87,0
2020-02-23T07:34:00-05:00,95.59,12.66,740.02,145.21,0.62,215.89,0
2020-02-23T07:35:00-05:00,95.51,12.71,738.61,145.94,0.36,232.86,0
2020-02-23T07:36:00-05:00,95.44,12.73,738.64,148,0.24,195.94,0
2020-02-23T07:37:00-05:00,95.5,12.75,738.44,149.03,0.53,192.22,0
2020-02-23T07:38:00-05:00,95.21,12.75,738.71,147.41,0.62,211.16,0
2020-02-23T07:39:00-05:00,95.38,12.77,739.88,145.35,0.46,257.11,0
2020-02-23T07:40:00-05:00,95.22,12.78,739.31,145.21,0.52,294.6,0
2020-02-23T07:41:00-05:00,95.13,12.77,739.72,146.23,0.41,224.24,0
2020-02-23T07:42:00-05:00,94.75,12.77,738.38,147.56,0.33,216.85,0
2020-02-23T07:43:00-05:00,94.96,12.79,739.72,148.44,0.25,294.96,0
2020-02-23T07:44:00-05:00,94.91,12.78,737.27,147.85,0.21,252.71,0
2020-02-23T07:45:00-05:00,95.03,12.83,738.88,146.68,0.48,240.21,0
2020-02-23T07:46:00-05:00,94.9,12.85,738.74,144.03,0.23,253.74,0
2020-02-23T07:47:00-05:00,94.84,12.87,737.94,139.77,0.24,287.88,0
2020-02-23T07:48:00-05:00,94.92,12.89,738.85,133.74,0.3,261.74,0
2020-02-23T07:49:00-05:00,94.32,12.87,738.74,134.33,0.65,218.87,0
2020-02-23T07:50:00-05:00,94.26,12.86,737.61,129.91,0.51,238.79,0
2020-02-23T07:51:00-05:00,94.51,12.89,737.34,124.92,0.56,280.63,0
2020-02-23T07:52:00-05:00,94.52,12.91,738.08,124.03,0.11,248.8,0
2020-02-23T07:53:00-05:00,94.52,12.96,737.2,119.77,0.22,236.75,0
2020-02-23T07:54:00-05:00,94.84,13,738.11,120.36,0.23,208.93,0
2020-02-23T07:55:00-05:00,94.95,13.04,737.71,115.8,0.26,238.86,0
2020-02-23T07:56:00-05:00,94.58,13.07,737.84,108.74,0.23,266.73,0
2020-02-23T07:57:00-05:00,94.22,13.1,737.57,100.36,0.59,263.68,0
2020-02-23T07:58:00-05:00,94.08,13.06,738.58,95.51,0.25,331.83,0
2020-02-23T07:59:00-05:00,93.81,13.07,738.54,88.45,0.06,329.53,0
2020-02-23T08:00:00-05:00,93.2,13.05,737.34,86.25,0.09,339.8,0
2020-02-23T08:01:00-05:00,92.87,13,738.28,83.75,0.28,306.51,0
2020-02-23T08:02:00-05:00,93.32,13.04,738.28,80.07,0.22,289.94,0
2020-02-23T08:03:00-05:00,93.25,13.08,739.01,75.22,0.18,295.56,0
2020-02-23T08:04:00-05:00,93.53,13.11,737.64,71.55,0.58,326.89,0
2020-02-23T08:05:00-05:00,93.51,13.12,739.08,69.19,0.47,305.55,0
2020-02-23T08:06:00-05:00,93.21,13.12,739.31,66.55,0.36,208.21,0
2020-02-23T08:07:00-05:00,93.07,13.12,737.71,61.55,0.39,197.96,0
2020-02-23T08:08:00-05:00,93.36,13.12,738.21,60.08,0.1,328.47,0.1
2020-02-23T08:09:00-05:00,93.39,13.14,738.58,60.67,0.25,7.4,0
2020-02-23T08:10:00-05:00,93.47,13.17,739.01,59.2,0.3,330.51,0
2020-02-23T08:11:00-05:00,93.13,13.16,737.94,56.99,0.23,18.21,0
2020-02-23T08:12:00-05:00,93.39,13.14,737.54,55.96,0.15,303.84,0
2020-02-23T08:13:00-05:00,93.45,13.17,738.95,55.67,0.21,352.5,0
2020-02-23T08:14:00-05:00,93.21,13.16,738.98,55.52,0.58,36.83,0
2020-02-23T08:15:00-05:00,92.9,13.15,739.25,54.93,0.06,48.29,0
2020-02-23T08:16:00-05:00,93.14,13.16,738.48,58.17,0.31,182.09,0
2020-02-23T08:17:00-05:00,93.25,13.17,737.81,58.31,0.23,200.26,0
2020-02-23T08:18:00-05:00,93.59,13.2,739.01,61.55,0.24,47.78,0
2020-02-23T08:19:00-05:00,93.49,13.22,738.58,65.08,0.63,23.39,0
2020-02-23T08:20:00-05:00,93.08,13.2,738.31,67.14,0.53,41.68,0
2020-02-23T08:21:00-05:00,92.87,13.18,738.21,72.13,0.77,49.85,0
2020-02-23T08:22:00-05:00,92.32,13.12,739.08,74.19,0.72,54.19,0
2020-02-23T08:23:00-05:00,92.24,13.08,737.71,77.13,0.85,60.96,0
2020-02-23T08:24:00-05:00,92.2,13.03,738.24,79.93,0.75,50.54,0
2020-02-23T08:25:00-05:00,92.46,13.02,737.47,82.28,0.3,121.38,0
2020-02-23T08:26:00-05:00,92.85,13.02,739.05,87.13,0.26,68.35,0
2020-02-23T08:27:00-05:00,93.09,13.06,738.21,50.82,0.59,52.51,0
2020-02-23T08:28:00-05:00,93.21,13.04,737.94,91.54,0.69,28.48,0
2020-02-23T08:29:00-05:00,93.2,13.04,739.01,93.16,0.62,60.46,0
2020-02-23T08:30:00-05:00,93.51,13.06,739.18,95.66,0.6,53.76,0
2020-02-23T08:31:00-05:00,93.19,13.06,737.61,97.72,0.73,43.46,0
2020-02-23T08:32:00-05:00,92.87,13.01,738.31,95.95,0.61,67.87,0
2020-02-23T08:33:00-05:00,93.29,13.03,739.15,94.34,0.56,18.13,0
2020-02-23T08:34:00-05:00,93.15,13.04,738.41,93.75,1.3,60.72,0
2020-02-23T08:35:00-05:00,92.86,13,738.98,92.57,0.74,49.73,0
2020-02-23T08:36:00-05:00,93.15,13.02,738.98,89.63,0.54,63.22,0
2020-02-23T08:37:00-05:00,93.09,13.02,737.87,88.9,0.58,355.45,0
2020-02-23T08:38:00-05:00,93.16,13.04,738.68,88.45,0.25,19.84,0
2020-02-23T08:39:00-05:00,93.41,13.08,739.15,88.16,0.39,344.48,0
2020-02-23T08:40:00-05:00,93.5,13.12,738.44,88.75,0.26,321.89,0
2020-02-23T08:41:00-05:00,93.66,13.18,737.77,89.19,0.54,327.54,0
2020-02-23T08:42:00-05:00,93.86,13.22,738.58,92.28,0.3,26.27,0
2020-02-23T08:43:00-05:00,94.03,13.28,737.81,93.31,0.23,201.92,0
2020-02-23T08:44:00-05:00,94.2,13.31,739.18,93.31,0.22,40.34,0
2020-02-23T08:45:00-05:00,93.99,13.36,739.11,94.92,0.21,231.16,0
2020-02-23T08:46:00-05:00,94.03,13.36,738.34,97.72,0.18,183.34,0
2020-02-23T08:47:00-05:00,93.87,13.39,738.95,102.72,0.4,4.69,0
2020-02-23T08:48:00-05:00,93.73,13.38,737.57,103.16,0.62,55.89,0
2020-02-23T08:49:00-05:00,93.04,13.35,738.61,107.42,0.2,321.49,0
2020-02-23T08:50:00-05:00,93.04,13.34,738.48,107.42,0.11,95.31,0.1
2020-02-23T08:51:00-05:00,92.85,13.36,739.15,109.77,0.57,33.93,0
2020-02-23T08:52:00-05:00,92.66,13.38,738.01,112.27,0.23,80.84,0
2020-02-23T08:53:00-05:00,92.5,13.38,738.85,112.42,0.6,27.52,0
2020-02-23T08:54:00-05:00,92.01,13.36,738.01,114.33,0.57,12.83,0
2020-02-23T08:55:00-05:00,92.24,13.38,739.21,113.3,0.61,17.37,0
2020-02-23T08:56:00-05:00,92.27,13.4,737.57,114.77,0.53,58.49,0
2020-02-23T08:57:00-05:00,92.17,13.42,737.81,115.65,0.58,44.95,0
2020-02-23T08:58:00-05:00,92.56,13.44,738.81,119.33,0.34,65.26,0
2020-02-23T08:59:00-05:00,92.51,13.5,738.98,120.51,0.21,117.76,0
2020-02-23T09:00:00-05:00,92.53,13.53,739.01,120.8,0.16,71.31,0
2020-02-23T09:01:00-05:00,92.35,13.53,737.91,117.12,0.13,73.56,0
2020-02-23T09:02:00-05:00,92.42,13.57,738.31,111.39,0.46,181.06,0
2020-02-23T09:03:00-05:00,92.28,13.59,738.34,102.72,0.15,327.54,0
2020-02-23T09:04:00-05:00,92.11,13.63,737.64,91.69,0.24,312.53,0
2020-02-23T09:05:00-05:00,92.1,13.65,739.35,83.46,0.28,111.87,0
2020-02-23T09:06:00-05:00,91.95,13.66,739.08,77.43,0.39,319.54,0
2020-02-23T09:07:00-05:00,91.67,13.66,738.98,74.78,0.26,316.59,0
2020-02-23T09:08:00-05:00,90.63,13.64,737.67,73.46,0.4,301.61,0
2020-02-23T09:09:00-05:00,89.97,13.59,739.15,70.22,0.19,287.62,0
2020-02-23T09:10:00-05:00,89.56,13.6,738.95,70.66,0.06,181.08,0
2020-02-23T09:11:00-05:00,89.73,13.6,737.71,72.43,0.23,141.38,0
2020-02-23T09:12:00-05:00,89.12,13.6,738.38,72.72,0.34,186.24,0
2020-02-23T09:13:00-05:00,88.88,13.58,738.38,73.16,0.53,184.97,0
2020-02-23T09:14:00-05:00,89.52,13.57,738.34,74.05,0.55,187.3,0
2020-02-23T09:15:00-05:00,90.47,13.58,739.35,76.1,0.21,189.05,0
2020-02-23T09:16:00-05:00,90.38,13.58,739.18,76.55,0.22,203.24,0
2020-02-23T09:17:00-05:00,90.25,13.58,739.38,77.72,0.06,214.93,0
2020-02-23T09:18:00-05:00,90.38,13.58,737.51,75.37,0.55,149.68,0
2020-02-23T09:19:00-05:00,90.71,13.59,739.21,75.81,0.3,153.62,0
2020-02-23T09:20:00-05:00,90.61,13.59,738.91,76.4,0.14,342.85,0
2020-02-23T09:21:00-05:00,90.76,13.62,739.18,81.25,0.24,27.86,0
2020-02-23T09:22:00-05:00,90.97,13.62,738.95,87.42,0.65,23.49,0
2020-02-23T09:23:00-05:00,91.35,13.64,739.55,90.37,0.45,35.51,0
2020-02-23T09:24:00-05:00,91.41,13.64,738.21,94.19,0.49,4.69,0
2020-02-23T09:25:00-05:00,91.43,13.62,737.77,97.28,0.57,7.62,0
2020-02-23T09:26:00-05:00,91.44,13.59,739.08,100.36,0.71,40.58,0
2020-02-23T09:27:00-05:00,91.44,13.56,739.28,100.36,0.81,34.77,0
2020-02-23T09:28:00-05:00,91.43,13.47,738.01,101.1,0.89,56.93,0
2020-02-23T09:29:00-05:00,91.78,13.43,738.71,104.77,0.58,0.8,0
2020-02-23T09:30:00-05:00,92.58,13.39,738.78,104.63,0.59,10.45,0
2020-02-23T09:31:00-05:00,93.24,13.4,738.98,105.36,0.63,18.59,0
2020-02-23T09:32:00-05:00,93.09,13.35,739.18,106.39,0.71,6.44,0.1
2020-02-23T09:33:00-05:00,92.93,13.32,738.04,106.39,0.59,5.1,0
2020-02-23T09:34:00-05:00,93.33,13.28,739.51,106.1,0.56,353.46,0
2020-02-23T09:35:00-05:00,93.93,13.3,739.15,105.51,0.44,237.16,0
2020-02-23T09:36:00-05:00,94.34,13.33,738.88,107.42,0.19,126.66,0
2020-02-23T09:37:00-05:00,93.79,13.3,737.51,103.3,0.35,39.28,0
2020-02-23T09:38:00-05:00,93.85,13.26,739.28,101.98,0.13,32.11,0
2020-02-23T09:39:00-05:00,93.14,13.21,738.18,99.19,0.72,35.11,0
2020-02-23T09:40:00-05:00,92.89,13.13,739.25,97.86,0.65,47.37,0
2020-02-23T09:41:00-05:00,93,13.12,739.31,98.16,0.94,40.32,0
2020-02-23T09:42:00-05:00,93.41,13.12,738.81,98.89,0.98,22.96,0
2020-02-23T09:43:00-05:00,93.79,13.12,738.81,98.45,0.26,98.31,0
2020-02-23T09:44:00-05:00,94.23,13.14,738.54,99.92,0.53,352.45,0
2020-02-23T09:45:00-05:00,94.58,13.18,737.91,100.36,0.19,221.91,0
2020-02-23T09:46:00-05:00,94.52,13.22,738.95,102.27,0.54,1.79,0
2020-02-23T09:47:00-05:00,94.48,13.2,739.11,105.22,0.72,2.72,0
2020-02-23T09:48:00-05:00,94.46,13.2,738.54,107.13,1,23.39,0
2020-02-23T09:49:00-05:00,94.44,13.19,739.31,110.65,0.96,347.46,0
2020-02-23T09:50:00-05:00,94.62,13.17,738.01,112.27,0.19,50.35,0
2020-02-23T09:51:00-05:00,94.98,13.21,739.08,113.45,0.67,74.19,0
2020-02-23T09:52:00-05:00,95.02,13.22,739.31,114.18,0.62,12.93,0
2020-02-23T09:53:00-05:00,94.92,13.22,737.81,114.18,0.26,26.73,0
2020-02-23T09:54:00-05:00,94.64,13.2,737.91,111.54,0.85,58.9,0
2020-02-23T09:55:00-05:00,94.79,13.2,737.54,107.57,1.17,22.43,0
2020-02-23T09:56:00-05:00,94.5,13.15,739.38,100.95,1.09,12.52,0
2020-02-23T09:57:00-05:00,94.83,13.15,739.11,95.51,0.5,16.29,0
2020-02-23T09:58:00-05:00,94.76,13.14,737.61,93.16,0.71,59.26,0
2020-02-23T09:59:00-05:00,95.15,13.14,738.68,89.63,0.89,12.81,0
2020-02-23T10:00:00-05:00,94.6,13.08,738.38,90.37,0.6,4.76,0
2020-02-23T10:01:00-05:00,94.87,13.05,737.74,90.81,0.19,329.55,0
2020-02-23T10:02:00-05:00,94.51,13.03,738.11,94.48,0.22,348.44,0
2020-02-23T10:03:00-05:00,94.88,13,739.11,102.42,0.56,221.91,0
2020-02-23T10:04:00-05:00,95.15,13.04,737.74,115.95,0.42,210.87,0
2020-02-23T10:05:00-05:00,95.44,13.08,738.01,130.94,0.22,69.67,0.1
2020-02-23T10:06:00-05:00,95.42,13.1,738.38,149.03,0.62,57.62,0
2020-02-23T10:07:00-05:00,95.3,13.1,739.05,164.76,0.49,7.88,0
2020-02-23T10:08:00-05:00,95.42,13.1,737.84,182.7,0.29,1.79,0
2020-02-23T10:09:00-05:00,95.37,13.1,738.91,191.96,0.68,25.12,0
2020-02-23T10:10:00-05:00,95.22,13.1,738.85,196.22,0.3,345.44,0
2020-02-23T10:11:00-05:00,95.1,13.08,738.71,195.05,0.56,43.27,0
2020-02-23T10:12:00-05:00,95.09,13.07,737.51,195.19,0.53,87.7,0
2020-02-23T10:13:00-05:00,95.34,13.12,737.87,191.52,0.56,33.88,0
2020-02-23T10:14:00-05:00,95.67,13.16,737.61,193.14,0.36,173.16,0
2020-02-23T10:15:00-05:00,95.51,13.19,738.81,189.9,0.26,351.88,0
2020-02-23T10:16:00-05:00,96.01,13.28,739.38,190.05,0.6,12.73,0
2020-02-23T10:17:00-05:00,95.57,13.29,737.67,192.55,0.56,38.61,0
2020-02-23T10:18:00-05:00,95.29,13.27,739.28,197.69,0.25,16.09,0
2020-02-23T10:19:00-05:00,95.46,13.3,738.31,207.69,0.42,269.73,0
2020-02-23T10:20:00-05:00,95.64,13.35,739.21,219.31,0.58,16.05,0
2020-02-23T10:21:00-05:00,95.82,13.42,738.01,233.13,0.56,297.58,0
2020-02-23T10:22:00-05:00,95.69,13.44,739.35,247.83,0.58,1.74,0
2020-02-23T10:23:00-05:00,96.01,13.5,738.85,261.94,0.27,145.58,0
2020-02-23T10:24:00-05:00,95.52,13.52,738.95,267.97,0.51,60.43,0
2020-02-23T10:25:00-05:00,95.08,13.51,737.91,262.53,0.61,319.52,0
2020-02-23T10:26:00-05:00,95.87,13.57,737.47,252.97,0.26,156.6,0
2020-02-23T10:27:00-05:00,96.29,13.69,738.38,251.65,0.15,92.45,0
2020-02-23T10:28:00-05:00,95.93,13.75,738.68,257.97,0.22,274.05,0
2020-02-23T10:29:00-05:00,96.24,13.86,739.18,267.68,0.49,261.69,0
2020-02-23T10:30:00-05:00,96.34,13.92,737.81,276.35,0.48,288.89,0
2020-02-23T10:31:00-05:00,96.27,14,738.04,285.91,0.36,113.84,0
2020-02-23T10:32:00-05:00,95.37,13.96,738.38,303.55,0.36,15.69,0
2020-02-23T10:33:00-05:00,95.02,13.95,739.15,324.87,0.89,42.4,0
2020-02-23T10:34:00-05:00,94.13,13.88,738.38,337.95,0.61,44.04,0
2020-02-23T10:35:00-05:00,94.82,13.92,737.47,344.86,0.45,110.87,0
2020-02-23T10:36:00-05:00,94.76,13.96,737.34,353.83,0.63,344.7,0
2020-02-23T10:37:00-05:00,94.94,14.02,738.14,358.98,0.58,49.46,0
2020-02-23T10:38:00-05:00,94.32,14.04,737.87,350.16,0.56,11.77,0
2020-02-23T10:39:00-05:00,94.32,14.06,737.64,340.75,0.68,339.51,0
2020-02-23T10:40:00-05:00,94.89,14.15,738.95,332.51,0.52,39.62,0
2020-02-23T10:41:00-05:00,94.53,14.21,738.71,320.75,0.29,142.29,0.1
2020-02-23T10:42:00-05:00,93.63,14.23,737.47,314.43,0.42,129.21,0
2020-02-23T10:43:00-05:00,93.26,14.27,737.44,317.22,0.59,116.6,0
2020-02-23T10:44:00-05:00,92.8,14.27,738.88,323.4,0.31,131.34,0
2020-02-23T10:45:00-05:00,93.29,14.35,737.84,321.93,0.71,238.91,0
2020-02-23T10:46:00-05:00,93.21,14.45,738.28,317.96,0.3,256.79,0
2020-02-23T10:47:00-05:00,93.17,14.53,736.94,315.9,0.58,193.25,0
2020-02-23T10:48:00-05:00,92.42,14.61,737.04,324.13,0.59,234.83,0
2020-02-23T10:49:00-05:00,92.3,14.65,738.44,331.34,0.58,166.51,0
2020-02-23T10:50:00-05:00,92.64,14.75,737.44,303.26,0.29,237.76,0
2020-02-23T10:51:00-05:00,91.92,14.82,738.74,283.26,0.57,260.08,0
2020-02-23T10:52:00-05:00,92.48,14.91,738.71,266.94,0.56,236.77,0
2020-02-23T10:53:00-05:00,91.95,14.95,737.91,253.71,0.68,225.2,0
2020-02-23T10:54:00-05:00,92.53,15.02,737.84,243.71,0.68,212.89,0
2020-02-23T10:55:00-05:00,92.35,15.08,738.61,239.59,0.28,294.63,0
2020-02-23T10:56:00-05:00,91.82,15.14,738.64,235.92,0.51,277.73,0
2020-02-23T10:57:00-05:00,91.93,15.16,737.41,231.51,0.22,249.76,0
2020-02-23T10:58:00-05:00,90.87,15.2,736.94,235.62,0.56,186.96,0
2020-02-23T10:59:00-05:00,89.08,15.17,738.28,248.42,0.59,176.09,0
2020-02-23T11:00:00-05:00,88.52,15.13,738.31,257.97,0.58,219.18,0
2020-02-23T11:01:00-05:00,89.84,15.19,738.14,273.41,0.3,281.69,0
2020-02-23T11:02:00-05:00,89.67,15.23,738.28,294.58,0.32,260.71,0
2020-02-23T11:03:00-05:00,90.24,15.31,738.38,314.14,0.61,277.68,0
2020-02-23T11:04:00-05:00,90.17,15.34,738.41,341.04,0.34,302.93,0
2020-02-23T11:05:00-05:00,90.88,15.41,737.2,366.92,0.58,241.77,0
2020-02-23T11:06:00-05:00,89.84,15.43,737.14,392.2,0.3,348.76,0
2020-02-23T11:07:00-05:00,88.68,15.45,736.94,414.41,0.23,189.03,0
2020-02-23T11:08:00-05:00,88.05,15.49,738.21,415.29,1.16,294.96,0
2020-02-23T11:09:00-05:00,85.67,15.47,737.67,407.94,1.23,332.46,0
2020-02-23T11:10:00-05:00,84.8,15.52,737.07,387.94,0.57,294,0
2020-02-23T11:11:00-05:00,84.34,15.57,738.44,368.98,0.28,284.66,0
2020-02-23T11:12:00-05:00,84.23,15.61,737.17,353.83,0.22,2.03,0
2020-02-23T11:13:00-05:00,87.26,15.68,737.47,341.48,0.23,126.93,0.1
2020-02-23T11:14:00-05:00,87.83,15.76,738.61,334.87,0.58,54.57,0
2020-02-23T11:15:00-05:00,87.67,15.82,738.71,324.87,1.61,50.33,0
2020-02-23T11:16:00-05:00,86.12,15.74,738.48,310.31,0.63,57.07,0
2020-02-23T11:17:00-05:00,86.47,15.76,737.47,301.34,0.69,63.12,0
2020-02-23T11:18:00-05:00,85.51,15.74,737.34,285.02,0.59,14.97,0
2020-02-23T11:19:00-05:00,86.07,15.75,737.2,261.94,0.6,82.13,0
2020-02-23T11:20:00-05:00,85.37,15.74,737.27,235.48,0.66,93.39,0
2020-02-23T11:21:00-05:00,84.25,15.69,737.51,223.57,1.81,48.72,0
2020-02-23T11:22:00-05:00,83.8,15.62,737.07,217.39,0.66,37.72,0
2020-02-23T11:23:00-05:00,84.24,15.59,738.48,223.86,0.71,45.4,0
2020-02-23T11:24:00-05:00,85.86,15.57,738.41,236.21,0.31,24.83,0
2020-02-23T11:25:00-05:00,86.14,15.6,738.41,256.36,0.62,95.46,0
2020-02-23T11:26:00-05:00,85.55,15.58,738.61,278.56,0.49,19.02,0
2020-02-23T11:27:00-05:00,87.53,15.62,737.04,308.84,0.53,138.69,0
2020-02-23T11:28:00-05:00,86.14,15.58,738.18,316.93,0.39,25.55,0
2020-02-23T11:29:00-05:00,86.11,15.59,738.54,334.87,0.5,324.9,0
2020-02-23T11:30:00-05:00,85.85,15.59,738.24,354.13,0.56,7.55,0
2020-02-23T11:31:00-05:00,86.77,15.65,737.64,359.12,0.48,339.47,0
2020-02-23T11:32:00-05:00,85.26,15.7,738.18,349.42,0.65,23.85,0
2020-02-23T11:33:00-05:00,85.24,15.71,737.51,363.39,0.59,47.47,0
2020-02-23T11:34:00-05:00,85.39,15.68,737.07,384.12,0.69,13.98,0
2020-02-23T11:35:00-05:00,85.15,15.65,738.38,388.24,0.8,17.56,0
2020-02-23T11:36:00-05:00,83.3,15.59,737.14,381.33,0.69,46.63,0
2020-02-23T11:37:00-05:00,84.1,15.55,738.31,383.82,1.3,13.09,0
2020-02-23T11:38:00-05:00,85.09,15.57,738.68,407.2,1.78,38.08,0
2020-02-23T11:39:00-05:00,83.03,15.48,738.58,448.96,0.57,17.87,0
2020-02-23T11:40:00-05:00,84.26,15.46,736.97,476.3,1.58,29.61,0
2020-02-23T11:41:00-05:00,84.22,15.47,737.61,487.92,1.15,30.35,0
2020-02-23T11:42:00-05:00,85.55,15.49,736.9,466.6,0.6,158.61,0
2020-02-23T11:43:00-05:00,86.84,15.57,736.74,461.31,0.61,313.88,0
2020-02-23T11:44:00-05:00,85.51,15.65,738.41,473.8,0.8,48.77,0
2020-02-23T11:45:00-05:00,84.81,15.74,737.44,476.89,0.6,349.4,0
2020-02-23T11:46:00-05:00,82.38,15.75,738.18,483.8,0.63,23.87,0.1
2020-02-23T11:47:00-05:00,83.36,15.8,737.34,479.39,0.59,23.15,0
2020-02-23T11:48:00-05:00,83.46,15.87,737.44,447.34,1.59,30.62,0
2020-02-23T11:49:00-05:00,81.42,15.74,736.67,421.17,0.77,34.79,0
2020-02-23T11:50:00-05:00,83.31,15.8,737.41,427.34,0.63,30.23,0
2020-02-23T11:51:00-05:00,84.28,15.85,736.54,438.08,0.48,7.24,0
2020-02-23T11:52:00-05:00,82.01,15.9,737.14,451.01,0.08,272.61,0
2020-02-23T11:53:00-05:00,83.07,15.94,738.08,455.13,1.31,24.71,0
2020-02-23T11:54:00-05:00,82.91,15.98,737.51,459.98,0.51,354.4,0
2020-02-23T11:55:00-05:00,83.54,16.08,736.6,468.66,2.17,47.85,0
2020-02-23T11:56:00-05:00,83.22,16.13,737.84,478.95,0.28,122.99,0
2020-02-23T11:57:00-05:00,84.02,16.24,737.81,485.27,0.13,265.75,0
2020-02-23T11:58:00-05:00,85.22,16.4,737.91,490.71,0.56,8.48,0
2020-02-23T11:59:00-05:00,84.02,16.52,738.08,499.68,1.18,33.5,0
2020-02-23T12:00:00-05:00,82.02,16.53,736.33,487.48,0.65,357.45,0
2020-02-23T12:01:00-05:00,80.8,16.64,736.27,472.19,0.62,59.38,0
2020-02-23T12:02:00-05:00,78.45,16.68,737.74,455.13,1.17,37.51,0
2020-02-23T12:03:00-05:00,77.98,16.62,736.8,429.84,0.99,355.81,0
2020-02-23T12:04:00-05:00,78.52,16.57,738.04,418.96,0.61,161.18,0
2020-02-23T12:05:00-05:00,77.81,16.48,737.14,408.08,0.26,102.2,0
2020-02-23T12:06:00-05:00,78.92,16.52,737.07,402.79,0.76,345.44,0
2020-02-23T12:07:00-05:00,79.34,16.52,736.27,398.38,0.85,29.2,0
2020-02-23T12:08:00-05:00,80.27,16.52,737.67,396.17,0.69,7.26,0
2020-02-23T12:09:00-05:00,82.79,16.56,738.04,387.35,0.56,63.46,0
2020-02-23T12:10:00-05:00,81.89,16.63,736.6,374.42,1.05,10.72,0
2020-02-23T12:11:00-05:00,80.62,16.59,736.8,365.45,0.56,22.05,0
2020-02-23T12:12:00-05:00,82.07,16.58,737.17,366.18,0.19,191.02,0
2020-02-23T12:13:00-05:00,81.24,16.58,736.47,375.3,0.68,321.51,0
2020-02-23T12:14:00-05:00,82.17,16.62,737.71,378.09,0.55,235.76,0
2020-02-23T12:15:00-05:00,80.8,16.67,736.37,354.27,0.56,185.93,0
2020-02-23T12:16:00-05:00,81.85,16.66,736,318.1,0.62,327.87,0.1
2020-02-23T12:17:00-05:00,79.91,16.66,737.1,298.7,0.66,300.91,0
2020-02-23T12:18:00-05:00,76.95,16.62,736.27,292.82,0.35,335.84,0
2020-02-23T12:19:00-05:00,79.41,16.61,736.54,295.17,0.75,322.5,0
2020-02-23T12:20:00-05:00,81.64,16.63,736.54,303.84,0.62,287.88,0
2020-02-23T12:21:00-05:00,79.21,16.63,737.61,317.08,0.49,312.53,0
2020-02-23T12:22:00-05:00,80.95,16.63,736.33,336.92,0.6,7.57,0
2020-02-23T12:23:00-05:00,80.05,16.64,737.34,365.89,1.33,39.74,0
2020-02-23T12:24:00-05:00,77.45,16.58,737,384.41,1.5,6.28,0
2020-02-23T12:25:00-05:00,76.39,16.48,736.2,404.11,0.57,44.42,0
2020-02-23T12:26:00-05:00,77.1,16.48,737.57,412.35,0.72,28.43,0
2020-02-23T12:27:00-05:00,79.62,16.55,736.33,404.85,0.31,346.43,0
2020-02-23T12:28:00-05:00,79.64,16.62,735.87,376.91,0.23,70.99,0
2020-02-23T12:29:00-05:00,76.14,16.66,736.27,336.19,0.22,296.57,0
2020-02-23T12:30:00-05:00,76.55,16.7,737.54,295.46,0.12,334.52,0
2020-02-23T12:31:00-05:00,76.76,16.77,737.07,266.21,0.54,102.94,0
2020-02-23T12:32:00-05:00,78.82,16.82,737.54,238.12,0.23,116.96,0
2020-02-23T12:33:00-05:00,77.72,16.84,737.37,215.04,0.66,323.43,0
2020-02-23T12:34:00-05:00,74.55,16.82,736.27,188.72,0.69,304.59,0
2020-02-23T12:35:00-05:00,75.03,16.7,737.31,160.79,0.97,37.58,0
2020-02-23T12:36:00-05:00,75.83,16.62,737.44,139.91,1.16,75.22,0
2020-02-23T12:37:00-05:00,75.04,16.46,736.97,122.42,0.74,54.5,0
2020-02-23T12:38:00-05:00,75.98,16.34,737.34,110.8,0.66,37.53,0
2020-02-23T12:39:00-05:00,76.95,16.3,736,101.98,0.57,45,0
2020-02-23T12:40:00-05:00,78.26,16.27,735.93,91.69,1.47,65.02,0
2020-02-23T12:41:00-05:00,79.21,16.18,735.97,81.4,0.75,72.24,0.1
2020-02-23T12:42:00-05:00,79.77,16.16,737.34,75.52,0.37,97.06,0
2020-02-23T12:43:00-05:00,81.62,16.19,737.24,70.81,1.22,60.14,0
2020-02-23T12:44:00-05:00,80.67,16.09,737.14,70.37,1.53,51.77,0
2020-02-23T12:45:00-05:00,82.45,16.07,736.54,66.4,0.63,65.5,0
2020-02-23T12:46:00-05:00,81.7,15.96,737.1,61.7,0.75,36.55,0
2020-02-23T12:47:00-05:00,84.87,15.96,736.7,59.49,0.62,67.13,0
2020-02-23T12:48:00-05:00,84.93,15.88,736.23,60.52,0.83,61.06,0
2020-02-23T12:49:00-05:00,84.58,15.78,737.1,63.46,0.22,79.01,0
2020-02-23T12:50:00-05:00,85.49,15.71,735.6,63.9,0.67,79.4,0
2020-02-23T12:51:00-05:00,86.47,15.63,736.8,65.96,0.73,101.96,0
2020-02-23T12:52:00-05:00,87.14,15.6,736.37,64.05,0.09,63.31,0
2020-02-23T12:53:00-05:00,87.53,15.54,736.07,65.67,0.32,142.36,0
2020-02-23T12:54:00-05:00,88.05,15.49,736.57,64.78,0.53,179.47,0
2020-02-23T12:55:00-05:00,86.28,15.35,735.73,62.87,1.02,155.28,0
2020-02-23T12:56:00-05:00,86.28,15.21,735.8,59.49,0.88,145.72,0
2020-02-23T12:57:00-05:00,87.14,15.11,735.67,57.43,0.54,170.06,0
2020-02-23T12:58:00-05:00,87.99,15.02,736.03,58.61,0.54,161.54,0
2020-02-23T12:59:00-05:00,88.06,14.93,737.27,57.43,0.23,138.33,0
2020-02-23T13:00:00-05:00,88.76,14.87,735.83,55.67,0.45,166.51,0
2020-02-23T13:01:00-05:00,89.6,14.81,736.3,55.82,0.37,218.84,0
2020-02-23T13:02:00-05:00,90.17,14.78,735.93,54.64,0.57,93.85,0
2020-02-23T13:03:00-05:00,90.89,14.78,737.44,53.17,0.35,57.98,0
2020-02-23T13:04:00-05:00,91.42,14.78,737.44,51.85,0.49,87.8,0
2020-02-23T13:05:00-05:00,91.35,14.75,737.34,51.4,0.78,143.32,0
2020-02-23T13:06:00-05:00,91.13,14.69,735.9,51.7,0.55,89.6,0
2020-02-23T13:07:00-05:00,90.88,14.64,737.1,49.79,0.58,164.23,0
2020-02-23T13:08:00-05:00,90.75,14.55,737.24,49.49,0.62,156.28,0
2020-02-23T13:09:00-05:00,90.97,14.47,737.14,49.79,0.34,133.91,0
2020-02-23T13:10:00-05:00,91.48,14.43,737.54,47.88,0.22,129.37,0
2020-02-23T13:11:00-05:00,91.66,14.41,736.74,45.52,0.73,172.1,0
2020-02-23T13:12:00-05:00,91.9,14.33,736.54,43.91,0.57,148.31,0.1
2020-02-23T13:13:00-05:00,92.42,14.33,737.2,38.91,0.43,173.35,0
2020-02-23T13:14:00-05:00,92.07,14.28,736.23,38.17,0.68,160.17,0
2020-02-23T13:15:00-05:00,92.16,14.22,736.7,34.35,0.66,172.54,0
2020-02-23T13:16:00-05:00,91.96,14.16,737.04,31.56,0.65,168.14,0
2020-02-23T13:17:00-05:00,92.39,14.1,736.3,28.76,0.63,131.65,0
2020-02-23T13:18:00-05:00,92.59,14.1,737.54,24.79,0.81,94.73,0
2020-02-23T13:19:00-05:00,93.05,14.08,736.4,21.41,0.84,99.63,0
2020-02-23T13:20:00-05:00,93,14.04,735.9,20.68,0.65,76.92,0
2020-02-23T13:21:00-05:00,93.25,14.02,737.61,19.21,0.28,139.65,0
2020-02-23T13:22:00-05:00,93.33,14.02,736.23,17.29,0.68,151.27,0
2020-02-23T13:23:00-05:00,93.42,13.98,737.37,14.8,0.17,133.24,0
2020-02-23T13:24:00-05:00,93.11,13.94,735.97,14.35,1.27,116.72,0
2020-02-23T13:25:00-05:00,92.91,13.87,735.8,13.91,1.03,96.63,0
2020-02-23T13:26:00-05:00,93.05,13.85,735.9,14.8,0.67,216.82,0
2020-02-23T13:27:00-05:00,92.97,13.84,737.24,16.85,1.09,166.15,0
2020-02-23T13:28:00-05:00,93.11,13.79,735.9,14.21,1.13,175.08,0
2020-02-23T13:29:00-05:00,93.13,13.7,737.07,11.86,1.27,200.96,0
2020-02-23T13:30:00-05:00,93.19,13.66,736.8,12.59,2.16,230.87,0
2020-02-23T13:31:00-05:00,93.07,13.52,735.56,15.24,1.9,217.91,0
2020-02-23T13:32:00-05:00,93.59,13.46,736.97,16.27,1.66,194.88,0
2020-02-23T13:33:00-05:00,93.74,13.38,735.7,15.53,0.95,183.03,0
2020-02-23T13:34:00-05:00,94.24,13.32,736.57,17.88,0.93,139.36,0
2020-02-23T13:35:00-05:00,94.86,13.3,737.04,20.38,0.32,157.24,0
2020-02-23T13:36:00-05:00,95.1,13.29,735.56,23.62,0.76,195.22,0
2020-02-23T13:37:00-05:00,95.15,13.24,736.37,25.53,0.76,160.2,0
2020-02-23T13:38:00-05:00,95.09,13.18,735.67,29.94,0.6,177.29,0
2020-02-23T13:39:00-05:00,95.39,13.13,735.46,33.17,0.9,157.22,0
2020-02-23T13:40:00-05:00,95.48,13.12,735.9,36.7,0.83,128.58,0
2020-02-23T13:41:00-05:00,95.61,13.08,737.27,40.38,1.68,47.56,0
2020-02-23T13:42:00-05:00,95.82,13.08,736.94,39.79,0.26,180.36,0
2020-02-23T13:43:00-05:00,95.79,13.03,735.77,39.64,0.5,311.57,0
2020-02-23T13:44:00-05:00,95.91,13,735.77,36.7,0.25,16.17,0
2020-02-23T13:45:00-05:00,95.77,12.95,736.4,40.67,0.56,94.83,0
2020-02-23T13:46:00-05:00,96.07,12.93,736.7,44.49,0.68,63.34,0
2020-02-23T13:47:00-05:00,95.97,12.91,736.57,53.46,1.05,98.17,0.1
2020-02-23T13:48:00-05:00,96.16,12.9,736.87,52.43,0.54,196.97,0
2020-02-23T13:49:00-05:00,96.39,12.93,735.4,52.58,0.37,154.32,0
2020-02-23T13:50:00-05:00,96.31,12.9,736.54,54.49,0.22,107.99,0
2020-02-23T13:51:00-05:00,96.45,12.9,736.13,57.43,0.57,139.96,0
2020-02-23T13:52:00-05:00,96.53,12.92,735.53,57.58,0.17,338.48,0
2020-02-23T13:53:00-05:00,96.5,12.91,737.2,60.23,0.35,237.13,0
2020-02-23T13:54:00-05:00,96.42,12.9,735.7,57.29,0.52,191.96,0
2020-02-23T13:55:00-05:00,96.7,12.93,737.44,54.49,0.7,26.06,0
2020-02-23T13:56:00-05:00,96.49,12.93,735.8,52.58,0.8,85.08,0
2020-02-23T13:57:00-05:00,96.73,12.94,735.77,54.64,0.92,73.03,0
2020-02-23T13:58:00-05:00,96.67,12.97,735.5,54.64,0.83,55.85,0
2020-02-23T13:59:00-05:00,96.91,13.02,736.6,54.05,0.65,20.8,0
2020-02-23T14:00:00-05:00,96.9,13.05,735.8,56.55,0.7,61.49,0
2020-02-23T14:01:00-05:00,97.02,13.08,735.83,61.4,0.89,47.49,0
2020-02-23T14:02:00-05:00,96.73,13.08,735.97,60.96,0.56,46.41,0
2020-02-23T14:03:00-05:00,96.73,13.08,736.07,64.05,1.32,33.5,0
2020-02-23T14:04:00-05:00,96.72,13.11,736.74,62.87,1.44,75.22,0
2020-02-23T14:05:00-05:00,96.98,13.16,736.13,63.46,0.59,51.41,0
2020-02-23T14:06:00-05:00,96.73,13.14,736.6,58.9,0.8,55.89,0
2020-02-23T14:07:00-05:00,96.94,13.19,736.5,53.32,0.46,80.21,0
2020-02-23T14:08:00-05:00,96.8,13.18,736.23,50.96,0.6,356.41,0
2020-02-23T14:09:00-05:00,96.93,13.21,736.54,48.02,0.71,4.67,0
2020-02-23T14:10:00-05:00,96.93,13.24,735.9,46.26,1.12,44.66,0
2020-02-23T14:11:00-05:00,96.85,13.26,737.04,44.35,0.65,36.28,0
2020-02-23T14:12:00-05:00,96.29,13.19,737.04,46.7,0.86,7.45,0
2020-02-23T14:13:00-05:00,96.32,13.17,736.64,46.55,0.64,0.83,0
2020-02-23T14:14:00-05:00,96.6,13.19,735.83,45.23,0.66,349.72,0
2020-02-23T14:15:00-05:00,96.39,13.18,737.17,44.05,0.64,41.2,0.1
2020-02-23T14:16:00-05:00,96.14,13.14,736.4,43.32,0.97,32.56,0
2020-02-23T14:17:00-05:00,96.23,13.1,736.67,42.73,0.56,72.53,0
2020-02-23T14:18:00-05:00,95.87,13.06,736.5,43.17,0.86,22.41,0
2020-02-23T14:19:00-05:00,95.92,13.05,736.97,40.08,0.71,28.67,0
2020-02-23T14:20:00-05:00,95.88,13.04,735.53,42.44,1.11,28.22,0
2020-02-23T14:21:00-05:00,95.82,13.03,735.63,41.41,1.01,32.9,0
2020-02-23T14:22:00-05:00,95.97,13.03,735.3,42,0.98,40.89,0
2020-02-23T14:23:00-05:00,95.81,13.02,735.4,43.17,0.91,46.77,0
2020-02-23T14:24:00-05:00,96.21,13.03,736.43,47.29,0.97,42.76,0
2020-02-23T14:25:00-05:00,96.13,13.03,736.74,46.41,0.58,43.92,0
2020-02-23T14:26:00-05:00,96.38,13.04,736.7,48.61,0.63,19.94,0
2020-02-23T14:27:00-05:00,96.33,13.04,736.07,51.55,0.19,344.53,0
2020-02-23T14:28:00-05:00,96.42,13.06,736.77,51.55,0.67,48.96,0
2020-02-23T14:29:00-05:00,96.21,13.04,737.14,52.87,1.49,49.29,0
2020-02-23T14:30:00-05:00,96.03,13.01,736.64,52.14,1.29,32.63,0
2020-02-23T14:31:00-05:00,96.13,12.98,735.9,54.79,0.6,33.83,0
2020-02-23T14:32:00-05:00,96.41,13.02,736.64,54.34,0.42,346.64,0
2020-02-23T14:33:00-05:00,96.47,13.04,736.7,54.49,0.7,57.62,0
2020-02-23T14:34:00-05:00,96.34,13.02,736.97,55.96,0.74,37.43,0
2020-02-23T14:35:00-05:00,96.43,13.02,737.04,54.93,0.67,99.56,0
2020-02-23T14:36:00-05:00,96.44,13.04,735.26,57.14,0.56,49.05,0
2020-02-23T14:37:00-05:00,96.33,13.01,735.67,58.46,0.92,67.32,0
2020-02-23T14:38:00-05:00,96.51,13.02,735.6,62.73,0.76,54.69,0
2020-02-23T14:39:00-05:00,96.4,13.06,735.53,64.34,0.64,46.03,0
2020-02-23T14:40:00-05:00,96.54,13.05,737.04,68.02,1,44.42,0
2020-02-23T14:41:00-05:00,96.38,13.09,736.7,67.58,0.96,47.93,0
2020-02-23T14:42:00-05:00,96.41,13.07,736.74,68.31,0.63,50.85,0
2020-02-23T14:43:00-05:00,96.34,13.1,735.73,65.08,0.26,24.71,0
2020-02-23T14:44:00-05:00,96.39,13.09,736,62.58,0.08,182.07,0
2020-02-23T14:45:00-05:00,96.49,13.14,737.41,60.08,0.3,293.64,0.1
2020-02-23T14:46:00-05:00,96.62,13.16,736.87,59.64,0.26,279.67,0
2020-02-23T14:47:00-05:00,96.49,13.18,737.04,56.99,0.25,216.85,0
2020-02-23T14:48:00-05:00,96.27,13.19,737.07,53.32,0.63,205.01,0
2020-02-23T14:49:00-05:00,95.92,13.16,735.46,49.93,0.61,212.86,0
2020-02-23T14:50:00-05:00,95.78,13.13,736.6,46.55,0.64,186.29,0
2020-02-23T14:51:00-05:00,95.93,13.11,735.6,44.79,0.41,236.77,0
2020-02-23T14:52:00-05:00,96,13.11,735.56,40.97,0.62,182.38,0
2020-02-23T14:53:00-05:00,95.95,13.1,735.97,37.88,0.58,160.22,0
2020-02-23T14:54:00-05:00,96.03,13.11,736.97,38.32,0.55,134.63,0
2020-02-23T14:55:00-05:00,96.17,13.12,736.13,35.67,0.29,128.29,0
2020-02-23T14:56:00-05:00,96.41,13.13,736.97,38.76,0.39,42.64,0
2020-02-23T14:57:00-05:00,96.45,13.16,736.94,37,0.61,68.64,0
2020-02-23T14:58:00-05:00,96.21,13.15,735.3,38.61,0.71,66.99,0
2020-02-23T14:59:00-05:00,96.24,13.14,735.56,40.67,0.32,88.28,0
2020-02-23T15:00:00-05:00,96.24,13.16,736.03,42.73,0.67,72.48,0
2020-02-23T15:01:00-05:00,96.21,13.13,736.57,41.26,0.56,91.06,0
2020-02-23T15:02:00-05:00,96.25,13.13,736.74,38.61,0.23,122.08,0
2020-02-23T15:03:00-05:00,96.57,13.16,736.23,38.91,0.22,153.24,0
2020-02-23T15:04:00-05:00,96.59,13.18,735.33,38.02,0.55,135.28,0
2020-02-23T15:05:00-05:00,96.43,13.17,736.67,35.38,0.63,149.54,0
2020-02-23T15:06:00-05:00,96.47,13.15,735.97,35.67,0.25,189.31,0
2020-02-23T15:07:00-05:00,96.01,13.14,736.8,36.41,1,147.31,0
2020-02-23T15:08:00-05:00,96.01,13.12,735.23,35.97,0.59,130.45,0
2020-02-23T15:09:00-05:00,96.13,13.12,735.3,35.23,0.4,155.66,0
2020-02-23T15:10:00-05:00,96.19,13.12,735.3,31.41,0.55,182.07,0
2020-02-23T15:11:00-05:00,96.32,13.1,735.23,28.76,0.39,113.82,0
2020-02-23T15:12:00-05:00,96.29,13.1,736.6,26.85,0.51,113.65,0
2020-02-23T15:13:00-05:00,96.04,13.1,735.56,26.26,0.31,114.18,0
2020-02-23T15:14:00-05:00,96.01,13.07,736.23,25.68,0.25,138.35,0
2020-02-23T15:15:00-05:00,95.9,13.04,736.2,23.91,0.47,149.68,0.1
2020-02-23T15:16:00-05:00,95.63,13,735.23,20.53,0.57,131.13,0
2020-02-23T15:17:00-05:00,95.85,12.96,734.79,20.09,0.99,161.4,0
2020-02-23T15:18:00-05:00,95.75,12.95,735.4,18.18,0.56,132.25,0
2020-02-23T15:19:00-05:00,95.83,12.92,736.13,19.5,0.91,146.37,0
2020-02-23T15:20:00-05:00,95.79,12.88,735.83,16.71,0.56,146.35,0
2020-02-23T15:21:00-05:00,95.87,12.87,735.97,16.12,0.54,127.19,0
2020-02-23T15:22:00-05:00,95.93,12.86,736.13,18.03,0.22,178.03,0
2020-02-23T15:23:00-05:00,96.06,12.87,735.87,15.53,0.2,147.35,0
2020-02-23T15:24:00-05:00,96.16,12.85,736.2,14.65,0.53,74.43,0
2020-02-23T15:25:00-05:00,96.15,12.85,735.83,14.94,0.44,44.49,0
2020-02-23T15:26:00-05:00,96.15,12.87,735.67,17.44,0.18,45.31,0
2020-02-23T15:27:00-05:00,96.25,12.86,735.87,15.24,0.5,129.4,0
2020-02-23T15:28:00-05:00,96.35,12.86,736.03,15.82,0.16,179.45,0
2020-02-23T15:29:00-05:00,96.35,12.84,734.53,17.88,0.24,137.37,0
2020-02-23T15:30:00-05:00,96.29,12.84,734.26,18.32,0.59,150.59,0
2020-02-23T15:31:00-05:00,95.88,12.81,735.83,15.97,0.75,144.23,0
2020-02-23T15:32:00-05:00,95.82,12.77,734.33,18.91,0.75,144.62,0
2020-02-23T15:33:00-05:00,95.58,12.71,735.9,17.88,0.86,140.34,0
2020-02-23T15:34:00-05:00,95.71,12.66,735.46,17.59,0.86,142.7,0
2020-02-23T15:35:00-05:00,95.84,12.65,734.33,19.65,0.68,144.31,0
2020-02-23T15:36:00-05:00,95.96,12.64,735.46,19.65,0.86,160.41,0
2020-02-23T15:37:00-05:00,96.04,12.63,734.26,20.38,0.68,144.26,0
2020-02-23T15:38:00-05:00,96.12,12.64,734.33,19.5,0.69,158.23,0
2020-02-23T15:39:00-05:00,96.11,12.64,734.26,20.82,0.76,150.52,0
2020-02-23T15:40:00-05:00,96.21,12.62,734.29,21.71,0.73,141.33,0
2020-02-23T15:41:00-05:00,96.35,12.63,734.43,21.12,0.6,138.38,0
2020-02-23T15:42:00-05:00,96.29,12.62,734.76,23.32,0.65,148.34,0
2020-02-23T15:43:00-05:00,96.25,12.61,734.46,24.5,0.43,132.3,0
2020-02-23T15:44:00-05:00,96.33,12.63,736.13,22.73,0.78,146.35,0
2020-02-23T15:45:00-05:00,96.31,12.59,736.1,25.82,0.67,152.25,0
2020-02-23T15:46:00-05:00,96.24,12.6,734.59,23.62,0.55,154.34,0
2020-02-23T15:47:00-05:00,96.22,12.59,734.46,24.94,0.59,160.53,0
2020-02-23T15:48:00-05:00,96.27,12.57,736.37,25.53,0.27,125.46,0
2020-02-23T15:49:00-05:00,96.31,12.58,734.59,28.17,0.2,83.43,0.1
2020-02-23T15:50:00-05:00,96.32,12.54,734.86,27.73,0.59,66.46,0
2020-02-23T15:51:00-05:00,96.55,12.59,735.03,26.41,0.49,169.49,0
2020-02-23T15:52:00-05:00,96.63,12.58,734.36,26.41,0.24,147.38,0
2020-02-23T15:53:00-05:00,96.65,12.61,734.63,28.17,0.33,102.63,0
2020-02-23T15:54:00-05:00,96.76,12.63,734.79,29.35,0.65,58.63,0
2020-02-23T15:55:00-05:00,96.55,12.62,736.47,29.94,0.35,89.81,0
2020-02-23T15:56:00-05:00,96.83,12.65,735,30.53,0.41,80.76,0
2020-02-23T15:57:00-05:00,96.73,12.65,736.54,29.2,0.23,132.3,0
2020-02-23T15:58:00-05:00,96.84,12.65,734.86,29.94,0.23,151.27,0
2020-02-23T15:59:00-05:00,96.85,12.67,736.67,28.32,0.11,54.79,0
2020-02-23T16:00:00-05:00,96.74,12.69,735.97,29.64,0.37,135.28,0
2020-02-23T16:01:00-05:00,96.73,12.7,736.1,29.35,0.15,190.04,0
2020-02-23T16:02:00-05:00,96.69,12.69,735.8,30.09,0.49,183.03,0
2020-02-23T16:03:00-05:00,96.56,12.71,736.87,32.73,0.55,133.31,0
2020-02-23T16:04:00-05:00,96.75,12.69,735.4,33.17,0.77,148.34,0
2020-02-23T16:05:00-05:00,96.74,12.69,736.33,33.61,0.14,138.38,0
2020-02-23T16:06:00-05:00,96.85,12.71,736.23,35.08,0.49,103.69,0
2020-02-23T16:07:00-05:00,96.99,12.71,736.07,34.06,0.12,165.24,0
2020-02-23T16:08:00-05:00,97.06,12.75,735.93,34.35,0.25,75.22,0
2020-02-23T16:09:00-05:00,96.96,12.77,735.46,35.82,0.54,111.68,0
2020-02-23T16:10:00-05:00,96.97,12.8,736.64,36.41,0.59,51.29,0
2020-02-23T16:11:00-05:00,96.95,12.79,736.43,36.7,0.26,88.06,0
2020-02-23T16:12:00-05:00,97.12,12.82,736.8,35.97,0.17,124.33,0
2020-02-23T16:13:00-05:00,97.02,12.84,735.9,36.26,0.22,235.79,0
2020-02-23T16:14:00-05:00,97.01,12.85,736.97,38.91,0.23,120.73,0
2020-02-23T16:15:00-05:00,96.7,12.82,736.67,38.76,0.28,232.84,0
2020-02-23T16:16:00-05:00,96.92,12.82,735.83,39.5,0.56,223.86,0
2020-02-23T16:17:00-05:00,96.79,12.83,735.16,40.38,0.47,206,0
2020-02-23T16:18:00-05:00,96.94,12.83,736.07,43.02,0.3,207.94,0
2020-02-23T16:19:00-05:00,97,12.84,735.46,44.2,0.19,247.79,0
2020-02-23T16:20:00-05:00,97.04,12.86,736.03,46.7,0.25,178.06,0
2020-02-23T16:21:00-05:00,97.07,12.87,736.87,45.96,0.32,142.89,0
2020-02-23T16:22:00-05:00,96.87,12.89,735.2,46.7,0.54,188.33,0
2020-02-23T16:23:00-05:00,96.83,12.87,735.26,47.73,0.45,189.99,0
2020-02-23T16:24:00-05:00,96.94,12.87,736.74,49.79,0.23,181.08,0
2020-02-23T16:25:00-05:00,96.82,12.88,735.36,50.23,0.31,171.55,0
2020-02-23T16:26:00-05:00,96.92,12.89,736.37,53.02,0.23,133.26,0.1
2020-02-23T16:27:00-05:00,96.92,12.89,735.23,54.05,0.5,206.31,0
2020-02-23T16:28:00-05:00,97.14,12.9,736.67,53.61,0.39,218.87,0
2020-02-23T16:29:00-05:00,97.17,12.93,736.67,54.2,0.14,207.29,0
2020-02-23T16:30:00-05:00,97.17,12.95,736.74,52.58,0.32,279.6,0
2020-02-23T16:31:00-05:00,97.1,12.97,735.5,54.05,0.28,221.17,0
2020-02-23T16:32:00-05:00,97.08,12.98,735.53,52.43,0.18,248.8,0
2020-02-23T16:33:00-05:00,97.27,12.98,736.64,54.79,0.21,277.94,0
2020-02-23T16:34:00-05:00,97.34,13.03,735.97,53.02,0.12,160.22,0
2020-02-23T16:35:00-05:00,97.38,13.06,735.67,49.79,0.17,238.86,0
2020-02-23T16:36:00-05:00,97.45,13.07,736.2,47.58,0.15,255.71,0
2020-02-23T16:37:00-05:00,97.49,13.1,737.27,44.05,0.19,34.48,0
2020-02-23T16:38:00-05:00,97.39,13.14,736.77,40.52,0.26,244.74,0
2020-02-23T16:39:00-05:00,97.29,13.14,737.27,37.44,0.25,224.89,0
2020-02-23T16:40:00-05:00,97.22,13.15,736,37.88,0.37,206.93,0
2020-02-23T16:41:00-05:00,97.02,13.14,735.6,37.58,0.57,229.74,0
2020-02-23T16:42:00-05:00,97.1,13.13,736.5,35.82,0.24,288.6,0
2020-02-23T16:43:00-05:00,96.94,13.12,737.07,39.79,0.2,244.77,0
2020-02-23T16:44:00-05:00,97.12,13.12,736.4,45.08,0.15,200.24,0
2020-02-23T16:45:00-05:00,97.08,13.12,735.63,44.2,0.24,185.95,0
2020-02-23T16:46:00-05:00,97.23,13.14,735.56,47.14,0.25,248.08,0
2020-02-23T16:47:00-05:00,97.32,13.16,737.2,46.99,0.23,191,0
2020-02-23T16:48:00-05:00,97.36,13.18,736.94,47.43,0.1,211.26,0
2020-02-23T16:49:00-05:00,97.26,13.21,735.73,48.61,0.17,249.81,0
2020-02-23T16:50:00-05:00,97.3,13.23,735.93,46.41,0.16,270.02,0
2020-02-23T16:51:00-05:00,97.32,13.24,735.87,47.73,0.23,176.06,0
2020-02-23T16:52:00-05:00,97.43,13.26,737.17,47.73,0.57,8.46,0
2020-02-23T16:53:00-05:00,97.29,13.28,735.97,46.7,0.21,217.93,0
2020-02-23T16:54:00-05:00,97.35,13.27,736.03,48.02,0.13,146.39,0
2020-02-23T16:55:00-05:00,97.34,13.27,736.97,51.85,0.31,213.1,0
2020-02-23T16:56:00-05:00,97.2,13.29,737.04,50.82,0.39,224.27,0
2020-02-23T16:57:00-05:00,97.4,13.3,735.83,50.08,0.2,259.72,0
2020-02-23T16:58:00-05:00,97.26,13.3,735.56,49.93,0.16,262.7,0
2020-02-23T16:59:00-05:00,97.36,13.3,736.37,49.2,0.18,223.86,0
2020-02-23T17:00:00-05:00,97.36,13.34,737.04,47.73,0.55,237.76,0
2020-02-23T17:01:00-05:00,97.04,13.31,735.63,44.79,0.65,222.9,0
2020-02-23T17:02:00-05:00,96.92,13.27,736.87,43.32,0.22,222.9,0
2020-02-23T17:03:00-05:00,96.98,13.29,736.03,40.38,0.29,216.25,0
2020-02-23T17:04:00-05:00,97,13.28,735.53,39.05,0.28,260.71,0.1
2020-02-23T17:05:00-05:00,97.16,13.28,737.1,40.38,0.27,296.91,0
2020-02-23T17:06:00-05:00,97.06,13.28,735.5,37.14,0.24,226.81,0
2020-02-23T17:07:00-05:00,97.05,13.3,736.07,35.97,0.32,268,0
2020-02-23T17:08:00-05:00,97.08,13.3,736.3,35.82,0.24,206.93,0
2020-02-23T17:09:00-05:00,97.06,13.29,735.53,35.97,0.26,226.21,0
2020-02-23T17:10:00-05:00,97.26,13.29,735.53,37,0.14,294.65,0
2020-02-23T17:11:00-05:00,97.14,13.29,737.17,36.11,0.27,275.73,0
2020-02-23T17:12:00-05:00,97.28,13.3,736.94,37.29,0.19,232.81,0
2020-02-23T17:13:00-05:00,97.28,13.3,736.23,37,0.2,209.91,0
2020-02-23T17:14:00-05:00,97.2,13.32,736.57,37.44,0.27,299.64,0
2020-02-23T17:15:00-05:00,97.16,13.33,735.8,38.02,0.25,204.99,0
2020-02-23T17:16:00-05:00,97.16,13.34,736.07,37.58,0.17,207.94,0
2020-02-23T17:17:00-05:00,97.17,13.33,737.04,37.88,0.14,211.88,0
2020-02-23T17:18:00-05:00,97.27,13.35,735.63,38.17,0.3,200.91,0
2020-02-23T17:19:00-05:00,97.12,13.32,737.1,40.08,0.22,335.51,0
2020-02-23T17:20:00-05:00,97.22,13.33,736.87,37.88,0.26,184.97,0
2020-02-23T17:21:00-05:00,97.08,13.33,737.1,40.38,0.22,203.96,0
2020-02-23T17:22:00-05:00,97,13.31,735.87,37.58,0.62,206.33,0
2020-02-23T17:23:00-05:00,96.67,13.26,736.9,38.47,0.35,191.98,0
2020-02-23T17:24:00-05:00,96.62,13.24,736.64,35.67,0.56,200.29,0
2020-02-23T17:25:00-05:00,96.69,13.2,736,37.88,0.49,189.99,0
2020-02-23T17:26:00-05:00,97.01,13.19,736.64,36.41,0.26,249.16,0
2020-02-23T17:27:00-05:00,96.94,13.22,735.6,37,0.5,194.86,0
2020-02-23T17:28:00-05:00,97.07,13.2,735.63,37.88,0.24,196.2,0
2020-02-23T17:29:00-05:00,96.98,13.2,735.53,37.58,0.58,249.04,0
2020-02-23T17:30:00-05:00,96.94,13.2,736.94,33.61,0.22,239.1,0
2020-02-23T17:31:00-05:00,97.04,13.22,736,33.17,0.47,198.94,0
2020-02-23T17:32:00-05:00,97.01,13.21,735.7,32.44,0.26,218.87,0
2020-02-23T17:33:00-05:00,96.9,13.18,737.1,30.23,0.22,223.91,0
2020-02-23T17:34:00-05:00,96.92,13.18,735.77,29.5,0.23,188.02,0
2020-02-23T17:35:00-05:00,96.98,13.16,735.6,28.03,0.22,269.66,0
2020-02-23T17:36:00-05:00,96.82,13.17,735.56,27,0.53,147.35,0
2020-02-23T17:37:00-05:00,96.76,13.15,737.1,25.09,0.53,162.26,0
2020-02-23T17:38:00-05:00,96.82,13.1,736.07,26.12,0.06,17.73,0
2020-02-23T17:39:00-05:00,96.81,13.12,736.74,23.76,0.31,189.03,0
2020-02-23T17:40:00-05:00,97.02,13.12,736.57,23.47,0.12,134.2,0
2020-02-23T17:41:00-05:00,97.05,13.12,736.94,21.26,0.2,172.49,0
2020-02-23T17:42:00-05:00,96.79,13.1,736.27,18.77,0.34,148.34,0
2020-02-23T17:43:00-05:00,96.79,13.11,736,17.74,0.2,129.64,0
2020-02-23T17:44:00-05:00,96.77,13.11,735.8,14.8,0.45,164.21,0
2020-02-23T17:45:00-05:00,96.83,13.08,735.5,13.03,0.59,159.57,0
2020-02-23T17:46:00-05:00,96.66,13.06,735.9,11.86,0.56,173.14,0
2020-02-23T17:47:00-05:00,96.65,13.02,736.43,11.71,0.52,157.65,0.1
2020-02-23T17:48:00-05:00,96.65,13.02,736.74,10.38,0.46,183,0
2020-02-23T17:49:00-05:00,96.83,13.02,735.7,7.59,0.63,142.39,0
2020-02-23T17:50:00-05:00,96.83,12.98,735.43,6.27,0.2,53.25,0
2020-02-23T17:51:00-05:00,96.85,12.99,735.73,7.44,0.63,72.27,0
2020-02-23T17:52:00-05:00,96.72,12.97,735.4,6.42,0.58,81.94,0
2020-02-23T17:53:00-05:00,96.62,12.95,736.54,4.65,0.21,33.43,0
2020-02-23T17:54:00-05:00,96.79,12.95,736.84,5.68,0.31,84.77,0
2020-02-23T17:55:00-05:00,96.8,12.92,735.53,5.24,0.14,158.3,0
2020-02-23T17:56:00-05:00,96.89,12.91,736.8,4.8,0.57,276.65,0
2020-02-23T17:57:00-05:00,96.48,12.86,736.6,3.47,0.74,152.23,0
2020-02-23T17:58:00-05:00,96.24,12.79,735.9,2.3,0.43,118.38,0
2020-02-23T17:59:00-05:00,96.21,12.77,736.64,2,0.47,85.66,0
2020-02-23T18:00:00-05:00,96.23,12.75,735.06,4.5,0.62,126.66,0
2020-02-23T18:01:00-05:00,96.47,12.72,736.5,9.5,0.39,12.85,0
2020-02-23T18:02:00-05:00,96.59,12.73,736.47,5.68,0.58,114.28,0
2020-02-23T18:03:00-05:00,96.42,12.73,735.36,6.27,0.77,76.49,0
2020-02-23T18:04:00-05:00,96.64,12.72,736.07,2.89,0.97,81.82,0
2020-02-23T18:05:00-05:00,96.56,12.7,735.06,3.62,0.19,141.35,0
2020-02-23T18:06:00-05:00,96.58,12.69,736.03,1.27,0.68,131.75,0
2020-02-23T18:07:00-05:00,96.58,12.68,736.54,0.09,0.56,113.48,0
2020-02-23T18:08:00-05:00,96.35,12.67,735.73,1.71,0.34,128.53,0
2020-02-23T18:09:00-05:00,96.37,12.67,736.5,0.24,0.54,132.28,0
2020-02-23T18:10:00-05:00,96.22,12.64,736.77,-0.79,0.45,134.25,0
2020-02-23T18:11:00-05:00,96.35,12.63,736.3,-0.49,0.56,123.16,0
2020-02-23T18:12:00-05:00,96.33,12.63,735.6,-0.79,0.53,96.7,0
2020-02-23T18:13:00-05:00,96.27,12.63,735.8,1.27,0.41,97.4,0
2020-02-23T18:14:00-05:00,96.26,12.61,735.93,-0.49,0.58,119,0
2020-02-23T18:15:00-05:00,96.07,12.58,736.07,0.09,0.86,122.48,0
2020-02-23T18:16:00-05:00,96.2,12.56,735.6,-0.79,0.6,104.48,0
2020-02-23T18:17:00-05:00,96.09,12.57,736.43,-0.94,0.52,74.55,0
2020-02-23T18:18:00-05:00,96.13,12.55,736.03,-1.38,0.56,100.93,0
2020-02-23T18:19:00-05:00,96.25,12.53,735.8,-0.2,0.72,72.03,0
2020-02-23T18:20:00-05:00,96.34,12.55,736.03,0.83,0.42,133.29,0
2020-02-23T18:21:00-05:00,96.35,12.53,735.2,0.53,0.58,133.65,0
2020-02-23T18:22:00-05:00,96.35,12.52,735.87,-1.97,0.19,63.07,0
2020-02-23T18:23:00-05:00,96.35,12.52,735.4,-0.49,0.32,137.73,0
2020-02-23T18:24:00-05:00,96.16,12.51,734.96,0.24,0.24,82.92,0
2020-02-23T18:25:00-05:00,96.35,12.5,735.9,0.53,0.26,78.77,0
2020-02-23T18:26:00-05:00,96.29,12.49,736.57,0.39,0.54,82.16,0
2020-02-23T18:27:00-05:00,96.14,12.5,736.23,-1.38,0.67,116.03,0
2020-02-23T18:28:00-05:00,96.23,12.47,736.43,-1.23,0.54,97.14,0
2020-02-23T18:29:00-05:00,96.27,12.46,735.73,-0.79,0.57,126.95,0
2020-02-23T18:30:00-05:00,96.18,12.45,736.03,-0.49,0.53,81.05,0
2020-02-23T18:31:00-05:00,96.24,12.45,736.07,1.12,0.61,89.05,0
2020-02-23T18:32:00-05:00,96.11,12.41,736.4,0.83,0.76,113.99,0
2020-02-23T18:33:00-05:00,96.29,12.43,734.83,-0.49,0.55,107.24,0.1
2020-02-23T18:34:00-05:00,96.35,12.44,736.4,-1.52,0.31,110.91,0
2020-02-23T18:35:00-05:00,96.3,12.45,736.2,-1.52,0.58,100.88,0
2020-02-23T18:36:00-05:00,96.31,12.43,735.77,-1.23,0.4,113.15,0
2020-02-23T18:37:00-05:00,96.08,12.45,735.9,-1.23,0.27,127.36,0
2020-02-23T18:38:00-05:00,96.25,12.42,735.43,0.83,0.55,123.47,0
2020-02-23T18:39:00-05:00,96.15,12.43,735.67,-1.23,0.24,121.04,0
2020-02-23T18:40:00-05:00,96.16,12.43,734.83,0.68,0.67,172.49,0
2020-02-23T18:41:00-05:00,96.07,12.41,734.69,0.98,0.49,136.26,0
2020-02-23T18:42:00-05:00,96.27,12.4,735.3,0.68,0.52,119.82,0
2020-02-23T18:43:00-05:00,96.25,12.4,734.83,-0.2,0.56,149.27,0
2020-02-23T18:44:00-05:00,96.18,12.39,736.13,-0.49,0.6,125.87,0
2020-02-23T18:45:00-05:00,96.45,12.41,735.36,-1.23,0.54,139.31,0
2020-02-23T18:46:00-05:00,96.21,12.41,734.83,-1.23,0.6,139.67,0
2020-02-23T18:47:00-05:00,96.12,12.39,735.46,-0.79,0.56,75.72,0
2020-02-23T18:48:00-05:00,96.37,12.4,735.5,-1.52,0.29,166.2,0
2020-02-23T18:49:00-05:00,96.17,12.39,736.13,-1.08,0.55,133.31,0
2020-02-23T18:50:00-05:00,96.16,12.38,734.66,0.53,0.57,117.54,0
2020-02-23T18:51:00-05:00,96.19,12.37,735.67,0.68,0.22,159.21,0
2020-02-23T18:52:00-05:00,96.13,12.38,736.23,1.12,0.7,111.08,0
2020-02-23T18:53:00-05:00,96.37,12.39,734.66,-0.94,0.19,131.27,0
2020-02-23T18:54:00-05:00,96.45,12.39,734.69,-1.38,0.53,85.54,0
2020-02-23T18:55:00-05:00,96.44,12.37,736.17,-0.94,0.45,129.37,0
2020-02-23T18:56:00-05:00,96.35,12.39,735.73,0.83,0.21,160.24,0
2020-02-23T18:57:00-05:00,96.23,12.39,734.83,-1.08,0.57,130.93,0
2020-02-23T18:58:00-05:00,96.14,12.37,735.9,-1.52,0.63,150.26,0
2020-02-23T18:59:00-05:00,96.15,12.35,734.43,0.39,0.66,118.55,0
2020-02-23T19:00:00-05:00,96.21,12.35,736.13,-1.38,0.59,76.47,0
2020-02-23T19:01:00-05:00,96.26,12.37,735.4,-1.82,0.32,98.38,0
2020-02-23T19:02:00-05:00,96.21,12.39,734.69,-1.23,0.64,83.79,0
2020-02-23T19:03:00-05:00,96.11,12.39,734.66,-1.52,0.66,91.85,0
2020-02-23T19:04:00-05:00,95.83,12.4,735,1.12,0.54,83.26,0
2020-02-23T19:05:00-05:00,95.65,12.41,735.3,-0.05,0.64,42.62,0
2020-02-23T19:06:00-05:00,95.73,12.43,735.56,-0.94,0.53,67.3,0
2020-02-23T19:07:00-05:00,95.71,12.41,735.83,-1.97,0.6,84.44,0
2020-02-23T19:08:00-05:00,95.55,12.44,734.39,-0.79,0.52,64.08,0
2020-02-23T19:09:00-05:00,95.68,12.45,735.83,-1.23,0.63,119.63,0
2020-02-23T19:10:00-05:00,95.73,12.47,736,-1.97,0.45,69.07,0
2020-02-23T19:11:00-05:00,95.65,12.47,735.33,-1.08,0.24,63.62,0
2020-02-23T19:12:00-05:00,95.38,12.46,734.29,0.09,0.63,121.09,0
2020-02-23T19:13:00-05:00,95.38,12.43,735.26,-1.97,0.55,129.23,0
2020-02-23T19:14:00-05:00,95.31,12.41,736,0.24,0.32,125.01,0
2020-02-23T19:15:00-05:00,95.36,12.42,734.26,0.98,0.56,108.49,0
2020-02-23T19:16:00-05:00,95.36,12.41,734.63,-0.2,0.54,123.13,0
2020-02-23T19:17:00-05:00,95.28,12.39,735.26,-1.97,0.63,127.21,0
2020-02-23T19:18:00-05:00,95.39,12.4,734.63,-1.08,0.57,102.82,0
2020-02-23T19:19:00-05:00,95.4,12.37,735.4,-1.67,0.27,122.1,0
2020-02-23T19:20:00-05:00,95.32,12.37,734.83,0.98,0.57,91.83,0.1
2020-02-23T19:21:00-05:00,95.32,12.37,734.9,-0.49,0.73,127.19,0
2020-02-23T19:22:00-05:00,95.41,12.35,736.03,-1.38,0.27,59.62,0
2020-02-23T19:23:00-05:00,95.52,12.37,735.77,-0.49,0.22,175.1,0
2020-02-23T19:24:00-05:00,95.5,12.37,735.36,-1.08,0.22,129.54,0
2020-02-23T19:25:00-05:00,95.47,12.37,735.73,-0.35,0.66,148.31,0
2020-02-23T19:26:00-05:00,95.47,12.34,735.67,-1.38,0.36,176.11,0
2020-02-23T19:27:00-05:00,95.44,12.31,735.46,-0.35,0.56,169.13,0
2020-02-23T19:28:00-05:00,95.38,12.3,735.9,-0.64,0.64,146.37,0
2020-02-23T19:29:00-05:00,95.47,12.3,735,0.83,0.6,102.58,0
2020-02-23T19:30:00-05:00,95.67,12.32,736.33,-1.23,0.61,108.49,0
2020-02-23T19:31:00-05:00,95.56,12.32,735.87,0.98,0.64,76.59,0
2020-02-23T19:32:00-05:00,95.53,12.29,734.56,0.09,0.74,109.57,0
2020-02-23T19:33:00-05:00,95.44,12.31,735.87,0.39,0.57,91.61,0
2020-02-23T19:34:00-05:00,95.28,12.31,735.1,-0.64,0.55,97.93,0
2020-02-23T19:35:00-05:00,95.27,12.32,734.63,0.09,0.56,64.56,0
2020-02-23T19:36:00-05:00,95.34,12.34,735.87,-0.79,0.52,87.46,0
2020-02-23T19:37:00-05:00,95.46,12.35,735.53,0.53,0.67,30.76,0
2020-02-23T19:38:00-05:00,95.32,12.36,735.23,0.39,0.49,43.82,0
2020-02-23T19:39:00-05:00,95.26,12.38,736.07,0.39,0.17,100.4,0
2020-02-23T19:40:00-05:00,95.3,12.37,734.96,-0.94,0.52,93.92,0
2020-02-23T19:41:00-05:00,94.98,12.35,734.59,-1.67,0.56,103.3,0
2020-02-23T19:42:00-05:00,94.98,12.35,736,-1.08,0.34,122.72,0
2020-02-23T19:43:00-05:00,94.9,12.34,736.27,-1.67,0.63,130.05,0
2020-02-23T19:44:00-05:00,94.84,12.35,735.03,-0.64,0.63,146.63,0
2020-02-23T19:45:00-05:00,94.73,12.36,735.33,-1.38,0.34,154.82,0
2020-02-23T19:46:00-05:00,94.8,12.35,736.23,0.09,0.61,144.31,0
2020-02-23T19:47:00-05:00,94.54,12.33,735.7,-2.26,0.35,117.68,0
2020-02-23T19:48:00-05:00,94.59,12.31,734.66,-1.82,0.58,153.19,0
2020-02-23T19:49:00-05:00,94.7,12.29,735.97,-1.52,0.68,153.21,0
2020-02-23T19:50:00-05:00,94.9,12.27,736.27,0.53,0.67,145.36,0
2020-02-23T19:51:00-05:00,95.06,12.28,735.56,-0.05,0.73,165.19,0
2020-02-23T19:52:00-05:00,95.22,12.28,734.73,0.83,0.63,175.06,0
2020-02-23T19:53:00-05:00,95.25,12.29,734.79,-1.97,0.72,146.35,0
2020-02-23T19:54:00-05:00,95.6,12.31,734.86,0.09,0.53,147.64,0
2020-02-23T19:55:00-05:00,95.59,12.32,736.03,-0.49,0.56,142.39,0
2020-02-23T19:56:00-05:00,95.5,12.33,734.93,-0.94,0.14,61.51,0
2020-02-23T19:57:00-05:00,95.56,12.35,735.06,-0.94,0.28,100.21,0
2020-02-23T19:58:00-05:00,95.63,12.35,734.93,-1.52,0.25,122.44,0
2020-02-23T19:59:00-05:00,95.73,12.36,736.17,-0.79,0.63,142.31,0
2020-02-23T20:00:00-05:00,95.75,12.37,736.23,-1.97,0.63,148.65,0
2020-02-23T20:01:00-05:00,95.82,12.37,735.1,0.24,0.65,127.74,0
2020-02-23T20:02:00-05:00,95.65,12.37,736.27,0.68,0.61,147.62,0
2020-02-23T20:03:00-05:00,95.79,12.36,736.3,-1.52,0.31,132.16,0
2020-02-23T20:04:00-05:00,95.68,12.37,735.16,0.24,0.57,101.74,0
2020-02-23T20:05:00-05:00,95.85,12.35,735.3,-1.38,0.65,124.6,0
2020-02-23T20:06:00-05:00,95.47,12.33,736.47,1.27,0.84,119.17,0
2020-02-23T20:07:00-05:00,95.45,12.31,735.73,-0.79,0.83,93.61,0
2020-02-23T20:08:00-05:00,95.55,12.3,736,-1.38,0.72,83.76,0
2020-02-23T20:09:00-05:00,95.4,12.29,736.57,0.98,0.52,117.28,0
2020-02-23T20:10:00-05:00,95.5,12.27,735.97,0.53,0.57,120.56,0
2020-02-23T20:11:00-05:00,95.47,12.29,735.93,-0.05,0.55,114.44,0
2020-02-23T20:12:00-05:00,95.43,12.3,735.67,-1.23,0.74,97.45,0.1
2020-02-23T20:13:00-05:00,95.34,12.31,736.54,0.39,0.64,87.92,0
2020-02-23T20:14:00-05:00,95.38,12.31,735.26,0.98,0.62,55.22,0
2020-02-23T20:15:00-05:00,95.44,12.32,735.03,-0.05,0.74,63.55,0
2020-02-23T20:16:00-05:00,95.44,12.33,735.26,0.68,0.55,73.32,0
2020-02-23T20:17:00-05:00,95.37,12.34,735.23,-0.94,0.67,39.16,0
2020-02-23T20:18:00-05:00,95.62,12.35,734.93,-0.05,0.68,38.32,0
2020-02-23T20:19:00-05:00,95.3,12.34,734.96,-1.38,1.5,79.83,0
2020-02-23T20:20:00-05:00,95.12,12.33,735.97,0.09,2.04,75.39,0
2020-02-23T20:21:00-05:00,95.12,12.36,735.06,1.12,0.81,44.66,0
2020-02-23T20:22:00-05:00,94.74,12.4,736.1,1.42,0.58,93.32,0
2020-02-23T20:23:00-05:00,94.2,12.45,736.8,0.09,0.98,29.37,0
2020-02-23T20:24:00-05:00,93.78,12.51,736.9,0.98,0.65,56.95,0
2020-02-23T20:25:00-05:00,93.17,12.58,735.46,0.09,0.66,46.6,0
2020-02-23T20:26:00-05:00,93.09,12.6,736.7,-0.05,0.48,51.12,0
2020-02-23T20:27:00-05:00,93.11,12.62,737.04,0.68,0.56,53.21,0
2020-02-23T20:28:00-05:00,93.03,12.6,736.13,1.27,0.74,127.17,0
2020-02-23T20:29:00-05:00,92.81,12.59,735.03,-0.79,0.64,65.71,0
2020-02-23T20:30:00-05:00,92.95,12.56,736.6,-1.08,0.52,53.06,0
2020-02-23T20:31:00-05:00,93.13,12.54,736.4,1.86,1,46.34,0
2020-02-23T20:32:00-05:00,93.31,12.56,736.07,-0.05,2.17,66.05,0
2020-02-23T20:33:00-05:00,93.21,12.55,736.97,-0.35,1.99,43.34,0
2020-02-23T20:34:00-05:00,92.8,12.58,735.63,0.83,0.59,70.87,0
2020-02-23T20:35:00-05:00,92.62,12.61,735.4,-1.08,1.05,158.2,0
2020-02-23T20:36:00-05:00,92.36,12.61,735.43,-0.2,0.63,140.34,0
2020-02-23T20:37:00-05:00,92.55,12.59,736.4,-0.2,0.53,132.25,0
2020-02-23T20:38:00-05:00,92.32,12.59,735.83,1.27,0.61,203.26,0
2020-02-23T20:39:00-05:00,92.55,12.57,735.87,1.12,0.66,222.9,0
2020-02-23T20:40:00-05:00,92.56,12.61,736.84,1.42,0.38,274,0
2020-02-23T20:41:00-05:00,92.8,12.61,736.03,0.53,0.66,188.04,0
2020-02-23T20:42:00-05:00,92.93,12.6,736.57,1.27,0.35,178.08,0
2020-02-23T20:43:00-05:00,93.08,12.57,736.3,1.12,0.58,189.99,0
2020-02-23T20:44:00-05:00,93.23,12.52,736.27,1.27,0.56,161.21,0
2020-02-23T20:45:00-05:00,93.53,12.49,735.26,-0.49,0.59,168.09,0
2020-02-23T20:46:00-05:00,93.79,12.45,736.87,-0.64,0.59,149.25,0
2020-02-23T20:47:00-05:00,94.08,12.44,735.33,0.83,0.47,137.44,0
2020-02-23T20:48:00-05:00,94.32,12.43,735.56,-1.67,0.5,93.68,0
2020-02-23T20:49:00-05:00,94.35,12.43,736.74,0.09,0.35,137.37,0
2020-02-23T20:50:00-05:00,94.42,12.43,735.5,1.27,0.57,86.77,0
2020-02-23T20:51:00-05:00,94.37,12.39,736.37,-1.23,0.57,135.54,0
2020-02-23T20:52:00-05:00,94.45,12.4,735.2,-0.79,0.65,124.6,0
2020-02-23T20:53:00-05:00,94.48,12.41,735.53,-1.38,0.65,116.17,0
2020-02-23T20:54:00-05:00,94.24,12.41,736.37,1.86,0.54,89.21,0
2020-02-23T20:55:00-05:00,94.33,12.42,737.14,-1.08,0.61,108.18,0
2020-02-23T20:56:00-05:00,94.07,12.43,737.2,-0.35,0.57,104.94,0
2020-02-23T20:57:00-05:00,94.22,12.42,736.97,1.42,0.25,70.56,0
2020-02-23T20:58:00-05:00,94.26,12.45,735.63,-0.2,0.57,119.2,0
2020-02-23T20:59:00-05:00,94.22,12.46,735.6,1.56,0.61,121.09,0
2020-02-23T21:00:00-05:00,94.32,12.47,736.4,-1.08,0.67,122.39,0
2020-02-23T21:01:00-05:00,94.32,12.48,735.97,-1.08,0.26,79.08,0
2020-02-23T21:02:00-05:00,94.4,12.49,736.33,0.68,0.3,82.01,0
2020-02-23T21:03:00-05:00,94.42,12.49,736.43,-0.79,0.6,123.23,0
2020-02-23T21:04:00-05:00,94.48,12.49,737.14,-0.79,0.23,126.16,0
2020-02-23T21:05:00-05:00,94.74,12.5,736.84,1.12,0.63,128.29,0
2020-02-23T21:06:00-05:00,94.64,12.5,736.54,-0.05,0.66,103.57,0
2020-02-23T21:07:00-05:00,94.53,12.5,737,-0.35,0.59,92.21,0
2020-02-23T21:08:00-05:00,94.7,12.5,736.1,0.09,0.58,119.15,0
2020-02-23T21:09:00-05:00,94.67,12.5,737,0.83,0.36,119.87,0
2020-02-23T21:10:00-05:00,94.74,12.5,737.04,-0.35,0.21,132.61,0.1
2020-02-23T21:11:00-05:00,94.79,12.51,735.87,-0.35,0.29,124.17,0
2020-02-23T21:12:00-05:00,95.1,12.51,735.73,-0.35,0.46,93.2,0
2020-02-23T21:13:00-05:00,95,12.51,735.9,1.27,0.63,101.98,0
2020-02-23T21:14:00-05:00,94.82,12.49,735.56,-0.05,0.59,106.52,0
2020-02-23T21:15:00-05:00,94.97,12.48,735.8,-1.52,0.55,67.73,0
2020-02-23T21:16:00-05:00,94.73,12.5,736.84,1.12,0.57,123.3,0
2020-02-23T21:17:00-05:00,94.64,12.49,735.7,0.24,0.34,140.2,0
2020-02-23T21:18:00-05:00,94.74,12.46,736.6,-0.35,0.59,123.4,0
2020-02-23T21:19:00-05:00,94.58,12.48,736.87,-1.67,0.24,108.8,0
2020-02-23T21:20:00-05:00,94.4,12.46,736.27,-0.05,0.49,109.33,0
2020-02-23T21:21:00-05:00,94.54,12.43,735.77,0.68,0.51,128.65,0
2020-02-23T21:22:00-05:00,94.36,12.45,736.37,-2.11,0.59,131.92,0
2020-02-23T21:23:00-05:00,94.3,12.43,737.31,-0.2,0.59,142.31,0
2020-02-23T21:24:00-05:00,94.19,12.43,736.94,-1.52,0.14,99.44,0
2020-02-23T21:25:00-05:00,94.23,12.44,736.64,-0.49,0.56,128.51,0
2020-02-23T21:26:00-05:00,94.1,12.43,735.63,-0.64,0.61,101.67,0
2020-02-23T21:27:00-05:00,94.03,12.39,735.33,0.09,0.52,89.33,0
2020-02-23T21:28:00-05:00,93.91,12.36,736.23,-0.79,1.78,118.14,0
2020-02-23T21:29:00-05:00,93.33,12.37,735.33,-0.64,0.58,41.06,0
2020-02-23T21:30:00-05:00,93.04,12.4,735.63,-1.82,0.82,140.37,0
2020-02-23T21:31:00-05:00,92.99,12.41,737.17,-0.49,0.6,179.45,0
2020-02-23T21:32:00-05:00,92.76,12.42,736.1,-2.26,0.57,285.62,0
2020-02-23T21:33:00-05:00,92.74,12.4,736.23,-1.38,0.6,301.97,0
2020-02-23T21:34:00-05:00,92.62,12.37,735.46,0.39,0.62,245.08,0
2020-02-23T21:35:00-05:00,91.94,12.41,736.4,-1.67,0.69,43.48,0
2020-02-23T21:36:00-05:00,91.8,12.46,736.23,-0.79,0.39,136.26,0
2020-02-23T21:37:00-05:00,91.5,12.48,737.04,0.24,0.64,204.17,0
2020-02-23T21:38:00-05:00,91.37,12.47,736.6,-1.82,0.88,197.96,0
2020-02-23T21:39:00-05:00,91.62,12.47,735.63,0.24,0.61,179.11,0
2020-02-23T21:40:00-05:00,91.66,12.44,736.43,0.39,0.54,191.98,0
2020-02-23T21:41:00-05:00,91.74,12.43,736.2,0.53,0.33,135.47,0
2020-02-23T21:42:00-05:00,92.04,12.44,735.67,0.24,0.22,222.92,0
2020-02-23T21:43:00-05:00,92.26,12.43,736.57,-0.94,0.6,13.93,0
2020-02-23T21:44:00-05:00,92.74,12.43,735.46,-1.08,0.59,149.35,0
2020-02-23T21:45:00-05:00,92.63,12.41,736.67,0.68,0.45,114.56,0
2020-02-23T21:46:00-05:00,92.78,12.4,737.34,-0.94,0.32,151.31,0
2020-02-23T21:47:00-05:00,92.79,12.39,737.14,-1.67,0.28,73.97,0
2020-02-23T21:48:00-05:00,92.82,12.37,735.5,-0.79,0.54,114.47,0
2020-02-23T21:49:00-05:00,92.96,12.37,736.23,-0.79,0.38,130.38,0
2020-02-23T21:50:00-05:00,93.05,12.41,736.5,0.98,0.59,122.44,0
2020-02-23T21:51:00-05:00,93.47,12.42,735.67,-1.23,0.1,244.74,0
2020-02-23T21:52:00-05:00,94.06,12.48,735.63,1.12,0.45,174.46,0
2020-02-23T21:53:00-05:00,94.04,12.49,735.93,1.12,0.06,224.87,0
2020-02-23T21:54:00-05:00,94.15,12.51,736.7,-0.64,0.28,41.66,0
2020-02-23T21:55:00-05:00,93.97,12.49,736.97,1.42,0.56,89.5,0
2020-02-23T21:56:00-05:00,93.69,12.43,737.41,1.27,0.58,131.51,0
2020-02-23T21:57:00-05:00,93.35,12.39,735.7,-0.94,0.58,113.94,0
2020-02-23T21:58:00-05:00,93.07,12.36,736.97,1.12,0.56,64.68,0
2020-02-23T21:59:00-05:00,93.23,12.36,737.14,-1.82,0.72,35.8,0
2020-02-23T22:00:00-05:00,93.41,12.39,736.3,-1.08,0.97,77.88,0
2020-02-23T22:01:00-05:00,93.37,12.36,736.67,0.24,0.43,138.64,0
2020-02-23T22:02:00-05:00,93.51,12.37,735.8,-0.94,0.21,21.54,0
2020-02-23T22:03:00-05:00,93.54,12.35,735.77,-1.52,0.62,108.61,0
2020-02-23T22:04:00-05:00,93.46,12.34,736.13,0.24,0.5,106.83,0
2020-02-23T22:05:00-05:00,93.53,12.33,736.37,0.68,0.54,116.12,0
2020-02-23T22:06:00-05:00,93.59,12.31,736.5,-0.64,0.62,148.31,0
2020-02-23T22:07:00-05:00,93.42,12.29,736.03,-1.38,0.41,139.72,0
2020-02-23T22:08:00-05:00,93.53,12.27,737.04,0.24,0.59,126.88,0
2020-02-23T22:09:00-05:00,93.73,12.29,735.7,-1.23,0.22,133.55,0
2020-02-23T22:10:00-05:00,93.77,12.27,735.9,-1.67,0.56,179.06,0
2020-02-23T22:11:00-05:00,93.6,12.26,737.04,-0.35,0.53,178.34,0
2020-02-23T22:12:00-05:00,93.65,12.25,737.07,-0.49,0.16,100.16,0
2020-02-23T22:13:00-05:00,93.87,12.24,737.04,0.39,0.3,167.49,0
2020-02-23T22:14:00-05:00,93.71,12.24,735.8,-0.94,0.74,226.86,0.1
2020-02-23T22:15:00-05:00,93.61,12.21,736.03,-1.67,0.32,194.16,0
2020-02-23T22:16:00-05:00,93.97,12.19,737,0.53,0.19,153.21,0
2020-02-23T22:17:00-05:00,94.05,12.19,737,-1.67,0.2,177.02,0
2020-02-23T22:18:00-05:00,94.11,12.18,737.47,-0.64,0.48,146.35,0
2020-02-23T22:19:00-05:00,94.35,12.17,736.47,-1.52,0.44,150.21,0
2020-02-23T22:20:00-05:00,94.32,12.15,737.31,-1.23,0.21,184.99,0
2020-02-23T22:21:00-05:00,94.62,12.14,736.87,1.42,0.21,161.21,0
2020-02-23T22:22:00-05:00,94.82,12.15,735.83,0.09,0.57,114.95,0
2020-02-23T22:23:00-05:00,94.92,12.17,735.83,1.42,0.34,101.86,0
2020-02-23T22:24:00-05:00,94.92,12.16,736.07,-1.23,0.35,16.07,0
2020-02-23T22:25:00-05:00,94.97,12.17,736,0.83,0.24,179.09,0
2020-02-23T22:26:00-05:00,95.12,12.17,736.23,0.98,0.33,42.45,0
2020-02-23T22:27:00-05:00,95.28,12.19,735.93,0.39,0.7,25.55,0
2020-02-23T22:28:00-05:00,95.3,12.19,737.44,0.09,0.83,56.3,0
2020-02-23T22:29:00-05:00,95.3,12.21,736.13,-0.2,0.53,62.26,0
2020-02-23T22:30:00-05:00,95.32,12.2,737.37,-0.94,0.41,114.32,0
2020-02-23T22:31:00-05:00,95.23,12.18,737.24,-0.49,0.53,89.65,0
2020-02-23T22:32:00-05:00,95.11,12.19,735.93,-1.23,0.41,148.7,0
2020-02-23T22:33:00-05:00,95.09,12.19,737.54,-1.82,0.35,160.2,0
2020-02-23T22:34:00-05:00,94.95,12.17,736.74,0.98,0.66,159.5,0
2020-02-23T22:35:00-05:00,94.78,12.16,737.37,-0.35,0.59,168.07,0
2020-02-23T22:36:00-05:00,94.8,12.17,736.2,-1.67,0.39,186,0
2020-02-23T22:37:00-05:00,94.73,12.16,737.44,-1.08,0.53,180.12,0
2020-02-23T22:38:00-05:00,94.81,12.15,736.03,0.83,0.5,161.13,0
2020-02-23T22:39:00-05:00,94.92,12.14,736.23,-0.79,0.58,129.25,0
2020-02-23T22:40:00-05:00,94.89,12.13,735.9,-2.11,0.55,142.34,0
2020-02-23T22:41:00-05:00,94.99,12.13,737.44,-0.2,0.18,133.48,0
2020-02-23T22:42:00-05:00,95.26,12.14,737.41,1.27,0.19,222.23,0
2020-02-23T22:43:00-05:00,95.1,12.12,737.31,0.98,0.75,179.11,0
2020-02-23T22:44:00-05:00,94.98,12.09,735.93,0.09,0.7,215.91,0
2020-02-23T22:45:00-05:00,95.15,12.07,735.67,-0.94,0.5,140.01,0
2020-02-23T22:46:00-05:00,95.16,12.07,736.43,-1.82,0.21,152.23,0
2020-02-23T22:47:00-05:00,95.57,12.07,735.73,0.09,1.24,232.19,0
2020-02-23T22:48:00-05:00,95.67,12.08,737.27,0.83,0.61,213.99,0
2020-02-23T22:49:00-05:00,95.74,12.09,735.87,0.98,0.59,119.15,0
2020-02-23T22:50:00-05:00,95.88,12.11,735.77,1.42,0.64,30.86,0
2020-02-23T22:51:00-05:00,95.87,12.12,737.54,0.09,0.58,313.88,0
2020-02-23T22:52:00-05:00,96.07,12.14,735.8,1.86,0.5,342.47,0
2020-02-23T22:53:00-05:00,95.8,12.11,737.24,0.83,0.28,161.47,0
2020-02-23T22:54:00-05:00,95.86,12.11,736.07,-0.79,0.14,65.18,0
2020-02-23T22:55:00-05:00,95.56,12.11,737.34,1.27,1.3,24.86,0
2020-02-23T22:56:00-05:00,95.02,12.19,736.3,0.53,0.16,312.56,0
2020-02-23T22:57:00-05:00,93.94,12.3,737.44,-0.2,1.43,60.7,0
2020-02-23T22:58:00-05:00,92.86,12.39,737.51,0.68,0.33,209.94,0
2020-02-23T22:59:00-05:00,92.15,12.45,737.67,-1.23,0.96,201.94,0
2020-02-23T23:00:00-05:00,92.46,12.48,736,-1.38,0.31,285.6,0
2020-02-23T23:01:00-05:00,92.8,12.49,736.13,-0.79,0.5,126.88,0
2020-02-23T23:02:00-05:00,93.07,12.48,736.94,0.09,0.64,241.81,0
2020-02-23T23:03:00-05:00,93.17,12.49,735.77,-0.79,0.79,326.53,0
2020-02-23T23:04:00-05:00,92.69,12.43,736.97,-1.38,0.39,283.97,0
2020-02-23T23:05:00-05:00,92.82,12.45,736.2,-0.05,0.2,147.33,0
2020-02-23T23:06:00-05:00,93.11,12.44,737.64,-0.05,0.6,159.6,0
2020-02-23T23:07:00-05:00,93.21,12.42,737.47,-0.49,0.37,232.81,0
2020-02-23T23:08:00-05:00,93.5,12.41,736.9,-1.38,0.58,221.17,0
2020-02-23T23:09:00-05:00,93.99,12.42,736.4,0.09,0.35,236.8,0
2020-02-23T23:10:00-05:00,94.15,12.39,736.13,0.53,0.63,208.28,0
2020-02-23T23:11:00-05:00,94.52,12.37,736.64,0.68,0.13,250.79,0
2020-02-23T23:12:00-05:00,94.66,12.38,736.6,-0.35,0.26,3.01,0
2020-02-23T23:13:00-05:00,94.88,12.37,737.57,0.83,0.57,42.31,0
2020-02-23T23:14:00-05:00,95.09,12.39,736.9,0.53,0.58,16.29,0
2020-02-23T23:15:00-05:00,95.24,12.39,736.17,0.09,0.71,33.98,0
2020-02-23T23:16:00-05:00,94.94,12.36,735.87,-0.05,0.67,10.43,0
2020-02-23T23:17:00-05:00,94.97,12.35,737.94,-1.52,0.64,23.97,0
2020-02-23T23:18:00-05:00,94.82,12.32,736.17,0.98,0.43,348.44,0
2020-02-23T23:19:00-05:00,94.88,12.31,737.1,0.39,0.31,349.43,0
2020-02-23T23:20:00-05:00,94.96,12.3,737.17,-0.35,0.13,194.96,0.1
2020-02-23T23:21:00-05:00,95.16,12.31,737.34,0.83,0.2,158.28,0
2020-02-23T23:22:00-05:00,95.04,12.32,736.27,-0.79,0.56,130.69,0
2020-02-23T23:23:00-05:00,94.98,12.29,737.17,0.68,0.33,125.49,0
2020-02-23T23:24:00-05:00,94.98,12.29,736.27,-0.35,0.59,118.04,0
2020-02-23T23:25:00-05:00,95.14,12.27,737,1.12,0.6,97.98,0
2020-02-23T23:26:00-05:00,95.14,12.25,736.17,0.53,0.49,88.06,0
2020-02-23T23:27:00-05:00,95.1,12.26,736.27,-1.08,0.28,44.16,0
2020-02-23T23:28:00-05:00,95.12,12.26,736,1.12,0.2,109.76,0
2020-02-23T23:29:00-05:00,95.26,12.24,736.13,-1.23,0.09,51.65,0
2020-02-23T23:30:00-05:00,95.36,12.26,737.34,1.12,0.21,173.14,0
2020-02-23T23:31:00-05:00,95.17,12.25,736.13,0.53,0.32,182.11,0
2020-02-23T23:32:00-05:00,95.27,12.25,736.74,0.39,0.22,164.25,0
2020-02-23T23:33:00-05:00,95.38,12.23,735.93,-0.05,0.31,196.97,0
2020-02-23T23:34:00-05:00,95.44,12.23,736.07,-0.35,0.24,163.27,0
2020-02-23T23:35:00-05:00,95.43,12.23,736.97,-0.79,0.2,159.24,0
2020-02-23T23:36:00-05:00,95.57,12.23,735.87,-0.79,0.31,88.37,0
2020-02-23T23:37:00-05:00,95.63,12.23,737.27,-1.08,0.37,92.38,0
2020-02-23T23:38:00-05:00,95.42,12.22,735.93,0.39,0.53,69.55,0
2020-02-23T23:39:00-05:00,95.58,12.22,737.04,-0.94,0.25,102.15,0
2020-02-23T23:40:00-05:00,95.44,12.23,736.03,0.24,0.24,79.9,0
2020-02-23T23:41:00-05:00,95.52,12.21,736.23,0.09,0.41,141.06,0
2020-02-23T23:42:00-05:00,95.55,12.23,737.14,0.98,0.27,134.58,0
2020-02-23T23:43:00-05:00,95.52,12.22,737.51,-0.05,0.23,130.72,0
2020-02-23T23:44:00-05:00,95.51,12.23,737.47,-0.79,0.5,110.24,0
2020-02-23T23:45:00-05:00,95.55,12.22,736.7,-1.23,0.44,75.17,0
2020-02-23T23:46:00-05:00,95.68,12.22,736.84,1.12,0.55,50.52,0
2020-02-23T23:47:00-05:00,95.84,12.23,736.74,-0.49,0.66,28.48,0
2020-02-23T23:48:00-05:00,95.85,12.23,736.47,-1.38,0.28,35.23,0
2020-02-23T23:49:00-05:00,95.68,12.26,736.9,-1.67,0.44,2.96,0
2020-02-23T23:50:00-05:00,95.85,12.26,736,-1.38,0.21,284.98,0
2020-02-23T23:51:00-05:00,95.89,12.27,737.1,-0.05,0.14,22.5,0
2020-02-23T23:52:00-05:00,95.85,12.26,736.23,-1.08,0.16,353.46,0
2020-02-23T23:53:00-05:00,95.75,12.27,736.47,-0.49,0.18,348.42,0
2020-02-23T23:54:00-05:00,95.85,12.28,735.93,-1.82,0.06,97.14,0
2020-02-23T23:55:00-05:00,95.75,12.27,735.93,0.09,0.07,181.08,0
2020-02-23T23:56:00-05:00,95.82,12.26,735.97,-1.08,0.22,0.8,0
2020-02-23T23:57:00-05:00,95.67,12.27,735.77,0.53,0.57,41.76,0
2020-02-23T23:58:00-05:00,95.82,12.27,737.41,-0.64,0.83,69.27,0
2020-02-23T23:59:00-05:00,95.74,12.27,735.73,0.83,0.62,59.14,0
