time,[HUME],[TEMP],[PRES],[RADI],[RAPV],[DIRV],[PREC]
2020-02-08T00:00:00-05:00,79.51,12.82,738.01,-0.49,0.38,146.73,0
2020-02-08T00:01:00-05:00,79.43,12.85,737.37,-0.64,0.54,142.31,0
2020-02-08T00:02:00-05:00,79.38,12.85,737.71,1.42,0.68,95.58,0
2020-02-08T00:03:00-05:00,79.63,12.89,737.17,-0.94,0.49,199.95,0
2020-02-08T00:04:00-05:00,79.17,12.89,737.17,0.39,0.6,162.29,0
2020-02-08T00:05:00-05:00,79.29,12.89,737.91,0.53,0.19,89.91,0
2020-02-08T00:06:00-05:00,79.11,12.91,738.41,1.42,0.58,178.08,0
2020-02-08T00:07:00-05:00,79.13,12.91,737.1,0.09,0.6,169.05,0
2020-02-08T00:08:00-05:00,79.32,12.91,737.61,-0.49,0.62,136.29,0
2020-02-08T00:09:00-05:00,78.86,12.91,738.21,-1.08,0.65,88.69,0
2020-02-08T00:10:00-05:00,79.53,12.91,738.64,1.12,0.36,93.87,0
2020-02-08T00:11:00-05:00,79.81,12.93,738.41,-0.94,0.12,156.24,0
2020-02-08T00:12:00-05:00,79.35,12.93,737,-1.38,0.43,138.4,0
2020-02-08T00:13:00-05:00,79.89,12.95,736.84,0.98,0.14,169.53,0
2020-02-08T00:14:00-05:00,79.24,12.96,737.17,-2.11,0.6,151.24,0
2020-02-08T00:15:00-05:00,78.7,12.95,738.04,-1.52,0.55,147.74,0
2020-02-08T00:16:00-05:00,78.92,12.95,737.94,-0.35,0.57,149.27,0
2020-02-08T00:17:00-05:00,78.2,12.95,738.41,0.09,0.57,135.64,0
2020-02-08T00:18:00-05:00,78.61,12.98,737.54,-1.97,0.19,201.89,0
2020-02-08T00:19:00-05:00,78.8,12.97,737.74,0.53,0.64,181.44,0
2020-02-08T00:20:00-05:00,78.6,12.95,737.97,0.24,0.53,179.11,0
2020-02-08T00:21:00-05:00,78.54,12.97,736.8,-1.23,0.31,135.57,0
2020-02-08T00:22:00-05:00,78.63,12.97,736.94,-1.67,0.2,145.39,0
2020-02-08T00:23:00-05:00,78.31,12.97,736.87,-2.11,0.29,138.35,0
2020-02-08T00:24:00-05:00,78.35,12.97,737.67,0.39,0.22,178.03,0
2020-02-08T00:25:00-05:00,78.09,12.97,738.31,-1.23,0.17,186.91,0
2020-02-08T00:26:00-05:00,78.4,13,736.6,-1.82,0.59,192.94,0
2020-02-08T00:27:00-05:00,78.17,12.96,736.87,-1.67,0.5,245.75,0
2020-02-08T00:28:00-05:00,77.97,12.97,737.57,-1.82,0.59,194.88,0
2020-02-08T00:29:00-05:00,78.62,12.95,737.81,-2.26,0.56,159.24,0
2020-02-08T00:30:00-05:00,78.37,12.95,737.71,-2.26,0.15,180.12,0
2020-02-08T00:31:00-05:00,78.18,12.93,738.34,0.68,0.27,138.38,0
2020-02-08T00:32:00-05:00,78.86,12.97,738.21,-2.41,0.1,139.65,0
2020-02-08T00:33:00-05:00,78.96,12.94,737.54,-0.64,0.09,110.24,0
2020-02-08T00:34:00-05:00,79.54,12.97,738.41,-2.26,0.22,38.56,0
2020-02-08T00:35:00-05:00,79.57,12.95,737.2,0.09,0.21,178.03,0
2020-02-08T00:36:00-05:00,78.86,12.95,737.2,-0.35,0.35,135.59,0
2020-02-08T00:37:00-05:00,79.43,12.95,738.24,-0.49,0.14,115.67,0
2020-02-08T00:38:00-05:00,80.13,12.96,738.04,-1.67,0.21,159.6,0
2020-02-08T00:39:00-05:00,79.69,12.96,737.1,-1.67,0.24,65.4,0
2020-02-08T00:40:00-05:00,78.89,12.93,737.1,0.09,0.25,71.64,0
2020-02-08T00:41:00-05:00,79.47,12.94,738.34,-1.38,0.12,137.42,0
2020-02-08T00:42:00-05:00,79.27,12.95,738.41,-1.52,0.23,76.44,0
2020-02-08T00:43:00-05:00,79.36,12.95,738.18,-1.08,0.15,90.01,0
2020-02-08T00:44:00-05:00,79.51,12.95,737.94,0.68,0.14,143.32,0
2020-02-08T00:45:00-05:00,79.3,12.96,737.67,0.53,0.13,41.52,0
2020-02-08T00:46:00-05:00,78.98,12.96,737.54,0.68,0.52,154.32,0
2020-02-08T00:47:00-05:00,79.14,12.95,738.48,-1.38,0.22,157.24,0
2020-02-08T00:48:00-05:00,79.49,12.95,736.7,-1.82,0.27,159.24,0
2020-02-08T00:49:00-05:00,79.39,12.94,737.74,-1.67,0.47,139.36,0
2020-02-08T00:50:00-05:00,79.51,12.93,736.97,-1.08,0.06,131.46,0
2020-02-08T00:51:00-05:00,79.56,12.93,736.9,-0.05,0.55,169.44,0
2020-02-08T00:52:00-05:00,79.38,12.93,738.28,-0.64,0.48,157.24,0
2020-02-08T00:53:00-05:00,79.47,12.92,736.97,0.24,0.34,101.67,0
2020-02-08T00:54:00-05:00,80.15,12.93,738.18,-1.38,0.62,106.81,0
2020-02-08T00:55:00-05:00,79.69,12.91,736.84,-1.08,0.29,162.62,0
2020-02-08T00:56:00-05:00,79.85,12.91,737.41,-1.08,0.56,7.26,0
2020-02-08T00:57:00-05:00,80.18,12.94,736.9,-1.38,0.34,90.13,0
2020-02-08T00:58:00-05:00,80,12.93,736.87,-1.23,0.49,35.03,0
2020-02-08T00:59:00-05:00,79.85,12.93,736.47,0.98,0.58,46.75,0
2020-02-08T01:00:00-05:00,80.76,12.95,736.43,-0.2,0.06,293.64,0
2020-02-08T01:01:00-05:00,81.26,12.96,737.31,-1.52,0.17,130.24,0
2020-02-08T01:02:00-05:00,81.04,12.97,738.11,-0.79,0.21,185.95,0
2020-02-08T01:03:00-05:00,80.68,12.95,737.27,1.27,0.46,49.03,0
2020-02-08T01:04:00-05:00,80.65,12.95,738.01,1.42,0.07,13.55,0
2020-02-08T01:05:00-05:00,80.44,12.96,736.84,0.68,0.29,125.1,0
2020-02-08T01:06:00-05:00,80.07,12.93,737.31,-0.64,0.41,96.97,0
2020-02-08T01:07:00-05:00,79.73,12.94,738.01,0.68,0.38,47.42,0
2020-02-08T01:08:00-05:00,80.2,12.93,737.14,-0.05,0.23,90.85,0
2020-02-08T01:09:00-05:00,80.12,12.94,737.94,1.27,0.19,98.26,0
2020-02-08T01:10:00-05:00,80.05,12.95,737.91,0.68,0.33,84.68,0
2020-02-08T01:11:00-05:00,80.09,12.93,737.27,-1.52,0.21,81.94,0
2020-02-08T01:12:00-05:00,80.51,12.96,736.5,-0.2,0.54,110.17,0
2020-02-08T01:13:00-05:00,80.13,12.97,736.87,-1.23,0.23,110.89,0
2020-02-08T01:14:00-05:00,80.19,12.96,736.64,-0.94,0.27,104.6,0
2020-02-08T01:15:00-05:00,80.43,12.97,737.47,0.53,0.32,73.61,0
2020-02-08T01:16:00-05:00,80.46,12.97,737.71,-1.52,0.67,23.15,0
2020-02-08T01:17:00-05:00,79.79,12.95,737.94,-0.49,0.26,345.8,0
2020-02-08T01:18:00-05:00,80.71,12.97,737,0.09,0.28,180.39,0
2020-02-08T01:19:00-05:00,80.38,12.98,736.47,-0.94,0.11,143.37,0
2020-02-08T01:20:00-05:00,80.08,12.97,736.43,-1.08,0.36,312.58,0
2020-02-08T01:21:00-05:00,79.91,12.98,737.34,0.39,0.14,189.07,0
2020-02-08T01:22:00-05:00,79.83,12.96,737.64,0.09,0.18,289.63,0
2020-02-08T01:23:00-05:00,80.15,12.99,737.04,0.39,0.4,192.99,0
2020-02-08T01:24:00-05:00,79.92,12.95,737.87,0.24,0.28,215.89,0
2020-02-08T01:25:00-05:00,79.89,12.93,736.5,-0.49,0.17,188.04,0
2020-02-08T01:26:00-05:00,80.09,12.96,737.67,-0.79,0.19,223.88,0
2020-02-08T01:27:00-05:00,80.09,12.91,737.57,-0.35,0.52,177.07,0
2020-02-08T01:28:00-05:00,79.95,12.92,736.37,-0.35,0.44,160.17,0
2020-02-08T01:29:00-05:00,79.95,12.91,736.27,-1.67,0.45,144.64,0
2020-02-08T01:30:00-05:00,80.13,12.89,737.87,0.68,0.37,159.26,0
2020-02-08T01:31:00-05:00,80.13,12.9,737.31,-1.38,0.24,187.3,0
2020-02-08T01:32:00-05:00,80.74,12.92,736.9,-0.35,0.25,129.23,0
2020-02-08T01:33:00-05:00,80.37,12.92,736.27,-0.05,0.08,140.66,0
2020-02-08T01:34:00-05:00,80.19,12.91,736.57,-1.97,0.17,220.83,0
2020-02-08T01:35:00-05:00,80.23,12.91,737.04,-2.26,0.25,146.73,0
2020-02-08T01:36:00-05:00,80.2,12.92,737.04,-2.85,0.21,41.49,0
2020-02-08T01:37:00-05:00,80.35,12.91,737.61,0.24,0.51,47.25,0
2020-02-08T01:38:00-05:00,80.86,12.92,737.17,-1.52,0.52,192.96,0
2020-02-08T01:39:00-05:00,80.55,12.91,737.57,-1.52,0.48,176.06,0
2020-02-08T01:40:00-05:00,80.67,12.89,736.3,-1.23,0.48,191,0
2020-02-08T01:41:00-05:00,80.62,12.89,737.84,-1.52,0.25,190.04,0
2020-02-08T01:42:00-05:00,80.94,12.89,736.23,0.53,0.1,154.36,0
2020-02-08T01:43:00-05:00,80.9,12.89,736.97,-0.05,0.17,147.33,0
2020-02-08T01:44:00-05:00,80.91,12.89,737.1,-0.64,0.06,192.96,0
2020-02-08T01:45:00-05:00,80.8,12.89,736.17,-0.79,0.34,305.55,0
2020-02-08T01:46:00-05:00,80.92,12.89,737.87,-1.23,0.1,290.74,0
2020-02-08T01:47:00-05:00,81.13,12.87,736.23,-0.49,0.41,177.05,0
2020-02-08T01:48:00-05:00,81.06,12.89,737.47,-1.08,0.4,157.6,0
2020-02-08T01:49:00-05:00,81.04,12.87,736.2,-1.38,0.13,284.69,0
2020-02-08T01:50:00-05:00,81.19,12.88,737.41,-1.23,0.12,133.6,0
2020-02-08T01:51:00-05:00,81.58,12.87,736.17,-1.08,0.14,170.37,0
2020-02-08T01:52:00-05:00,81.85,12.88,736.8,-1.82,0.35,177.38,0
2020-02-08T01:53:00-05:00,81.53,12.87,737.24,-0.94,0.48,173.09,0
2020-02-08T01:54:00-05:00,81.38,12.85,737.24,-2.11,0.53,138.76,0
2020-02-08T01:55:00-05:00,81.53,12.83,736.57,0.39,0.12,128.25,0
2020-02-08T01:56:00-05:00,81.97,12.85,737.51,0.24,0.21,188.33,0
2020-02-08T01:57:00-05:00,81.7,12.83,737.31,-1.67,0.18,103.74,0
2020-02-08T01:58:00-05:00,82,12.83,737.57,-1.97,0.1,143.32,0
2020-02-08T01:59:00-05:00,82.11,12.83,736.33,-1.82,0.31,185.04,0
2020-02-08T02:00:00-05:00,81.69,12.82,737.54,-0.35,0.56,163.27,0
2020-02-08T02:01:00-05:00,81.78,12.81,736.54,0.24,0.52,168.14,0
2020-02-08T02:02:00-05:00,81.92,12.81,736.54,0.24,0.59,127.14,0
2020-02-08T02:03:00-05:00,82.11,12.82,737.37,-1.52,0.53,161.16,0
2020-02-08T02:04:00-05:00,81.77,12.81,736.64,0.53,0.59,162.24,0
2020-02-08T02:05:00-05:00,81.6,12.81,736.2,0.68,0.59,145.36,0
2020-02-08T02:06:00-05:00,81.91,12.8,737.17,-0.79,0.41,136.26,0
2020-02-08T02:07:00-05:00,82.28,12.81,736.97,-0.49,0.22,128.56,0
2020-02-08T02:08:00-05:00,82.26,12.81,737.34,-2.7,0.22,356.41,0
2020-02-08T02:09:00-05:00,82.35,12.8,736.74,-1.97,0.25,282.02,0
2020-02-08T02:10:00-05:00,82.27,12.78,736.67,-0.35,0.18,103.3,0
2020-02-08T02:11:00-05:00,83.11,12.79,736.57,-1.08,0.42,219.23,0
2020-02-08T02:12:00-05:00,82.78,12.77,737.31,0.09,0.67,174.1,0
2020-02-08T02:13:00-05:00,83.87,12.77,735.97,-2.11,0.38,160.53,0
2020-02-08T02:14:00-05:00,83.57,12.75,735.9,-0.49,0.18,241.84,0
2020-02-08T02:15:00-05:00,83.37,12.74,735.93,-1.23,0.15,267.96,0
2020-02-08T02:16:00-05:00,83.5,12.75,735.87,-0.64,0.32,216.92,0
2020-02-08T02:17:00-05:00,83.84,12.75,736.77,-2.41,0.24,233.82,0
2020-02-08T02:18:00-05:00,83.82,12.74,735.87,-1.82,0.48,220.76,0
2020-02-08T02:19:00-05:00,84.48,12.71,736.13,-1.97,0.75,185.93,0
2020-02-08T02:20:00-05:00,85.19,12.67,735.9,-2.11,0.53,164.18,0
2020-02-08T02:21:00-05:00,85.77,12.68,736.1,-2.7,0.06,240.78,0
2020-02-08T02:22:00-05:00,85.89,12.67,737.24,-2.7,0.12,183.96,0
2020-02-08T02:23:00-05:00,86.28,12.66,735.7,-0.79,0.11,241.77,0
2020-02-08T02:24:00-05:00,86.46,12.65,737,-1.82,0.24,185.23,0
2020-02-08T02:25:00-05:00,86.28,12.65,736.13,-0.64,0.24,174.38,0
2020-02-08T02:26:00-05:00,86.53,12.62,736,-2.26,0.18,168.48,0
2020-02-08T02:27:00-05:00,86.76,12.6,736.03,-1.82,0.14,136.58,0
2020-02-08T02:28:00-05:00,86.81,12.61,737,-0.49,0.23,111.11,0
2020-02-08T02:29:00-05:00,87.34,12.61,736.6,-1.67,0.29,106.67,0
2020-02-08T02:30:00-05:00,87.43,12.6,737.34,-0.49,0.33,65.71,0
2020-02-08T02:31:00-05:00,87.06,12.59,735.87,-0.2,0.09,78.56,0
2020-02-08T02:32:00-05:00,87.13,12.59,737.44,-1.38,0.17,232.24,0
2020-02-08T02:33:00-05:00,87.28,12.59,736.4,-0.49,0.58,182.02,0
2020-02-08T02:34:00-05:00,87.61,12.57,735.83,0.24,0.72,187.18,0
2020-02-08T02:35:00-05:00,87.62,12.56,737.31,-1.52,0.48,173.16,0
2020-02-08T02:36:00-05:00,87.77,12.57,736.87,-0.79,0.57,195.87,0
2020-02-08T02:37:00-05:00,87.8,12.53,735.7,-0.35,0.54,183.96,0
2020-02-08T02:38:00-05:00,87.88,12.49,737.2,-0.2,0.62,179.06,0
2020-02-08T02:39:00-05:00,88.05,12.47,736.27,-1.82,0.62,182.98,0
2020-02-08T02:40:00-05:00,88.24,12.46,735.83,-0.49,0.27,183.99,0
2020-02-08T02:41:00-05:00,88.46,12.43,737.27,0.39,0.56,220.81,0
2020-02-08T02:42:00-05:00,88.47,12.44,737.1,-1.67,0.23,185.93,0
2020-02-08T02:43:00-05:00,88.4,12.43,736.77,-1.08,0.23,140.32,0
2020-02-08T02:44:00-05:00,88.61,12.42,737.44,0.39,0.16,115,0
2020-02-08T02:45:00-05:00,88.57,12.43,735.87,-1.97,0.06,244.14,0
2020-02-08T02:46:00-05:00,88.55,12.42,735.9,-2.41,0.2,133.24,0
2020-02-08T02:47:00-05:00,88.42,12.44,735.97,-0.49,0.18,102.37,0
2020-02-08T02:48:00-05:00,88.6,12.43,735.83,-2.85,0.06,109.62,0
2020-02-08T02:49:00-05:00,88.66,12.43,735.97,-1.08,0.58,11.89,0
2020-02-08T02:50:00-05:00,88.75,12.44,735.87,-0.2,0.21,59.54,0
2020-02-08T02:51:00-05:00,88.49,12.44,737.1,-0.2,0.21,2.12,0
2020-02-08T02:52:00-05:00,88.72,12.43,737.64,-1.23,0.57,36.86,0
2020-02-08T02:53:00-05:00,88.56,12.43,737.24,1.12,0.3,35.35,0
2020-02-08T02:54:00-05:00,88.78,12.44,735.77,-0.94,0.53,39.5,0
2020-02-08T02:55:00-05:00,88.76,12.45,735.93,1.12,0.23,290.69,0
2020-02-08T02:56:00-05:00,88.82,12.45,737,0.24,0.27,191.93,0
2020-02-08T02:57:00-05:00,88.49,12.44,735.6,1.12,0.56,188.02,0
2020-02-08T02:58:00-05:00,88.59,12.41,737.04,0.68,0.62,179.35,0
2020-02-08T02:59:00-05:00,88.76,12.41,736.5,0.98,0.58,165.5,0
2020-02-08T03:00:00-05:00,88.69,12.38,735.8,-1.67,0.36,149.27,0
2020-02-08T03:01:00-05:00,88.76,12.39,737.1,-1.23,0.13,157.24,0
2020-02-08T03:02:00-05:00,88.74,12.36,735.93,-1.67,0.36,98.72,0
2020-02-08T03:03:00-05:00,88.69,12.39,736.43,-1.08,0.25,176.06,0
2020-02-08T03:04:00-05:00,88.7,12.38,737.44,-2.41,0.13,216.25,0
2020-02-08T03:05:00-05:00,88.61,12.4,737.31,-2.7,0.23,165.19,0
2020-02-08T03:06:00-05:00,88.46,12.38,737.04,-0.79,0.39,186.36,0
2020-02-08T03:07:00-05:00,88.37,12.37,736.3,0.09,0.57,158.25,0
2020-02-08T03:08:00-05:00,88.33,12.36,735.77,-1.67,0.59,147.71,0
2020-02-08T03:09:00-05:00,88.23,12.36,737.17,0.98,0.53,177.05,0
2020-02-08T03:10:00-05:00,88.27,12.36,735.93,-0.49,0.53,191.36,0
2020-02-08T03:11:00-05:00,88.29,12.35,736.1,0.98,0.54,206.93,0
2020-02-08T03:12:00-05:00,88.48,12.32,736.2,-0.05,0.6,186.22,0
2020-02-08T03:13:00-05:00,88.49,12.32,736.4,-0.05,0.2,163.25,0
2020-02-08T03:14:00-05:00,88.52,12.33,737.44,-0.35,0.28,166.13,0
2020-02-08T03:15:00-05:00,88.36,12.33,735.63,-1.23,0.2,232.84,0
2020-02-08T03:16:00-05:00,88.39,12.32,736.33,-0.35,0.41,179.11,0
2020-02-08T03:17:00-05:00,88.62,12.33,736.3,0.24,0.68,138.38,0
2020-02-08T03:18:00-05:00,88.68,12.31,735.93,-0.2,0.54,197,0
2020-02-08T03:19:00-05:00,88.95,12.3,735.73,-0.94,0.31,184.01,0
2020-02-08T03:20:00-05:00,88.88,12.29,735.73,-1.67,0.41,191.93,0
2020-02-08T03:21:00-05:00,88.95,12.28,736.6,-0.35,0.19,193.95,0
2020-02-08T03:22:00-05:00,89.19,12.28,736.47,0.83,0.16,166.2,0
2020-02-08T03:23:00-05:00,89.09,12.28,737.31,-2.41,0.36,167.49,0
2020-02-08T03:24:00-05:00,89.18,12.29,737.2,0.09,0.22,189.05,0
2020-02-08T03:25:00-05:00,89.15,12.28,736,-1.08,0.09,289.94,0
2020-02-08T03:26:00-05:00,89.16,12.29,735.87,0.09,0.29,227.8,0
2020-02-08T03:27:00-05:00,89.04,12.29,736.9,-0.05,0.16,216.27,0
2020-02-08T03:28:00-05:00,89.23,12.29,736.74,0.39,0.11,223.91,0
2020-02-08T03:29:00-05:00,89.2,12.29,736.87,-0.2,0.6,190.4,0
2020-02-08T03:30:00-05:00,89.1,12.28,736.03,-1.52,0.59,185.02,0
2020-02-08T03:31:00-05:00,89.36,12.26,735.87,-1.97,0.58,202.18,0
2020-02-08T03:32:00-05:00,89.5,12.25,737.07,0.68,0.57,186.22,0
2020-02-08T03:33:00-05:00,89.78,12.22,736.54,-0.79,0.57,192.27,0
2020-02-08T03:34:00-05:00,89.96,12.21,735.83,-0.94,0.55,181.11,0
2020-02-08T03:35:00-05:00,90.02,12.2,737.27,-0.2,0.28,219.83,0
2020-02-08T03:36:00-05:00,90.19,12.2,737.47,-0.05,0.48,183.99,0
2020-02-08T03:37:00-05:00,90.42,12.19,737.14,-0.64,0.11,216.87,0
2020-02-08T03:38:00-05:00,90.54,12.19,736.43,0.98,0.26,210.87,0
2020-02-08T03:39:00-05:00,90.57,12.18,735.77,0.39,0.24,247.74,0
2020-02-08T03:40:00-05:00,90.39,12.18,737.2,0.83,0.06,309.6,0
2020-02-08T03:41:00-05:00,90.47,12.21,737.47,-0.79,0.42,213.97,0
2020-02-08T03:42:00-05:00,90.63,12.2,736.54,0.83,0.59,223.26,0
2020-02-08T03:43:00-05:00,90.61,12.21,737.2,0.98,0.26,181.03,0
2020-02-08T03:44:00-05:00,90.55,12.21,737.1,-0.64,0.53,188.45,0
2020-02-08T03:45:00-05:00,90.76,12.21,736.54,1.12,0.56,218.87,0
2020-02-08T03:46:00-05:00,90.75,12.22,735.7,0.09,0.33,217.23,0
2020-02-08T03:47:00-05:00,90.97,12.23,737.34,-0.05,0.52,191.96,0
2020-02-08T03:48:00-05:00,90.9,12.23,735.6,-1.38,0.58,210.27,0
2020-02-08T03:49:00-05:00,90.79,12.23,736.47,-1.38,0.58,186.99,0
2020-02-08T03:50:00-05:00,90.92,12.22,735.83,-1.67,0.72,232.12,0
2020-02-08T03:51:00-05:00,90.69,12.21,736.87,-1.08,0.56,194.91,0
2020-02-08T03:52:00-05:00,90.81,12.2,737.1,-1.97,0.45,214.9,0
2020-02-08T03:53:00-05:00,90.69,12.2,735.8,-0.35,0.23,280.58,0
2020-02-08T03:54:00-05:00,90.71,12.2,737.07,-1.67,0.39,228.78,0
2020-02-08T03:55:00-05:00,90.73,12.21,736.94,-0.05,0.15,154.32,0
2020-02-08T03:56:00-05:00,90.81,12.21,736.5,-1.23,0.4,171.19,0
2020-02-08T03:57:00-05:00,90.78,12.21,737.34,-0.35,0.22,162.21,0
2020-02-08T03:58:00-05:00,90.82,12.23,735.56,0.39,0.17,136.22,0
2020-02-08T03:59:00-05:00,90.85,12.23,736.67,-0.94,0.29,171.14,0
2020-02-08T04:00:00-05:00,90.76,12.23,736.13,0.39,0.27,199.97,0
2020-02-08T04:01:00-05:00,90.67,12.23,737.57,-1.38,0.23,191.33,0
2020-02-08T04:02:00-05:00,90.83,12.23,735.73,-1.08,0.22,176.06,0
2020-02-08T04:03:00-05:00,90.89,12.23,736.87,-0.64,0.23,206.33,0
2020-02-08T04:04:00-05:00,90.73,12.23,736.5,0.98,0.47,236.8,0
2020-02-08T04:05:00-05:00,90.9,12.23,736.37,0.68,0.31,191.33,0
2020-02-08T04:06:00-05:00,90.8,12.23,737.04,0.09,0.63,190.25,0
2020-02-08T04:07:00-05:00,90.85,12.21,737.27,-1.38,0.39,210.32,0
2020-02-08T04:08:00-05:00,90.93,12.22,737.44,-0.05,0.57,223.91,0
2020-02-08T04:09:00-05:00,91.01,12.21,736.64,-0.79,0.43,195.2,0
2020-02-08T04:10:00-05:00,90.97,12.22,736.1,0.68,0.49,214.9,0
2020-02-08T04:11:00-05:00,90.95,12.22,736.74,-0.49,0.27,167.18,0
2020-02-08T04:12:00-05:00,91.04,12.21,735.97,0.68,0.6,207.89,0
2020-02-08T04:13:00-05:00,90.77,12.21,736.67,1.12,0.6,220.86,0
2020-02-08T04:14:00-05:00,90.87,12.21,736.2,0.53,0.54,190.04,0
2020-02-08T04:15:00-05:00,90.97,12.21,736.4,0.09,0.63,202.25,0
2020-02-08T04:16:00-05:00,90.83,12.2,736.3,0.39,0.73,224.91,0
2020-02-08T04:17:00-05:00,90.81,12.21,737.41,0.98,0.76,218.89,0
2020-02-08T04:18:00-05:00,90.89,12.21,737.47,1.12,0.65,186.99,0
2020-02-08T04:19:00-05:00,90.85,12.2,737.71,0.98,0.58,206.96,0
2020-02-08T04:20:00-05:00,90.8,12.21,736.03,1.12,0.52,184.39,0
2020-02-08T04:21:00-05:00,90.72,12.21,737.04,-0.79,0.3,278.66,0
2020-02-08T04:22:00-05:00,90.75,12.21,737.44,-1.08,0.22,347.8,0
2020-02-08T04:23:00-05:00,90.83,12.21,736.67,0.53,0.29,7.07,0
2020-02-08T04:24:00-05:00,91.01,12.24,735.87,0.68,0.09,279,0
2020-02-08T04:25:00-05:00,90.81,12.21,736.77,-1.52,0.23,189.07,0
2020-02-08T04:26:00-05:00,90.73,12.24,736,0.98,0.39,211.3,0
2020-02-08T04:27:00-05:00,90.66,12.23,737.31,-0.94,0.18,198.96,0
2020-02-08T04:28:00-05:00,90.69,12.24,737.51,-0.64,0.23,153.52,0
2020-02-08T04:29:00-05:00,90.72,12.21,737.24,0.68,0.52,190.01,0
2020-02-08T04:30:00-05:00,90.42,12.2,736.1,-1.67,0.58,177.96,0
2020-02-08T04:31:00-05:00,90.31,12.22,736.23,-1.08,0.18,156.33,0
2020-02-08T04:32:00-05:00,90.35,12.19,737.31,0.83,0.39,335.53,0
2020-02-08T04:33:00-05:00,90.49,12.17,735.97,-0.49,0.24,35.27,0
2020-02-08T04:34:00-05:00,90.49,12.2,736.23,-1.38,0.49,197.02,0
2020-02-08T04:35:00-05:00,90.04,12.18,736.8,-0.94,0.22,222.92,0
2020-02-08T04:36:00-05:00,90.04,12.16,737.57,-1.38,0.11,199.01,0
2020-02-08T04:37:00-05:00,90.11,12.15,736.13,-1.67,0.82,189.05,0
2020-02-08T04:38:00-05:00,89.97,12.15,736.67,0.98,0.28,224.89,0
2020-02-08T04:39:00-05:00,90.06,12.15,737.07,-1.38,0.5,170.52,0
2020-02-08T04:40:00-05:00,89.92,12.13,737.41,0.98,0.53,198.96,0
2020-02-08T04:41:00-05:00,89.81,12.13,737.54,-1.52,0.41,243.13,0
2020-02-08T04:42:00-05:00,90.09,12.13,737,-1.97,0.23,222.9,0
2020-02-08T04:43:00-05:00,90.04,12.13,736.03,0.24,0.14,131.58,0
2020-02-08T04:44:00-05:00,90.13,12.13,737.47,0.83,0.31,158.28,0
2020-02-08T04:45:00-05:00,90.03,12.13,737.94,0.39,0.19,200.29,0
2020-02-08T04:46:00-05:00,90.02,12.13,737.1,-0.49,0.3,138.33,0
2020-02-08T04:47:00-05:00,89.74,12.12,737.47,-1.08,0.3,179.4,0
2020-02-08T04:48:00-05:00,89.81,12.11,737.51,-1.08,0.09,41.71,0
2020-02-08T04:49:00-05:00,89.67,12.1,736.07,0.09,0.64,98.1,0
2020-02-08T04:50:00-05:00,89.58,12.1,737.77,-1.23,0.62,97.4,0
2020-02-08T04:51:00-05:00,89.61,12.09,736.37,0.39,0.56,342.54,0
2020-02-08T04:52:00-05:00,89.34,12.11,737.37,-0.49,0.6,192.94,0
2020-02-08T04:53:00-05:00,89.77,12.09,737.44,1.12,0.45,184.01,0
2020-02-08T04:54:00-05:00,89.82,12.11,736.94,-1.52,0.51,207.94,0
2020-02-08T04:55:00-05:00,89.96,12.06,737.47,-1.82,0.49,210.87,0
2020-02-08T04:56:00-05:00,89.9,12.04,735.9,0.68,0.59,181.03,0
2020-02-08T04:57:00-05:00,90.11,12.04,737.97,-1.23,0.37,211.86,0
2020-02-08T04:58:00-05:00,90.13,12.01,736.17,0.39,0.64,244.12,0
2020-02-08T04:59:00-05:00,90.04,12.01,736.9,0.09,0.56,201.94,0
2020-02-08T05:00:00-05:00,89.87,11.97,736.2,-1.52,0.41,183.36,0
2020-02-08T05:01:00-05:00,89.77,11.99,737.57,-1.38,0.36,133.26,0
2020-02-08T05:02:00-05:00,89.68,11.99,736.37,-1.82,0.46,127.45,0
2020-02-08T05:03:00-05:00,89.71,11.99,737.07,-0.94,0.43,99.42,0
2020-02-08T05:04:00-05:00,89.57,12.01,736.23,-0.49,0.16,75.55,0
2020-02-08T05:05:00-05:00,89.28,12.01,737.97,-0.05,0.06,57.58,0
2020-02-08T05:06:00-05:00,89.26,12.01,737.84,-1.38,0.38,2.1,0
2020-02-08T05:07:00-05:00,89.04,12.03,736.97,-1.23,0.6,39.02,0
2020-02-08T05:08:00-05:00,87.76,12.01,736.33,-0.05,0.59,2.75,0
2020-02-08T05:09:00-05:00,87.1,12.04,737.31,-0.94,0.22,96.13,0
2020-02-08T05:10:00-05:00,86.13,12.04,736.87,-0.94,0.54,59.98,0
2020-02-08T05:11:00-05:00,85.52,12.05,736.17,-1.08,0.19,316.57,0
2020-02-08T05:12:00-05:00,85.66,12.08,736.54,1.27,0.22,291.67,0
2020-02-08T05:13:00-05:00,85.83,12.1,737.81,1.12,0.21,172.15,0
2020-02-08T05:14:00-05:00,85.64,12.11,737.77,-0.64,0.48,238.86,0
2020-02-08T05:15:00-05:00,85.8,12.13,737.2,0.98,0.31,184.01,0
2020-02-08T05:16:00-05:00,85.33,12.11,737.87,-1.67,0.21,191.02,0
2020-02-08T05:17:00-05:00,84.94,12.11,737.04,-1.97,0.12,145.65,0
2020-02-08T05:18:00-05:00,84.49,12.11,736.94,-1.67,0.75,29.75,0
2020-02-08T05:19:00-05:00,83.93,12.09,737.71,1.12,0.56,20.51,0
2020-02-08T05:20:00-05:00,83.84,12.11,737,1.12,0.22,338.48,0
2020-02-08T05:21:00-05:00,84.02,12.11,736.13,-1.08,0.63,50.01,0
2020-02-08T05:22:00-05:00,83.8,12.13,737.74,1.42,0.71,63.77,0
2020-02-08T05:23:00-05:00,83.15,12.15,737.81,0.98,0.57,18.85,0
2020-02-08T05:24:00-05:00,83.18,12.14,736.54,-0.79,0.24,343.45,0
2020-02-08T05:25:00-05:00,83.46,12.15,736.74,-0.94,0.2,303.99,0
2020-02-08T05:26:00-05:00,84.46,12.19,736.7,-0.35,0.12,188.09,0
2020-02-08T05:27:00-05:00,84.82,12.2,737.77,0.83,0.09,59.78,0
2020-02-08T05:28:00-05:00,84.47,12.2,737.17,-0.94,0.47,63.17,0
2020-02-08T05:29:00-05:00,84.38,12.19,736.57,-1.08,0.17,125.63,0
2020-02-08T05:30:00-05:00,84.77,12.19,737.67,0.53,0.25,352.5,0
2020-02-08T05:31:00-05:00,85.16,12.21,737.77,-1.52,0.09,0.85,0
2020-02-08T05:32:00-05:00,85.01,12.21,737.07,-1.52,0.19,50.25,0
2020-02-08T05:33:00-05:00,84.3,12.2,737.27,-1.67,0.16,11.49,0
2020-02-08T05:34:00-05:00,83.51,12.17,736.5,-0.2,0.59,13.74,0
2020-02-08T05:35:00-05:00,83.25,12.17,736.23,0.83,0.53,60.72,0
2020-02-08T05:36:00-05:00,83.1,12.18,736.8,1.27,0.48,2.1,0
2020-02-08T05:37:00-05:00,83.11,12.19,736.87,-0.64,0.63,56.52,0
2020-02-08T05:38:00-05:00,83.41,12.19,736.9,-0.05,0.59,71.69,0
2020-02-08T05:39:00-05:00,83.03,12.19,737.17,0.83,0.21,24.76,0
2020-02-08T05:40:00-05:00,82.75,12.21,737.67,-0.05,0.67,42.09,0
2020-02-08T05:41:00-05:00,82.35,12.2,736.4,-0.79,0.6,19.07,0
2020-02-08T05:42:00-05:00,82.24,12.21,736.23,-1.67,0.28,31.82,0
2020-02-08T05:43:00-05:00,82.42,12.22,737.2,-1.08,0.56,77.6,0
2020-02-08T05:44:00-05:00,82.35,12.21,737.64,0.09,0.5,37.05,0
2020-02-08T05:45:00-05:00,82.57,12.23,737.71,-1.08,0.1,178.08,0
2020-02-08T05:46:00-05:00,82.63,12.23,737.27,0.83,0.3,258.76,0
2020-02-08T05:47:00-05:00,82.49,12.25,737.24,-0.35,0.28,248.8,0
2020-02-08T05:48:00-05:00,82.77,12.23,737.87,-1.67,0.23,255.71,0
2020-02-08T05:49:00-05:00,82.99,12.23,737.91,-0.35,0.21,158.28,0
2020-02-08T05:50:00-05:00,82.97,12.23,736.7,0.53,0.19,203.91,0
2020-02-08T05:51:00-05:00,83.17,12.2,737.1,0.09,0.17,147.33,0
2020-02-08T05:52:00-05:00,82.95,12.19,737.94,-1.82,0.49,71.33,0
2020-02-08T05:53:00-05:00,82.74,12.19,737.54,-1.52,0.52,85.76,0
2020-02-08T05:54:00-05:00,82.99,12.19,737.87,-0.49,0.46,48.33,0
2020-02-08T05:55:00-05:00,83.12,12.2,737.27,-0.64,0.66,61.39,0
2020-02-08T05:56:00-05:00,82.77,12.18,736.67,1.12,0.58,106.91,0
2020-02-08T05:57:00-05:00,82.78,12.2,737.97,-0.2,0.15,109.35,0
2020-02-08T05:58:00-05:00,82.79,12.19,736.37,0.68,0.25,275.71,0
2020-02-08T05:59:00-05:00,83.24,12.18,736.27,0.68,0.31,218.17,0
2020-02-08T06:00:00-05:00,83.46,12.19,737.07,-1.67,0.22,262.7,0
2020-02-08T06:01:00-05:00,83.3,12.18,736.4,-1.38,0.83,58.1,0
2020-02-08T06:02:00-05:00,83.18,12.17,736.37,-0.35,0.57,25.1,0
2020-02-08T06:03:00-05:00,83.05,12.17,737.97,-0.79,0.54,65.69,0
2020-02-08T06:04:00-05:00,83.4,12.15,737.51,-0.94,0.08,342.56,0
2020-02-08T06:05:00-05:00,83.42,12.16,736.4,-1.82,0.24,13.69,0
2020-02-08T06:06:00-05:00,83.25,12.15,737.87,1.27,0.39,36.07,0
2020-02-08T06:07:00-05:00,83.15,12.15,736.74,0.98,0.84,83.6,0
2020-02-08T06:08:00-05:00,82.87,12.15,736.87,0.53,0.57,22.77,0
2020-02-08T06:09:00-05:00,82.89,12.15,737.24,1.86,0.52,31,0
2020-02-08T06:10:00-05:00,83.15,12.17,737.27,1.27,0.4,351.52,0
2020-02-08T06:11:00-05:00,83.38,12.16,736.77,1.42,0.59,39.5,0
2020-02-08T06:12:00-05:00,82.93,12.18,736.64,0.09,0.41,23.06,0
2020-02-08T06:13:00-05:00,82.73,12.17,738.08,2.59,0.66,51.14,0
2020-02-08T06:14:00-05:00,82.79,12.2,737.61,3.18,0.84,63.31,0
2020-02-08T06:15:00-05:00,82.75,12.17,736.6,4.06,0.2,194.96,0
2020-02-08T06:16:00-05:00,83.14,12.2,736.5,4.65,0.79,68.71,0
2020-02-08T06:17:00-05:00,82.39,12.19,737.74,5.39,0.68,61.1,0
2020-02-08T06:18:00-05:00,82.44,12.2,736.74,6.12,1.74,53.35,0
2020-02-08T06:19:00-05:00,82.24,12.22,737.24,7,0.55,63.53,0
2020-02-08T06:20:00-05:00,82.51,12.23,737.44,8.62,0.25,188.38,0
2020-02-08T06:21:00-05:00,83.52,12.24,736.64,8.77,0.17,232.86,0
2020-02-08T06:22:00-05:00,82.77,12.24,738.31,6.86,0.81,78.82,0
2020-02-08T06:23:00-05:00,82.97,12.23,737.87,9.21,0.25,306.53,0
2020-02-08T06:24:00-05:00,83.15,12.22,736.37,10.83,0.24,15.88,0
2020-02-08T06:25:00-05:00,82.78,12.23,738.01,9.65,0.64,348.44,0
2020-02-08T06:26:00-05:00,82.17,12.23,736.7,12,0.56,341.56,0
2020-02-08T06:27:00-05:00,82.61,12.23,737.94,11.41,0.56,5.7,0
2020-02-08T06:28:00-05:00,82.63,12.22,737.57,12.44,0.14,107.27,0
2020-02-08T06:29:00-05:00,82.75,12.23,737.47,15.09,0.45,194.21,0
2020-02-08T06:30:00-05:00,82.97,12.21,736.6,8.62,0.63,200.21,0
2020-02-08T06:31:00-05:00,82.89,12.19,736.97,14.5,0.56,236.77,0
2020-02-08T06:32:00-05:00,83.28,12.18,737.54,15.53,0.2,251.75,0
2020-02-08T06:33:00-05:00,83.29,12.18,738.14,15.09,0.06,329.86,0
2020-02-08T06:34:00-05:00,83.56,12.17,736.74,14.21,0.31,210.9,0
2020-02-08T06:35:00-05:00,83.51,12.19,736.87,12.44,0.39,196.25,0
2020-02-08T06:36:00-05:00,83.69,12.15,738.31,12.59,0.43,207.92,0
2020-02-08T06:37:00-05:00,83.54,12.12,738.21,14.06,0.58,223.21,0
2020-02-08T06:38:00-05:00,83.61,12.09,738.24,14.21,0.5,212.86,0
2020-02-08T06:39:00-05:00,83.73,12.07,738.41,10.97,0.6,200.26,0
2020-02-08T06:40:00-05:00,83.83,12.07,738.24,9.8,0.43,193.92,0
2020-02-08T06:41:00-05:00,84.06,12.05,737.74,10.38,0.33,206.36,0
2020-02-08T06:42:00-05:00,84.09,12.05,737.2,12.3,0.57,118.43,0
2020-02-08T06:43:00-05:00,84.3,12.07,738.31,11.27,0.28,101.91,0
2020-02-08T06:44:00-05:00,84.48,12.09,736.97,13.03,0.15,103.88,0
2020-02-08T06:45:00-05:00,84.75,12.1,736.77,14.06,0.06,243.78,0
2020-02-08T06:46:00-05:00,84.92,12.11,738.18,16.27,0.59,94.3,0
2020-02-08T06:47:00-05:00,84.58,12.13,738.28,17,0.16,84.39,0
2020-02-08T06:48:00-05:00,84.8,12.15,738.04,13.18,0.3,96.22,0
2020-02-08T06:49:00-05:00,84.85,12.15,736.97,11.71,0.27,182.07,0
2020-02-08T06:50:00-05:00,84.35,12.15,738.24,12.59,0.27,218.84,0
2020-02-08T06:51:00-05:00,84.44,12.15,737.14,10.53,0.32,222.95,0
2020-02-08T06:52:00-05:00,84.57,12.16,737.81,9.94,0.41,177.36,0
2020-02-08T06:53:00-05:00,84.74,12.16,737.44,8.91,0.19,197.98,0
2020-02-08T06:54:00-05:00,85.28,12.16,737.44,12.44,0.15,234.16,0
2020-02-08T06:55:00-05:00,85.11,12.17,737.94,10.68,0.4,170.09,0
2020-02-08T06:56:00-05:00,85.59,12.17,737.07,12.3,0.57,206.29,0
2020-02-08T06:57:00-05:00,85.96,12.15,738.01,13.33,0.42,155.32,0
2020-02-08T06:58:00-05:00,86.3,12.15,737.07,13.77,0.56,162.62,0
2020-02-08T06:59:00-05:00,86.45,12.12,737.24,12.59,0.22,255.66,0
2020-02-08T07:00:00-05:00,86.58,12.13,737.14,12.15,0.24,182.4,0
2020-02-08T07:01:00-05:00,86.79,12.13,738.48,13.47,0.43,193.97,0
2020-02-08T07:02:00-05:00,86.84,12.14,737.17,13.33,0.31,203.89,0
2020-02-08T07:03:00-05:00,86.68,12.12,737.31,14.06,0.19,188.28,0
2020-02-08T07:04:00-05:00,86.5,12.12,738.64,15.82,0.48,197.26,0
2020-02-08T07:05:00-05:00,86.56,12.09,738.58,17.88,0.45,179.09,0
2020-02-08T07:06:00-05:00,86.43,12.12,737.2,18.47,0.11,300.63,0
2020-02-08T07:07:00-05:00,85.83,12.11,737.24,17.59,0.46,219.85,0
2020-02-08T07:08:00-05:00,85.63,12.11,738.38,16.56,0.24,192.94,0
2020-02-08T07:09:00-05:00,85.76,12.13,738.71,16.71,0.26,192.94,0
2020-02-08T07:10:00-05:00,85.83,12.13,738.61,15.24,0.31,191.02,0
2020-02-08T07:11:00-05:00,86.03,12.13,738.51,15.68,0.56,211.23,0
2020-02-08T07:12:00-05:00,85,12.11,737.17,17.15,0.55,263.68,0
2020-02-08T07:13:00-05:00,84.16,12.09,737.14,18.03,0.24,248.18,0
2020-02-08T07:14:00-05:00,83.73,12.09,737.44,19.21,0.38,220.81,0
2020-02-08T07:15:00-05:00,83.52,12.08,737.54,20.09,0.19,184.35,0
2020-02-08T07:16:00-05:00,83.75,12.08,738.21,20.53,0.25,212.84,0
2020-02-08T07:17:00-05:00,83.78,12.09,737.27,21.41,0.24,200.31,0
2020-02-08T07:18:00-05:00,84.26,12.09,737.44,22.15,0.24,161.18,0
2020-02-08T07:19:00-05:00,84.08,12.1,738.74,24.2,0.62,154.65,0
2020-02-08T07:20:00-05:00,84.43,12.08,738.74,26.12,0.24,206.91,0
2020-02-08T07:21:00-05:00,84.24,12.07,736.9,29.35,0.58,166.17,0
2020-02-08T07:22:00-05:00,84.29,12.03,738.85,30.53,0.56,164.23,0
2020-02-08T07:23:00-05:00,84.14,12.03,737.61,34.94,0.25,153.26,0
2020-02-08T07:24:00-05:00,84.12,12,738.38,34.94,0.31,163.22,0
2020-02-08T07:25:00-05:00,84.15,12.02,737.81,36.41,0.23,189.03,0
2020-02-08T07:26:00-05:00,84.19,12,737.94,36.7,0.39,136.26,0
2020-02-08T07:27:00-05:00,84.16,12.02,738.31,40.38,0.28,135.64,0
2020-02-08T07:28:00-05:00,84.16,12.02,737.14,45.08,0.43,155.32,0
2020-02-08T07:29:00-05:00,83.98,12.03,738.38,49.93,0.25,156.31,0
2020-02-08T07:30:00-05:00,84,12.01,737.47,54.49,0.26,194.24,0
2020-02-08T07:31:00-05:00,83.96,12.02,738.78,58.76,0.4,228.83,0
2020-02-08T07:32:00-05:00,83.98,12.02,737.34,57.73,0.25,183.34,0
2020-02-08T07:33:00-05:00,84.2,12.04,738.78,60.23,0.26,152.28,0
2020-02-08T07:34:00-05:00,84.15,12.04,738.71,62.28,0.26,173.47,0
2020-02-08T07:35:00-05:00,84.17,12.05,738.08,68.02,0.2,208.93,0
2020-02-08T07:36:00-05:00,84.08,12.05,737.51,73.6,0.48,207.32,0
2020-02-08T07:37:00-05:00,84.2,12.05,737.54,80.81,0.49,233.15,0
2020-02-08T07:38:00-05:00,84.21,12.07,738.64,88.31,0.26,229.12,0
2020-02-08T07:39:00-05:00,84.19,12.07,737.57,95.36,0.24,257.75,0
2020-02-08T07:40:00-05:00,84.17,12.09,738.78,95.66,0.17,202.88,0
2020-02-08T07:41:00-05:00,84.26,12.13,739.11,94.04,0.22,232.81,0
2020-02-08T07:42:00-05:00,84.48,12.16,737.34,93.75,0.18,157.29,0
2020-02-08T07:43:00-05:00,84.29,12.18,737.57,94.48,0.56,143.3,0
2020-02-08T07:44:00-05:00,83.93,12.2,738.08,96.83,0.23,116.92,0
2020-02-08T07:45:00-05:00,84,12.25,737.37,102.42,0.11,162.31,0
2020-02-08T07:46:00-05:00,84.02,12.29,737.94,112.57,0.08,190.04,0
2020-02-08T07:47:00-05:00,84.16,12.33,737.57,131.97,0.2,201.89,0
2020-02-08T07:48:00-05:00,84.41,12.37,738.11,148.29,0.14,231.88,0
2020-02-08T07:49:00-05:00,84.55,12.41,737.31,162.41,0.26,226.11,0
2020-02-08T07:50:00-05:00,84.61,12.45,737.77,166.38,0.21,194.86,0
2020-02-08T07:51:00-05:00,84.39,12.49,738.38,166.67,0.09,152.66,0
2020-02-08T07:52:00-05:00,83.78,12.55,738.78,160.2,0.56,78.96,0
2020-02-08T07:53:00-05:00,82.39,12.58,738.64,149.91,0.37,30.81,0
2020-02-08T07:54:00-05:00,82.05,12.61,738.78,139.03,0.13,11.41,0
2020-02-08T07:55:00-05:00,82.11,12.67,737.41,127.42,0.15,331.83,0
2020-02-08T07:56:00-05:00,82.33,12.74,738.14,120.95,0.53,279.62,0
2020-02-08T07:57:00-05:00,81.88,12.79,738.85,115.8,0.58,276.02,0
2020-02-08T07:58:00-05:00,81.57,12.81,738.61,118.15,0.23,208.93,0
2020-02-08T07:59:00-05:00,81.51,12.84,737.47,282.23,0.22,316.57,0
2020-02-08T08:00:00-05:00,81.71,12.93,737.84,331.19,0.11,151.27,0
2020-02-08T08:01:00-05:00,82.15,13.07,738.98,342.81,0.18,211.88,0
2020-02-08T08:02:00-05:00,81.51,13.26,737.51,347.22,0.23,206.98,0
2020-02-08T08:03:00-05:00,80.03,13.42,738.44,355.45,0.25,145.41,0
2020-02-08T08:04:00-05:00,79.11,13.58,737.47,274.44,0.33,129.78,0
2020-02-08T08:05:00-05:00,78.36,13.74,738.71,191.81,0.26,78,0
2020-02-08T08:06:00-05:00,77.57,13.91,738.58,342.81,0.56,40.08,0
2020-02-08T08:07:00-05:00,77.07,14.08,737.24,114.18,0.56,322.5,0
2020-02-08T08:08:00-05:00,75.36,14.13,739.01,105.66,0.59,64.06,0
2020-02-08T08:09:00-05:00,74.57,14.04,739.01,105.22,0.53,106.74,0
2020-02-08T08:10:00-05:00,75.4,14.03,739.08,111.68,0.21,97.54,0
2020-02-08T08:11:00-05:00,75.5,14.03,739.11,111.83,0.27,324.87,0
2020-02-08T08:12:00-05:00,75.34,13.98,738.64,109.63,0.73,60.84,0
2020-02-08T08:13:00-05:00,75.69,13.92,738.98,115.21,0.56,25.82,0
2020-02-08T08:14:00-05:00,77.08,13.9,738.14,393.23,0.76,34.96,0
2020-02-08T08:15:00-05:00,76.95,13.92,738.34,401.17,0.56,33.28,0
2020-02-08T08:16:00-05:00,76.75,13.96,738.95,403.82,0.71,65.4,0
2020-02-08T08:17:00-05:00,76.28,13.99,738.08,416.76,0.79,55.29,0
2020-02-08T08:18:00-05:00,76.42,14.07,737.44,428.52,0.56,12.71,0
2020-02-08T08:19:00-05:00,76.39,14.21,739.08,436.46,0.58,347.41,0
2020-02-08T08:20:00-05:00,74.62,14.32,738.48,444.84,0.97,47.25,0
2020-02-08T08:21:00-05:00,74.21,14.29,738.18,453.22,0.9,63.48,0
2020-02-08T08:22:00-05:00,74.76,14.26,737.54,459.25,1.41,60.07,0
2020-02-08T08:23:00-05:00,75.34,14.32,737.64,458.95,0.88,52.63,0
2020-02-08T08:24:00-05:00,74.74,14.32,737.44,455.87,1.16,55.51,0
2020-02-08T08:25:00-05:00,74.9,14.32,737.47,457.48,0.99,49.89,0
2020-02-08T08:26:00-05:00,74.09,14.26,737.2,462.19,2.01,62.83,0
2020-02-08T08:27:00-05:00,73.71,14.21,737.91,464.98,1.82,65.88,0
2020-02-08T08:28:00-05:00,74.31,14.22,738.61,481.45,0.65,90.53,0
2020-02-08T08:29:00-05:00,75.04,14.34,737.34,496.74,0.35,79.92,0
2020-02-08T08:30:00-05:00,73.38,14.49,737.24,507.03,1.27,66.05,0
2020-02-08T08:31:00-05:00,72.71,14.54,738.85,511.44,0.69,331.81,0
2020-02-08T08:32:00-05:00,72.68,14.67,737.91,510.85,0.79,354.42,0
2020-02-08T08:33:00-05:00,72.17,14.79,737.14,501.88,0.72,347.48,0
2020-02-08T08:34:00-05:00,70.89,14.92,737.94,490.56,1.33,44.83,0
2020-02-08T08:35:00-05:00,69.35,14.87,737.1,514.23,2.12,54.89,0
2020-02-08T08:36:00-05:00,70.34,14.83,737.17,514.68,0.73,57.84,0
2020-02-08T08:37:00-05:00,71.28,14.93,737.61,519.38,0.99,31.75,0
2020-02-08T08:38:00-05:00,70.29,15.07,738.64,549.23,0.56,34.48,0
2020-02-08T08:39:00-05:00,68.96,15.11,737.31,562.31,1.88,57.91,0
2020-02-08T08:40:00-05:00,70.24,15.16,737.51,554.96,0.35,52.37,0
2020-02-08T08:41:00-05:00,68.59,15.23,738.68,563.34,1.16,49.89,0
2020-02-08T08:42:00-05:00,68.13,15.16,738.68,127.27,1.24,58.97,0
2020-02-08T08:43:00-05:00,69.36,15.07,738.74,135.94,0.58,31.91,0
2020-02-08T08:44:00-05:00,69.84,15.1,738.74,173.87,0.79,1.07,0
2020-02-08T08:45:00-05:00,70.72,15.14,738.85,580.84,0.72,344.72,0
2020-02-08T08:46:00-05:00,70.73,15.29,738.95,572.46,0.33,340.79,0
2020-02-08T08:47:00-05:00,69.41,15.4,738.48,608.92,0.54,90.58,0
2020-02-08T08:48:00-05:00,68.65,15.56,737.87,616.27,0.45,36.26,0
2020-02-08T08:49:00-05:00,68.83,15.79,737.24,628.77,0.59,34.34,0
2020-02-08T08:50:00-05:00,67.66,15.96,738.01,179.76,0.75,70.51,0
2020-02-08T08:51:00-05:00,66.98,16.03,738.88,184.17,0.73,46.56,0
2020-02-08T08:52:00-05:00,66.49,15.97,738.91,647.88,0.73,12.49,0
2020-02-08T08:53:00-05:00,66.4,15.9,737.17,178.87,1.86,30.45,0
2020-02-08T08:54:00-05:00,66.55,15.77,737.27,447.49,1.77,60.36,0
2020-02-08T08:55:00-05:00,65.9,15.55,737.37,618.77,1.34,38.73,0
2020-02-08T08:56:00-05:00,67.26,15.49,737.54,184.02,0.64,2.68,0
2020-02-08T08:57:00-05:00,67.3,15.42,737.31,160.64,0.72,52.82,0
2020-02-08T08:58:00-05:00,67.92,15.31,737.87,179.61,0.47,8.51,0
2020-02-08T08:59:00-05:00,68.61,15.33,738.21,213.72,0.58,57.12,0
2020-02-08T09:00:00-05:00,66.55,15.37,738.85,699.78,0.63,46.63,0
2020-02-08T09:01:00-05:00,66.01,15.39,738.88,719.04,0.74,66.36,0
2020-02-08T09:02:00-05:00,67.41,15.48,738.38,722.86,0.61,5.96,0
2020-02-08T09:03:00-05:00,65.41,15.48,738.88,667.58,1.67,53.42,0
2020-02-08T09:04:00-05:00,65.27,15.39,738.01,653.32,1.23,51.19,0
2020-02-08T09:05:00-05:00,66.86,15.41,738.54,682.72,1.71,19.43,0
2020-02-08T09:06:00-05:00,66.37,15.47,738.54,704.78,0.67,46.6,0
2020-02-08T09:07:00-05:00,66.71,15.53,738.64,708.75,0.91,40.84,0
2020-02-08T09:08:00-05:00,66.07,15.58,738.58,712.86,0.77,84.53,0
2020-02-08T09:09:00-05:00,66.32,15.76,737.37,714.19,0.52,283.61,0
2020-02-08T09:10:00-05:00,66.86,15.96,738.11,722.71,0.15,174.14,0
2020-02-08T09:11:00-05:00,66.17,16.18,737.31,730.95,0.69,285.65,0
2020-02-08T09:12:00-05:00,64.93,16.35,738.51,728.01,0.66,278.66,0
2020-02-08T09:13:00-05:00,63.25,16.39,737.14,582.16,0.67,229.79,0
2020-02-08T09:14:00-05:00,63.21,16.35,738.58,765.94,0.24,307.59,0
2020-02-08T09:15:00-05:00,63.87,16.42,737.31,753.74,0.52,213.94,0
2020-02-08T09:16:00-05:00,64.27,16.51,737.37,766.38,1.04,232.81,0
2020-02-08T09:17:00-05:00,63.92,16.62,738.74,521.44,0.63,171.19,0
2020-02-08T09:18:00-05:00,63.53,16.54,738.51,342.51,1.07,215.29,0
2020-02-08T09:19:00-05:00,63.17,16.4,737.91,475.27,0.5,113.6,0
2020-02-08T09:20:00-05:00,65.99,16.45,738.54,671.84,0.64,227.19,0
2020-02-08T09:21:00-05:00,65.39,16.59,737.27,814.75,0.55,220.76,0
2020-02-08T09:22:00-05:00,65.31,16.76,738.21,770.2,0.6,229.14,0
2020-02-08T09:23:00-05:00,63.33,16.9,739.15,803.28,0.62,259.75,0
2020-02-08T09:24:00-05:00,62.54,17.02,737.61,776.08,0.61,285.94,0
2020-02-08T09:25:00-05:00,62.14,17.08,737.81,359.42,0.52,3.66,0
2020-02-08T09:26:00-05:00,61.32,17.13,738.54,358.54,1.53,67.56,0
2020-02-08T09:27:00-05:00,60.25,16.96,738.14,267.53,1.88,0.8,0
2020-02-08T09:28:00-05:00,61.44,16.75,737.94,281.64,0.67,18.11,0
2020-02-08T09:29:00-05:00,62,16.59,738.85,332.22,2,67.2,0
2020-02-08T09:30:00-05:00,62.42,16.42,738.95,345.75,0.81,15.37,0
2020-02-08T09:31:00-05:00,63.28,16.28,738.95,414.26,0.66,3.68,0
2020-02-08T09:32:00-05:00,64.41,16.34,738.91,877.53,0.86,0.76,0
2020-02-08T09:33:00-05:00,66.29,16.48,737.34,855.33,0.54,276.67,0
2020-02-08T09:34:00-05:00,65.04,16.69,737.17,839.01,0.67,354.42,0
2020-02-08T09:35:00-05:00,62.03,16.84,738.51,545.99,0.48,43.36,0
2020-02-08T09:36:00-05:00,64.04,16.91,738.74,604.51,0.55,228.73,0
2020-02-08T09:37:00-05:00,63.62,17.06,738.68,312.08,0.6,300.99,0
2020-02-08T09:38:00-05:00,64.02,17.17,738.68,284.14,0.37,250.74,0
2020-02-08T09:39:00-05:00,62.96,17.27,738.01,271.2,0.26,256.03,0
2020-02-08T09:40:00-05:00,62.36,17.31,737.61,253.12,0.32,200.89,0
2020-02-08T09:41:00-05:00,61.95,17.29,737.24,229.01,0.65,266.11,0
2020-02-08T09:42:00-05:00,63.27,17.27,737.67,216.66,0.72,218.84,0
2020-02-08T09:43:00-05:00,64.12,17.15,738.81,207.69,0.73,201.22,0
2020-02-08T09:44:00-05:00,63.39,17.04,739.01,206.51,1.26,234.78,0
2020-02-08T09:45:00-05:00,61.52,16.8,737.51,206.96,2.09,189.99,0
2020-02-08T09:46:00-05:00,62.06,16.58,737.47,204.6,0.55,15.73,0
2020-02-08T09:47:00-05:00,62.65,16.47,738.54,198.13,0.58,206,0
2020-02-08T09:48:00-05:00,64.44,16.4,738.44,196.81,0.48,196.95,0
2020-02-08T09:49:00-05:00,65.67,16.36,738.88,198.72,0.82,219.83,0
2020-02-08T09:50:00-05:00,64.69,16.3,738.64,207.4,0.68,222.87,0
2020-02-08T09:51:00-05:00,64.5,16.26,737.2,218.42,0.53,239.8,0
2020-02-08T09:52:00-05:00,64.67,16.2,737.37,235.92,0.53,260.08,0
2020-02-08T09:53:00-05:00,64.57,16.19,737.31,363.68,0.68,191.38,0
2020-02-08T09:54:00-05:00,65.2,16.22,737.31,230.18,1.04,223.26,0
2020-02-08T09:55:00-05:00,63.19,16.16,737.51,216.36,0.87,229.74,0
2020-02-08T09:56:00-05:00,63.88,16.1,737.37,102.72,0.16,196.25,0
2020-02-08T09:57:00-05:00,65.42,16.12,737.51,83.9,0.86,210.87,0
2020-02-08T09:58:00-05:00,65.32,16.06,738.81,276.79,0.59,196.18,0
2020-02-08T09:59:00-05:00,66.05,16.08,738.44,520.56,1.29,216.87,0
2020-02-08T10:00:00-05:00,64.54,16.04,738.61,653.17,0.67,241.17,0
2020-02-08T10:01:00-05:00,67.52,16.12,738.14,697.43,0.62,203.84,0
2020-02-08T10:02:00-05:00,65.81,16.19,738.81,418.37,1.33,233.15,0
2020-02-08T10:03:00-05:00,64.34,16.22,737.41,784.9,0.6,246.71,0
2020-02-08T10:04:00-05:00,64.12,16.32,737.61,870.62,0.57,296.55,0
2020-02-08T10:05:00-05:00,63.98,16.45,738.41,878.56,0.29,351.47,0
2020-02-08T10:06:00-05:00,63.9,16.64,738.11,892.82,0.67,179.14,0
2020-02-08T10:07:00-05:00,62.03,16.7,737.87,882.97,1.11,349.38,0
2020-02-08T10:08:00-05:00,64.54,16.88,737.1,879.88,0.55,21.93,0
2020-02-08T10:09:00-05:00,62.86,17.15,738.54,831.22,0.3,168.17,0
2020-02-08T10:10:00-05:00,62.27,17.45,737.17,739.92,0.26,247.77,0
2020-02-08T10:11:00-05:00,62.38,17.63,738.54,316.93,1.17,203.24,0
2020-02-08T10:12:00-05:00,61.5,17.61,737.2,312.37,1.11,299.64,0
2020-02-08T10:13:00-05:00,60.89,17.56,737.2,296.05,0.58,187.3,0
2020-02-08T10:14:00-05:00,61.5,17.47,738.71,274.14,0.63,208.93,0
2020-02-08T10:15:00-05:00,61.38,17.27,737.31,290.91,0.49,265.07,0
2020-02-08T10:16:00-05:00,60.85,17.13,737.64,281.94,0.85,310.56,0
2020-02-08T10:17:00-05:00,62.9,17.04,737.61,273.26,0.59,247.05,0
2020-02-08T10:18:00-05:00,62.87,17.05,737.04,287.82,0.76,337.5,0
2020-02-08T10:19:00-05:00,61.46,17.09,739.08,315.9,0.66,283.65,0
2020-02-08T10:20:00-05:00,61.46,17.11,737,434.69,0.6,214.86,0
2020-02-08T10:21:00-05:00,61.35,17.15,738.44,897.97,0.89,223.88,0
2020-02-08T10:22:00-05:00,59.63,17.25,737.54,907.82,0.27,128.1,0
2020-02-08T10:23:00-05:00,59.33,17.39,738.34,904.43,0.61,262.65,0
2020-02-08T10:24:00-05:00,59,17.6,738.71,919.73,0.67,302.64,0
2020-02-08T10:25:00-05:00,59.72,17.81,736.87,918.99,0.73,254.63,0
2020-02-08T10:26:00-05:00,57.45,17.89,736.77,905.17,0.82,217.11,0
2020-02-08T10:27:00-05:00,57.39,17.95,736.87,894.88,0.33,207.92,0
2020-02-08T10:28:00-05:00,55.23,18.04,736.9,835.33,0.97,54.21,0
2020-02-08T10:29:00-05:00,54.81,17.87,738.41,764.76,1.33,43.75,0
2020-02-08T10:30:00-05:00,55.32,17.69,738.58,814.46,0.89,57.86,0
2020-02-08T10:31:00-05:00,56.51,17.67,737.67,850.62,0.89,31.19,0
2020-02-08T10:32:00-05:00,58.53,17.78,738.48,876.21,0.66,228.13,0
2020-02-08T10:33:00-05:00,58.95,18.02,738.34,846.51,0.6,287.59,0
2020-02-08T10:34:00-05:00,56.04,18.19,738.14,620.68,0.76,217.21,0
2020-02-08T10:35:00-05:00,56.3,18.26,738.34,335.16,0.57,237.06,0
2020-02-08T10:36:00-05:00,57.13,18.29,737.07,958.98,2.15,242.08,0
2020-02-08T10:37:00-05:00,55,18.19,738.18,952.07,0.99,248.75,0
2020-02-08T10:38:00-05:00,54.17,18.11,736.8,963.98,0.68,121.19,0
2020-02-08T10:39:00-05:00,54.48,18.17,738.21,966.63,0.59,295.56,0
2020-02-08T10:40:00-05:00,55.83,18.31,738.44,950.31,0.87,290.71,0
2020-02-08T10:41:00-05:00,57.3,18.45,737.57,949.28,0.93,202.83,0
2020-02-08T10:42:00-05:00,55.87,18.39,736.84,941.19,1.51,200.84,0
2020-02-08T10:43:00-05:00,54.28,18.25,736.8,945.6,0.63,232.81,0
2020-02-08T10:44:00-05:00,54.27,18.21,736.84,953.69,0.59,326.53,0
2020-02-08T10:45:00-05:00,54.4,18.19,738.11,947.81,1.48,1.74,0
2020-02-08T10:46:00-05:00,57.59,18.25,736.84,951.92,0.55,208.88,0
2020-02-08T10:47:00-05:00,55.3,18.39,737.44,951.04,1.26,249.16,0
2020-02-08T10:48:00-05:00,53.49,18.45,736.74,951.92,0.72,217.83,0
2020-02-08T10:49:00-05:00,53.98,18.45,737.94,986.33,0.85,93.01,0
2020-02-08T10:50:00-05:00,53.6,18.43,737.81,1016.32,1,5.46,0
2020-02-08T10:51:00-05:00,56.66,18.5,737.31,1029.85,0.62,220.21,0
2020-02-08T10:52:00-05:00,57.83,18.72,736.54,1015.29,2.11,232.81,0
2020-02-08T10:53:00-05:00,55.57,18.9,736.43,1010.14,0.9,209.19,0
2020-02-08T10:54:00-05:00,55.59,19.02,737.1,1001.32,1.93,248.75,0
2020-02-08T10:55:00-05:00,53.4,19.04,736.47,1008.23,0.62,275.69,0
2020-02-08T10:56:00-05:00,55.39,19.12,736.27,995.74,0.23,232.81,0
2020-02-08T10:57:00-05:00,57.49,19.36,736.57,993.09,0.66,219.83,0
2020-02-08T10:58:00-05:00,55.92,19.5,737.74,951.19,0.89,261.67,0
2020-02-08T10:59:00-05:00,53.08,19.66,736.37,753.15,0.93,245.77,0
2020-02-08T11:00:00-05:00,53.62,19.72,737.31,747.27,0.63,287.54,0
2020-02-08T11:01:00-05:00,51.81,19.77,736.57,318.99,2.78,337.47,0
2020-02-08T11:02:00-05:00,51.5,19.61,737.91,321.49,1.85,189.03,0
2020-02-08T11:03:00-05:00,53.51,19.41,736.4,254.3,0.83,227.8,0
2020-02-08T11:04:00-05:00,55.05,19.32,736.77,245.03,0.61,199.25,0
2020-02-08T11:05:00-05:00,53.96,19.28,737.97,241.21,0.58,200.93,0
2020-02-08T11:06:00-05:00,52.59,19.06,737.1,230.48,1.59,179.42,0
2020-02-08T11:07:00-05:00,52.17,18.6,738.04,227.69,1.29,179.04,0
2020-02-08T11:08:00-05:00,55.42,18.37,737.31,233.42,0.22,138.5,0
2020-02-08T11:09:00-05:00,54.79,18.26,736.8,243.27,1.02,192.24,0
2020-02-08T11:10:00-05:00,56.99,18.15,737.57,245.92,0.47,55.87,0
2020-02-08T11:11:00-05:00,58.59,18.15,736.37,254.15,0.55,142.34,0
2020-02-08T11:12:00-05:00,55.84,18.16,738.04,280.47,0.63,69.79,0
2020-02-08T11:13:00-05:00,55.48,18.19,737.31,926.93,0.46,122.68,0
2020-02-08T11:14:00-05:00,53.94,18.31,737.27,1008.38,0.74,41.8,0
2020-02-08T11:15:00-05:00,52.75,18.37,737.71,1064.98,0.81,306.51,0
2020-02-08T11:16:00-05:00,53.8,18.54,737.94,1098.21,0.87,349.4,0
2020-02-08T11:17:00-05:00,50.11,18.56,737.94,1092.48,0.21,99.06,0
2020-02-08T11:18:00-05:00,50.17,18.6,736.37,1104.68,0.33,290.69,0
2020-02-08T11:19:00-05:00,50.01,18.7,736.43,1116.59,0.55,49.34,0
2020-02-08T11:20:00-05:00,49.83,18.82,736.37,1131.73,0.52,79.16,0
2020-02-08T11:21:00-05:00,49.45,18.94,737.57,1079.54,1.09,44.76,0
2020-02-08T11:22:00-05:00,49.27,18.94,737.84,961.63,0.21,273.69,0
2020-02-08T11:23:00-05:00,52.29,19.08,737.91,218.72,0.57,205.3,0
2020-02-08T11:24:00-05:00,51.7,19.3,736.4,195.05,0.5,340.45,0
2020-02-08T11:25:00-05:00,50.21,19.41,737.81,180.2,1.38,324.94,0
2020-02-08T11:26:00-05:00,50.54,19.35,737.64,176.96,0.51,206.93,0
2020-02-08T11:27:00-05:00,52.49,19.27,737.17,176.82,0.65,181.32,0
2020-02-08T11:28:00-05:00,51.63,19.14,736.77,183.87,1.85,208.88,0
2020-02-08T11:29:00-05:00,52.28,18.87,737.14,188.87,0.55,193.92,0
2020-02-08T11:30:00-05:00,53.38,18.7,736.54,199.31,0.61,245.7,0
2020-02-08T11:31:00-05:00,54.57,18.6,737.87,216.36,1.16,189,0
2020-02-08T11:32:00-05:00,54.87,18.48,736.3,227.1,0.68,223.81,0
2020-02-08T11:33:00-05:00,56.45,18.43,736.94,230.92,0.14,156.38,0
2020-02-08T11:34:00-05:00,56.64,18.43,736.57,243.56,0.55,85.35,0
2020-02-08T11:35:00-05:00,57.74,18.46,737.31,258.41,1.25,233.82,0
2020-02-08T11:36:00-05:00,56.8,18.42,737.41,281.2,0.95,224.89,0
2020-02-08T11:37:00-05:00,57.6,18.37,736.43,702.57,0.83,189.96,0
2020-02-08T11:38:00-05:00,54.58,18.32,737.71,968.98,0.76,208.28,0
2020-02-08T11:39:00-05:00,56.07,18.37,737.14,558.49,0.73,77.09,0
2020-02-08T11:40:00-05:00,57.18,18.49,736.64,881.79,0.98,293.04,0
2020-02-08T11:41:00-05:00,52.61,18.59,736.3,981.92,0.12,320.5,0
2020-02-08T11:42:00-05:00,54.23,18.72,736.43,976.33,1.12,297.94,0
2020-02-08T11:43:00-05:00,51.03,18.89,736.84,938.84,0.58,179.4,0
2020-02-08T11:44:00-05:00,51.42,18.97,736.97,935.75,0.93,117.95,0
2020-02-08T11:45:00-05:00,51.32,18.92,737.2,928.84,1.86,136.26,0
2020-02-08T11:46:00-05:00,51.6,18.83,737.1,918.4,0.87,101.72,0
2020-02-08T11:47:00-05:00,55.01,18.96,737.91,1031.32,0.52,235.79,0
2020-02-08T11:48:00-05:00,55.88,19.26,737.91,1102.92,0.73,304.56,0
2020-02-08T11:49:00-05:00,53.8,19.6,737.1,1097.33,0.85,298.66,0
2020-02-08T11:50:00-05:00,52.32,19.84,737.07,523.64,0.62,245.75,0
2020-02-08T11:51:00-05:00,52.39,19.99,737.1,454.54,1.75,291.65,0
2020-02-08T11:52:00-05:00,51.3,20.11,737.41,380,1.68,306.51,0
2020-02-08T11:53:00-05:00,49.43,20.06,736.43,347.36,2.06,3.71,0
2020-02-08T11:54:00-05:00,50.82,19.99,736.74,321.93,0.93,228.76,0
2020-02-08T11:55:00-05:00,50.7,19.79,735.9,319.58,2.18,297.89,0
2020-02-08T11:56:00-05:00,51.35,19.62,737.2,333.98,2.73,49.56,0
2020-02-08T11:57:00-05:00,52.67,19.45,737.31,341.19,0.52,272.97,0
2020-02-08T11:58:00-05:00,54.34,19.44,736.94,1139.82,0.74,170.09,0
2020-02-08T11:59:00-05:00,53.68,19.49,736.64,1148.79,0.58,163.68,0
2020-02-08T12:00:00-05:00,55.27,19.62,736.33,1126.73,0.91,312.53,0
2020-02-08T12:01:00-05:00,51.44,19.8,737.71,1151.29,0.64,271.03,0
2020-02-08T12:02:00-05:00,52.01,19.89,737.61,1022.64,2.32,236.75,0
2020-02-08T12:03:00-05:00,51.42,19.86,737.64,1076.75,0.59,241.84,0
2020-02-08T12:04:00-05:00,53.21,20.03,736.13,1116.88,0.52,207.94,0
2020-02-08T12:05:00-05:00,53.6,20.26,736.7,1076.01,0.88,204.97,0
2020-02-08T12:06:00-05:00,52.04,20.51,736.37,289.73,0.56,251.7,0
2020-02-08T12:07:00-05:00,50.71,20.57,735.87,245.62,0.85,213.94,0
2020-02-08T12:08:00-05:00,51.24,20.49,737.54,257.38,0.83,187.99,0
2020-02-08T12:09:00-05:00,53.48,20.36,736,269.88,0.63,199.97,0
2020-02-08T12:10:00-05:00,52.36,20.26,737.61,295.32,0.56,182.07,0
2020-02-08T12:11:00-05:00,51.99,20.16,736.57,650.08,0.55,186.94,0
2020-02-08T12:12:00-05:00,52.51,20,737.67,418.96,1.49,199.35,0
2020-02-08T12:13:00-05:00,53.25,19.8,736,1113.5,0.84,198.92,0
2020-02-08T12:14:00-05:00,54.91,19.73,737.67,1109.24,0.8,200.29,0
2020-02-08T12:15:00-05:00,56.09,19.9,736.17,656.11,0.72,193.92,0
2020-02-08T12:16:00-05:00,53.57,20.08,737.54,493.65,2.17,220.19,0
2020-02-08T12:17:00-05:00,53.54,20.09,736.87,408.97,1.03,189.29,0
2020-02-08T12:18:00-05:00,54.27,20.08,737.47,326.34,2.07,216.25,0
2020-02-08T12:19:00-05:00,54.66,19.91,736.27,313.84,0.71,213.9,0
2020-02-08T12:20:00-05:00,55.35,19.88,737.47,327.07,0.57,207.01,0
2020-02-08T12:21:00-05:00,55.78,19.82,735.9,269.88,1.03,216.87,0
2020-02-08T12:22:00-05:00,55.78,19.72,737.47,249.45,1.32,197.98,0
2020-02-08T12:23:00-05:00,54.91,19.46,736.64,278.41,1.14,237.76,0
2020-02-08T12:24:00-05:00,56.8,19.32,737.44,365.3,0.87,161.23,0
2020-02-08T12:25:00-05:00,56.88,19.28,736,785.64,0.81,60.58,0
2020-02-08T12:26:00-05:00,57.08,19.26,737.51,329.28,0.57,156.28,0
2020-02-08T12:27:00-05:00,56.54,19.28,736.37,261.94,1.2,212.86,0
2020-02-08T12:28:00-05:00,58,19.18,737.51,208.57,1.02,183.03,0
2020-02-08T12:29:00-05:00,58.26,19.14,737.2,182.99,0.72,205.33,0
2020-02-08T12:30:00-05:00,59.2,18.98,735.93,202.99,1.06,176.04,0
2020-02-08T12:31:00-05:00,60.82,18.86,737.71,203.87,0.6,227.17,0
2020-02-08T12:32:00-05:00,61.03,18.77,737.34,205.49,0.56,216.87,0
2020-02-08T12:33:00-05:00,61.95,18.73,736.47,202.99,0.6,296.93,0
2020-02-08T12:34:00-05:00,60.83,18.66,735.83,194.46,0.83,191,0
2020-02-08T12:35:00-05:00,61.9,18.5,737.34,193.28,0.72,203.26,0
2020-02-08T12:36:00-05:00,61.8,18.38,737.51,201.81,0.53,214.9,0
2020-02-08T12:37:00-05:00,61.56,18.23,737.51,204.31,0.62,228.11,0
2020-02-08T12:38:00-05:00,62.15,18.15,735.9,204.31,1.07,196.97,0
2020-02-08T12:39:00-05:00,62.71,18.05,736.54,202.99,1.37,235.84,0
2020-02-08T12:40:00-05:00,63.37,17.99,737.34,199.75,2.17,167.04,0
2020-02-08T12:41:00-05:00,62.79,17.9,735.77,199.6,2.37,193.9,0
2020-02-08T12:42:00-05:00,62.96,17.77,736.43,209.9,0.68,194.91,0
2020-02-08T12:43:00-05:00,64.29,17.72,737.64,237.83,0.28,307.61,0
2020-02-08T12:44:00-05:00,64.1,17.72,736.7,317.66,0.68,190.01,0
2020-02-08T12:45:00-05:00,62.85,17.7,736.87,426.76,0.63,145.96,0
2020-02-08T12:46:00-05:00,63.45,17.71,737.51,1018.97,1.14,227.8,0
2020-02-08T12:47:00-05:00,61.89,17.78,735.83,1128.35,0.21,101.53,0
2020-02-08T12:48:00-05:00,61.88,17.98,737.57,1122.47,0.55,2.08,0
2020-02-08T12:49:00-05:00,60.02,18.12,737.41,1081.3,2.15,189.03,0
2020-02-08T12:50:00-05:00,60.54,18.26,737.2,321.93,0.85,278.06,0
2020-02-08T12:51:00-05:00,61.58,18.35,736.23,306.78,1.58,320.79,0
2020-02-08T12:52:00-05:00,60.71,18.52,735.63,315.02,0.64,179.5,0
2020-02-08T12:53:00-05:00,58.52,18.62,735.77,280.32,1.52,232.86,0
2020-02-08T12:54:00-05:00,58.86,18.61,735.83,245.92,0.74,115.6,0
2020-02-08T12:55:00-05:00,58.11,18.59,736.54,226.95,0.55,240.78,0
2020-02-08T12:56:00-05:00,57.62,18.62,735.63,214.6,0.28,149.37,0
2020-02-08T12:57:00-05:00,58.38,18.65,737.1,224.6,0.18,170.16,0
2020-02-08T12:58:00-05:00,56.72,18.7,737.27,222.83,0.57,38.35,0
2020-02-08T12:59:00-05:00,56.95,18.64,735.6,218.72,0.13,58.92,0
2020-02-08T13:00:00-05:00,57.79,18.52,737.17,208.28,1.35,196.97,0
2020-02-08T13:01:00-05:00,60.58,18.4,736.94,190.19,0.44,281.71,0
2020-02-08T13:02:00-05:00,59.99,18.41,736.4,168.58,0.55,164.21,0
2020-02-08T13:03:00-05:00,60.22,18.4,736.64,149.76,0.57,184.01,0
2020-02-08T13:04:00-05:00,58.52,18.37,735.97,130.36,0.62,189.99,0
2020-02-08T13:05:00-05:00,59.21,18.35,735.56,126.39,1.09,190.35,0
2020-02-08T13:06:00-05:00,59.72,18.25,736.33,126.68,0.99,227.82,0
2020-02-08T13:07:00-05:00,60.19,18.15,737.24,143,0.91,205.35,0
2020-02-08T13:08:00-05:00,60.65,18.07,736.97,165.05,0.83,155.32,0
2020-02-08T13:09:00-05:00,61.11,18.01,736.5,188.72,1.6,198.36,0
2020-02-08T13:10:00-05:00,62.65,17.95,737.1,197.25,1.01,214.88,0
2020-02-08T13:11:00-05:00,62.21,17.88,735.5,183.14,2.71,192.29,0
2020-02-08T13:12:00-05:00,62.16,17.81,735.36,160.94,0.61,213.92,0
2020-02-08T13:13:00-05:00,61.46,17.75,737,137.56,1.02,204.17,0
2020-02-08T13:14:00-05:00,64.27,17.69,736.1,129.77,0.87,211.86,0
2020-02-08T13:15:00-05:00,63.19,17.65,736.77,131.83,0.75,211.88,0
2020-02-08T13:16:00-05:00,63.68,17.67,735.97,135.5,0.6,189.03,0
2020-02-08T13:17:00-05:00,63.75,17.61,737,135.5,0.56,181.08,0
2020-02-08T13:18:00-05:00,63.41,17.58,736.77,136.09,0.72,186.94,0
2020-02-08T13:19:00-05:00,64.6,17.55,737.2,148.59,0.58,200.96,0
2020-02-08T13:20:00-05:00,63.24,17.55,736.27,153.14,0.8,225.85,0
2020-02-08T13:21:00-05:00,62.75,17.55,736.74,136.53,1.25,248.8,0
2020-02-08T13:22:00-05:00,62.49,17.51,737.24,111.54,1.7,218.87,0
2020-02-08T13:23:00-05:00,62.59,17.5,737.1,96.98,0.81,198,0
2020-02-08T13:24:00-05:00,63.99,17.45,735.3,94.48,0.79,224.27,0
2020-02-08T13:25:00-05:00,64.34,17.39,736.3,95.81,0.82,212.14,0
2020-02-08T13:26:00-05:00,65.24,17.33,737,102.57,0.87,172.46,0
2020-02-08T13:27:00-05:00,64.9,17.2,735.46,112.27,0.95,189.99,0
2020-02-08T13:28:00-05:00,66.59,17.09,735.36,125.06,0.89,206.33,0
2020-02-08T13:29:00-05:00,67.4,16.99,736.97,141.82,1.27,242.82,0
2020-02-08T13:30:00-05:00,70.93,16.96,735.83,170.35,0.71,226.21,0
2020-02-08T13:31:00-05:00,70.41,16.93,736.54,206.07,0.57,189,0
2020-02-08T13:32:00-05:00,70.84,16.88,736.77,237.98,1.2,194.19,0
2020-02-08T13:33:00-05:00,73.81,16.84,736.84,252.24,0.58,225.85,0
2020-02-08T13:34:00-05:00,69.98,16.8,737.04,233.71,2.32,186.91,0
2020-02-08T13:35:00-05:00,72.71,16.8,736.17,205.34,0.14,262.65,0
2020-02-08T13:36:00-05:00,72.7,16.82,735.4,182.84,0.74,188.02,0
2020-02-08T13:37:00-05:00,72.49,16.8,735.46,170.49,0.61,190.97,0
2020-02-08T13:38:00-05:00,74.47,16.76,736.9,166.67,1.14,225.85,0
2020-02-08T13:39:00-05:00,72.91,16.67,736.84,156.82,1.4,207.94,0
2020-02-08T13:40:00-05:00,69.74,16.53,735.36,146.23,0.13,134.2,0.1
2020-02-08T13:41:00-05:00,72.31,16.46,735.3,149.03,0.68,175.1,0
2020-02-08T13:42:00-05:00,75.82,16.36,735.6,149.47,0.56,180.1,0
2020-02-08T13:43:00-05:00,75.07,16.23,735.4,145.06,0.63,164.52,0
2020-02-08T13:44:00-05:00,76.26,16.13,735.97,136.24,0.35,258.76,0
2020-02-08T13:45:00-05:00,77.76,16.06,735.4,135.06,0.72,215.26,0
2020-02-08T13:46:00-05:00,76.51,15.96,735.2,131.68,1,181.08,0
2020-02-08T13:47:00-05:00,77.83,15.86,736.8,129.03,0.59,237.04,0
2020-02-08T13:48:00-05:00,78.13,15.8,735.53,136.97,1.08,208.95,0
2020-02-08T13:49:00-05:00,76.38,15.71,736.64,144.62,0.7,195.27,0
2020-02-08T13:50:00-05:00,79.13,15.74,737.14,145.5,0.91,173.09,0
2020-02-08T13:51:00-05:00,78.61,15.71,736.7,146.09,0.8,166.46,0.1
2020-02-08T13:52:00-05:00,78.34,15.67,735.06,145.21,0.58,160.22,0
2020-02-08T13:53:00-05:00,78.88,15.63,735.36,138.74,0.24,54.48,0
2020-02-08T13:54:00-05:00,81.93,15.68,736.64,128.3,0.58,83.6,0
2020-02-08T13:55:00-05:00,83.3,15.66,735.26,119.33,0.7,95.31,0.1
2020-02-08T13:56:00-05:00,83.94,15.65,735.3,110.95,0.33,210.87,0
2020-02-08T13:57:00-05:00,85.63,15.66,734.93,104.77,0.58,141.33,0
2020-02-08T13:58:00-05:00,85.35,15.65,735.1,98.75,0.74,135.86,0
2020-02-08T13:59:00-05:00,84.24,15.62,736.33,90.66,0.26,39.98,0
2020-02-08T14:00:00-05:00,85.28,15.6,735.7,94.34,0.56,148.34,0
2020-02-08T14:01:00-05:00,84.93,15.59,735.06,97.86,0.43,254.7,0
2020-02-08T14:02:00-05:00,82.62,15.53,736.54,101.69,0.55,194.21,0
2020-02-08T14:03:00-05:00,81.04,15.44,735.2,107.13,0.7,173.09,0
2020-02-08T14:04:00-05:00,82.53,15.37,735.16,108.45,0.69,104.82,0
2020-02-08T14:05:00-05:00,82.69,15.35,735.2,113.3,0.81,160.17,0
2020-02-08T14:06:00-05:00,83.55,15.27,734.79,121.24,0.67,114.25,0
2020-02-08T14:07:00-05:00,83.71,15.25,735.2,127.12,2.87,83.09,0
2020-02-08T14:08:00-05:00,84.03,15.24,736.6,135.8,0.67,162.6,0
2020-02-08T14:09:00-05:00,84.39,15.21,736.23,154.17,0.81,180.1,0
2020-02-08T14:10:00-05:00,84.96,15.19,736.6,168.29,0.61,154.6,0
2020-02-08T14:11:00-05:00,86.02,15.19,735.2,181.23,0.69,187.99,0
2020-02-08T14:12:00-05:00,85.77,15.17,736.64,186.96,0.83,165.19,0
2020-02-08T14:13:00-05:00,82.1,15.15,735.7,182.26,0.81,193.9,0
2020-02-08T14:14:00-05:00,83.19,15.2,736.57,166.96,0.57,191.93,0
2020-02-08T14:15:00-05:00,81.48,15.24,734.93,155.64,0.85,206.96,0
2020-02-08T14:16:00-05:00,78.76,15.25,736.6,147.85,0.56,164.23,0
2020-02-08T14:17:00-05:00,79.71,15.33,736,138.74,0.61,111.99,0
2020-02-08T14:18:00-05:00,80.57,15.43,734.93,130.36,0.84,292.66,0
2020-02-08T14:19:00-05:00,79.88,15.55,736.2,127.42,1.53,61.22,0
2020-02-08T14:20:00-05:00,78.78,15.67,736.67,124.33,0.55,185.02,0
2020-02-08T14:21:00-05:00,76.38,15.76,735.6,119.18,0.36,7.21,0
2020-02-08T14:22:00-05:00,76.48,15.78,735.06,117.56,1.1,28.14,0
2020-02-08T14:23:00-05:00,74.36,15.81,736,121.24,1.64,180.41,0
2020-02-08T14:24:00-05:00,79.04,15.88,735.2,120.65,0.72,190.97,0
2020-02-08T14:25:00-05:00,76,15.83,734.83,114.48,1.37,188.4,0
2020-02-08T14:26:00-05:00,74.45,15.82,736.37,101.1,1.03,186.91,0
2020-02-08T14:27:00-05:00,75.38,15.81,736.37,92.57,0.92,192.29,0
2020-02-08T14:28:00-05:00,74.96,15.78,735.87,89.78,1.01,231.85,0
2020-02-08T14:29:00-05:00,75.22,15.78,736.3,88.16,1.26,186.19,0
2020-02-08T14:30:00-05:00,71.79,15.78,736.17,93.6,0.59,136.96,0
2020-02-08T14:31:00-05:00,75.44,15.82,735.03,94.63,0.58,203.93,0
2020-02-08T14:32:00-05:00,75.97,15.8,735.4,100.66,0.86,187.25,0
2020-02-08T14:33:00-05:00,75.4,15.79,736.4,101.39,0.6,187.27,0
2020-02-08T14:34:00-05:00,71.63,15.76,735.63,95.66,1.21,136.26,0
2020-02-08T14:35:00-05:00,72.83,15.81,736.4,93.75,0.85,167.11,0
2020-02-08T14:36:00-05:00,76.84,15.85,735.77,89.34,0.72,191.93,0
2020-02-08T14:37:00-05:00,76.77,15.82,736.23,88.31,0.83,221.89,0
2020-02-08T14:38:00-05:00,77.4,15.77,734.73,92.13,0.7,168.12,0
2020-02-08T14:39:00-05:00,74.79,15.76,736.1,94.04,0.99,210.9,0
2020-02-08T14:40:00-05:00,75.69,15.78,736.1,99.48,0.91,210.27,0
2020-02-08T14:41:00-05:00,74,15.82,734.9,109.63,0.54,261.09,0
2020-02-08T14:42:00-05:00,74.86,15.83,734.63,131.38,0.66,214.3,0
2020-02-08T14:43:00-05:00,74.79,15.86,735,153,0.86,212.14,0
2020-02-08T14:44:00-05:00,73.53,15.89,734.69,164.61,1.88,218.22,0
2020-02-08T14:45:00-05:00,75.49,15.92,735.83,171.67,0.71,220.81,0
2020-02-08T14:46:00-05:00,73.64,15.94,736.13,173.87,0.65,172.49,0
2020-02-08T14:47:00-05:00,74.84,15.98,735.93,186.52,0.82,201.89,0
2020-02-08T14:48:00-05:00,72.64,16.04,736.2,214.16,0.62,185.26,0
2020-02-08T14:49:00-05:00,73.47,16.08,735.06,238.57,0.81,221.87,0
2020-02-08T14:50:00-05:00,74.82,16.16,736.17,235.33,0.31,168.12,0
2020-02-08T14:51:00-05:00,74.98,16.22,734.53,236.36,0.5,149.35,0
2020-02-08T14:52:00-05:00,72.9,16.3,735.6,245.92,0.62,218.84,0
2020-02-08T14:53:00-05:00,70.3,16.36,735.03,252.83,0.56,198.96,0
2020-02-08T14:54:00-05:00,69.09,16.43,734.79,256.06,0.64,237.73,0
2020-02-08T14:55:00-05:00,71.11,16.53,735.63,255.18,0.87,132.54,0
2020-02-08T14:56:00-05:00,72.72,16.62,734.56,249.89,0.69,201.94,0
2020-02-08T14:57:00-05:00,70.13,16.68,736.4,262.09,0.75,246.76,0
2020-02-08T14:58:00-05:00,71.17,16.74,734.66,277.67,1.07,190.97,0
2020-02-08T14:59:00-05:00,70.3,16.8,736.23,282.97,1.4,217.18,0
2020-02-08T15:00:00-05:00,70.73,16.85,735.56,280.03,0.64,213.94,0
2020-02-08T15:01:00-05:00,68.7,16.92,735.73,276.64,0.7,206.31,0
2020-02-08T15:02:00-05:00,67.84,16.98,735.97,260.91,0.84,211.88,0
2020-02-08T15:03:00-05:00,69.84,17.04,735.46,257.24,0.86,263.06,0
2020-02-08T15:04:00-05:00,65.72,17.1,734.66,260.62,0.5,136.26,0
2020-02-08T15:05:00-05:00,67.72,17.18,736.07,264.59,0.62,168.48,0
2020-02-08T15:06:00-05:00,72.07,17.26,734.56,259.15,0.55,204.99,0
2020-02-08T15:07:00-05:00,66.67,17.28,734.56,235.04,1.3,239.85,0
2020-02-08T15:08:00-05:00,63.28,17.3,735.97,180.34,0.59,238.86,0
2020-02-08T15:09:00-05:00,63.33,17.33,736.27,150.2,0.56,206.96,0
2020-02-08T15:10:00-05:00,63.88,17.34,735.1,131.83,0.58,198,0
2020-02-08T15:11:00-05:00,66.17,17.39,734.46,121.24,0.95,283.65,0
2020-02-08T15:12:00-05:00,64.62,17.37,735.6,108.01,1.07,216.85,0
2020-02-08T15:13:00-05:00,65.06,17.33,735.73,103.45,0.46,26.92,0
2020-02-08T15:14:00-05:00,65.31,17.35,736.13,99.92,0.99,173.38,0
2020-02-08T15:15:00-05:00,65.45,17.3,734.56,102.57,0.62,111.61,0
2020-02-08T15:16:00-05:00,67.69,17.3,735.2,104.77,0.77,282.09,0
2020-02-08T15:17:00-05:00,68.4,17.28,736.23,109.33,0.59,127.24,0
2020-02-08T15:18:00-05:00,68.99,17.22,734.39,112.57,0.61,213.25,0
2020-02-08T15:19:00-05:00,68.37,17.12,735.87,110.65,0.61,346.4,0
2020-02-08T15:20:00-05:00,67.91,17.08,736.1,112.27,1.68,143.63,0
2020-02-08T15:21:00-05:00,68.8,17.06,735.97,116.83,0.56,29.23,0
2020-02-08T15:22:00-05:00,69.49,17.05,735.87,114.77,0.64,268.1,0
2020-02-08T15:23:00-05:00,68.28,17.03,735.9,110.95,0.44,78.94,0
2020-02-08T15:24:00-05:00,68.35,17,735.26,104.48,0.84,145.63,0
2020-02-08T15:25:00-05:00,68.89,16.93,734.86,96.39,1.25,192.94,0
2020-02-08T15:26:00-05:00,67.2,16.89,734.63,93.01,1.78,180.07,0
2020-02-08T15:27:00-05:00,68.06,16.86,735.06,86.1,0.46,234.85,0
2020-02-08T15:28:00-05:00,67.2,16.83,735.83,84.93,0.58,39.36,0
2020-02-08T15:29:00-05:00,67.01,16.85,734.93,85.22,0.59,213.94,0
2020-02-08T15:30:00-05:00,66.99,16.86,736.17,80.96,0.27,221.84,0
2020-02-08T15:31:00-05:00,68.09,16.84,735.2,75.37,1.1,87.1,0
2020-02-08T15:32:00-05:00,68.23,16.79,734.53,67.14,0.57,189.99,0
2020-02-08T15:33:00-05:00,70.26,16.72,735.13,58.17,0.56,267.74,0
2020-02-08T15:34:00-05:00,69.82,16.64,734.73,52.87,0.63,191,0
2020-02-08T15:35:00-05:00,70.44,16.55,734.53,47.73,0.59,197.36,0
2020-02-08T15:36:00-05:00,70.68,16.51,735.97,45.96,0.65,175.06,0
2020-02-08T15:37:00-05:00,70.72,16.42,735.97,47.73,0.79,255.04,0
2020-02-08T15:38:00-05:00,69.95,16.38,735,49.35,0.6,186.03,0
2020-02-08T15:39:00-05:00,71.79,16.32,735.43,53.17,1.38,222.3,0
2020-02-08T15:40:00-05:00,71.83,16.26,736.27,53.02,0.53,253.7,0
2020-02-08T15:41:00-05:00,72.1,16.23,735.56,51.85,0.31,197.31,0
2020-02-08T15:42:00-05:00,74.13,16.22,735.8,53.76,0.76,271.68,0
2020-02-08T15:43:00-05:00,72.98,16.16,735.5,53.9,0.63,164.47,0
2020-02-08T15:44:00-05:00,74.03,16.16,736.03,56.11,0.58,218.82,0
2020-02-08T15:45:00-05:00,74.59,16.13,734.76,59.64,0.46,141.88,0
2020-02-08T15:46:00-05:00,73.85,16.12,734.39,59.64,1.61,139.43,0
2020-02-08T15:47:00-05:00,73.65,16.09,735.7,63.75,0.7,213.94,0
2020-02-08T15:48:00-05:00,74.02,16.06,736.2,66.4,0.69,214.26,0
2020-02-08T15:49:00-05:00,74.17,16.04,735.26,69.93,0.56,195.15,0
2020-02-08T15:50:00-05:00,76.56,16.08,735.2,75.08,0.06,123.9,0
2020-02-08T15:51:00-05:00,75.6,16.04,735.83,78.46,0.46,157.27,0.1
2020-02-08T15:52:00-05:00,75.02,16.01,736,80.96,0.7,188.07,0
2020-02-08T15:53:00-05:00,77.41,15.98,736.2,82.43,0.55,203.89,0
2020-02-08T15:54:00-05:00,77.49,15.94,735.46,79.34,0.39,131.58,0
2020-02-08T15:55:00-05:00,77.96,15.92,734.56,76.84,0.56,151.27,0
2020-02-08T15:56:00-05:00,79.09,15.88,735.3,69.49,0.73,227.17,0
2020-02-08T15:57:00-05:00,79.75,15.84,735.3,68.9,0.54,169.15,0
2020-02-08T15:58:00-05:00,80.1,15.79,734.76,65.37,0.58,201.29,0
2020-02-08T15:59:00-05:00,81.4,15.74,734.66,65.96,0.69,78.82,0
2020-02-08T16:00:00-05:00,83.02,15.69,735.63,71.55,0.59,56.28,0
2020-02-08T16:01:00-05:00,82.43,15.63,734.73,73.16,0.7,153.26,0
2020-02-08T16:02:00-05:00,80.75,15.51,735.26,75.08,0.68,138.64,0
2020-02-08T16:03:00-05:00,82.47,15.53,735.9,76.55,0.54,59.16,0
2020-02-08T16:04:00-05:00,81.76,15.49,734.93,76.69,0.35,268.75,0
2020-02-08T16:05:00-05:00,81.34,15.47,736.43,75.52,0.79,93.2,0
2020-02-08T16:06:00-05:00,82.01,15.47,734.93,74.78,0.41,178.01,0
2020-02-08T16:07:00-05:00,81.91,15.44,736.54,75.52,0.37,185.95,0
2020-02-08T16:08:00-05:00,82.31,15.38,736,68.02,0.87,61.42,0
2020-02-08T16:09:00-05:00,82.76,15.39,736.03,56.55,0.39,328.5,0
2020-02-08T16:10:00-05:00,80.48,15.35,735.56,46.41,0.56,57.12,0
2020-02-08T16:11:00-05:00,77.79,15.35,734.66,42.29,0.73,91.33,0.1
2020-02-08T16:12:00-05:00,75.1,15.38,736.03,37.73,0.56,272.66,0
2020-02-08T16:13:00-05:00,77.9,15.44,736.03,33.32,0.57,78.05,0
2020-02-08T16:14:00-05:00,79.29,15.45,736.1,32,0.9,111.39,0
2020-02-08T16:15:00-05:00,77.11,15.43,734.96,28.17,1.01,90.13,0
2020-02-08T16:16:00-05:00,79.86,15.43,735.43,29.06,0.33,295.59,0
2020-02-08T16:17:00-05:00,77.08,15.42,734.46,27,0.69,66.96,0
2020-02-08T16:18:00-05:00,78.71,15.41,736.23,24.5,0.36,119.65,0
2020-02-08T16:19:00-05:00,79.35,15.41,734.79,19.94,0.65,75.67,0
2020-02-08T16:20:00-05:00,76.97,15.39,736.23,13.33,2.22,37.87,0
2020-02-08T16:21:00-05:00,78,15.47,734.9,9.21,3.01,48.55,0
2020-02-08T16:22:00-05:00,77.19,15.45,735.03,9.36,0.84,45.98,0
2020-02-08T16:23:00-05:00,78.27,15.29,734.73,9.36,3.02,66.89,0
2020-02-08T16:24:00-05:00,80.36,14.98,735.77,8.77,2.53,44.01,0.1
2020-02-08T16:25:00-05:00,83.06,14.74,735.67,10.97,1.46,13,0.2
2020-02-08T16:26:00-05:00,83.05,14.48,735.16,14.06,3.87,20.32,0.5
2020-02-08T16:27:00-05:00,83.13,14.2,735.06,10.53,3.3,0.8,0.5
2020-02-08T16:28:00-05:00,85.29,13.96,736.43,9.21,3.3,8.22,0.5
2020-02-08T16:29:00-05:00,86.6,13.76,735,10.68,3.18,13.31,1.1
2020-02-08T16:30:00-05:00,87.57,13.5,735.8,9.5,0.69,345.52,1.4
2020-02-08T16:31:00-05:00,89.01,13.3,736.97,10.68,3.24,52.53,0.4
2020-02-08T16:32:00-05:00,90.51,13.2,736.1,12.74,2.48,35.68,0.2
2020-02-08T16:33:00-05:00,91.04,13.1,736.9,11.56,0.77,18.21,0.2
2020-02-08T16:34:00-05:00,91.59,13.01,736.3,9.8,2.16,269.04,0.3
2020-02-08T16:35:00-05:00,91.9,12.87,736.13,8.91,0.75,19.12,0.5
2020-02-08T16:36:00-05:00,92.79,12.82,737.07,10.97,2.88,71.79,0.3
2020-02-08T16:37:00-05:00,93.04,12.79,735.67,9.94,0.77,354.47,0.2
2020-02-08T16:38:00-05:00,93.47,12.77,736.07,7.15,0.88,66.34,0.2
2020-02-08T16:39:00-05:00,93.41,12.73,735.7,7.74,1.44,92.05,0.2
2020-02-08T16:40:00-05:00,93.62,12.72,735.7,6.71,1.33,62.45,0.2
2020-02-08T16:41:00-05:00,93.73,12.7,735.93,8.03,2.2,53.78,0.3
2020-02-08T16:42:00-05:00,93.69,12.67,735.2,8.03,3.41,70.35,0.2
2020-02-08T16:43:00-05:00,93.31,12.64,735.77,6.71,1.65,43.99,0.2
2020-02-08T16:44:00-05:00,93.33,12.65,736.57,7.3,2.15,67.25,0.1
2020-02-08T16:45:00-05:00,93.34,12.6,735.36,8.47,1.38,14.27,0.1
2020-02-08T16:46:00-05:00,93.63,12.6,736.33,6.42,1.15,47.23,0.2
2020-02-08T16:47:00-05:00,93.89,12.59,736.27,6.42,0.62,295.68,0.2
2020-02-08T16:48:00-05:00,93.95,12.57,736.6,7,0.82,143.3,0.2
2020-02-08T16:49:00-05:00,93.97,12.53,735.5,7.44,1.43,78.84,0.1
2020-02-08T16:50:00-05:00,94.01,12.52,735.16,9.21,1.56,80.19,0.2
2020-02-08T16:51:00-05:00,93.69,12.47,735.2,9.06,1.06,11.22,0.2
2020-02-08T16:52:00-05:00,93.43,12.43,734.86,7.44,2.37,88.61,0.1
2020-02-08T16:53:00-05:00,93.17,12.37,736.33,7.74,3.55,68.57,0.2
2020-02-08T16:54:00-05:00,92.36,12.35,735.53,8.91,4.77,72.05,0.2
2020-02-08T16:55:00-05:00,91.73,12.36,735,8.77,2.31,48.69,0.1
2020-02-08T16:56:00-05:00,89.86,12.38,734.79,9.36,4.35,75.99,0.1
2020-02-08T16:57:00-05:00,89.26,12.46,735.03,8.18,0.65,349.72,0.1
2020-02-08T16:58:00-05:00,90.08,12.45,736.3,5.97,0.39,119.63,0.1
2020-02-08T16:59:00-05:00,90.09,12.43,734.93,6.56,1.08,5.8,0.1
2020-02-08T17:00:00-05:00,90.63,12.42,734.79,5.97,1.03,78.36,0
2020-02-08T17:01:00-05:00,91.11,12.39,735.73,6.27,2.18,73.95,0.1
2020-02-08T17:02:00-05:00,91.58,12.36,735.63,7,2.65,25.65,0.1
2020-02-08T17:03:00-05:00,91.48,12.33,736.5,5.97,1.8,69.79,0
2020-02-08T17:04:00-05:00,91.98,12.29,736.23,7.15,0.54,286.61,0.1
2020-02-08T17:05:00-05:00,92.02,12.29,736.54,6.42,0.22,184.03,0.1
2020-02-08T17:06:00-05:00,92.16,12.27,736.1,6.42,2.76,109.04,0
2020-02-08T17:07:00-05:00,92.32,12.25,735.97,6.71,0.46,180.1,0.1
2020-02-08T17:08:00-05:00,91.85,12.25,736.17,5.39,2.36,351.47,0.1
2020-02-08T17:09:00-05:00,91.93,12.24,735.13,6.86,0.59,38.54,0
2020-02-08T17:10:00-05:00,91.63,12.25,736.4,5.68,1.27,51.17,0.1
2020-02-08T17:11:00-05:00,91.84,12.26,736.47,6.56,1,88.78,0
2020-02-08T17:12:00-05:00,91.84,12.25,736.03,5.97,2.32,66.89,0.1
2020-02-08T17:13:00-05:00,92.24,12.24,736.2,4.8,2.66,79.2,0
2020-02-08T17:14:00-05:00,92.37,12.23,736.23,6.27,1.32,62.57,0.1
2020-02-08T17:15:00-05:00,91.65,12.17,735.06,6.27,2.15,88.06,0
2020-02-08T17:16:00-05:00,91.11,12.24,735.56,4.21,2.4,58.56,0.1
2020-02-08T17:17:00-05:00,91.1,12.27,734.83,5.09,2.32,28.53,0.1
2020-02-08T17:18:00-05:00,90.82,12.24,735.46,6.71,1.66,43.2,0
2020-02-08T17:19:00-05:00,91.52,12.25,736.4,4.06,0.97,76.66,0.1
2020-02-08T17:20:00-05:00,91.66,12.21,735.8,4.94,1.48,51.31,0
2020-02-08T17:21:00-05:00,91.81,12.18,735.83,4.36,1.93,91.64,0.1
2020-02-08T17:22:00-05:00,91.88,12.15,735.3,6.27,3.51,66.79,0.1
2020-02-08T17:23:00-05:00,91.32,12.11,736.47,4.06,2.13,71.98,0
2020-02-08T17:24:00-05:00,90.87,12.11,736.5,6.12,0.65,92.91,0.1
2020-02-08T17:25:00-05:00,91.06,12.1,736.7,3.92,0.32,71.81,0
2020-02-08T17:26:00-05:00,91.33,12.09,735.97,4.06,0.51,345.49,0.1
2020-02-08T17:27:00-05:00,91.91,12.04,735.23,5.53,0.63,189.03,0
2020-02-08T17:28:00-05:00,91.8,12.02,736.27,4.36,0.77,185.02,0.1
2020-02-08T17:29:00-05:00,91.53,11.9,736.54,5.24,0.83,181.32,0
2020-02-08T17:30:00-05:00,92.02,11.89,735.1,4.8,0.49,180.34,0.1
2020-02-08T17:31:00-05:00,92.31,11.85,736.03,4.8,0.74,200.26,0
2020-02-08T17:32:00-05:00,92.6,11.8,736.74,7.44,1.12,210.87,0.1
2020-02-08T17:33:00-05:00,92.5,11.75,735.5,5.39,0.72,199.28,0
2020-02-08T17:34:00-05:00,92.69,11.76,735.53,6.71,0.19,120.13,0.1
2020-02-08T17:35:00-05:00,92.77,11.77,736,7,0.17,266.11,0
2020-02-08T17:36:00-05:00,93.01,11.81,736.67,5.53,1.03,39.93,0
2020-02-08T17:37:00-05:00,93.14,11.79,735.16,6.71,0.6,37.94,0.1
2020-02-08T17:38:00-05:00,93.52,11.79,736.54,5.24,0.21,71.4,0
2020-02-08T17:39:00-05:00,93.79,11.8,735.26,5.53,0.65,108.13,0
2020-02-08T17:40:00-05:00,93.25,11.73,734.93,5.97,0.7,112.59,0.1
2020-02-08T17:41:00-05:00,93.36,11.69,736.43,5.09,0.79,102.97,0
2020-02-08T17:42:00-05:00,93.33,11.66,736.33,5.68,0.57,61.7,0
2020-02-08T17:43:00-05:00,93.38,11.65,735.67,6.27,0.57,128.27,0.1
2020-02-08T17:44:00-05:00,93.05,11.58,735.7,7.15,0.57,198.05,0
2020-02-08T17:45:00-05:00,93.13,11.55,735.56,6.12,0.57,211.9,0
2020-02-08T17:46:00-05:00,93.17,11.52,736.07,4.36,0.71,197.98,0
2020-02-08T17:47:00-05:00,93.17,11.46,735.97,6.27,0.76,205.97,0.1
2020-02-08T17:48:00-05:00,93.1,11.4,734.79,4.65,0.84,134.1,0
2020-02-08T17:49:00-05:00,93.17,11.36,734.93,5.39,0.61,189.03,0
2020-02-08T17:50:00-05:00,93.4,11.34,736.27,3.92,0.65,89.91,0.1
2020-02-08T17:51:00-05:00,93.77,11.36,736.47,3.33,0.49,339.49,0
2020-02-08T17:52:00-05:00,93.85,11.34,734.96,4.8,0.62,135.59,0
2020-02-08T17:53:00-05:00,94.08,11.31,735,3.18,0.91,145.34,0
2020-02-08T17:54:00-05:00,93.87,11.27,734.86,2.15,0.27,151.63,0.1
2020-02-08T17:55:00-05:00,94.3,11.27,736.37,0.68,0.41,217.88,0
2020-02-08T17:56:00-05:00,94.09,11.22,736.03,0.09,0.86,166.46,0
2020-02-08T17:57:00-05:00,93.79,11.17,735.43,2,0.37,141.16,0
2020-02-08T17:58:00-05:00,94.04,11.13,735.83,1.12,0.88,146.63,0
2020-02-08T17:59:00-05:00,93.91,11.08,734.76,-0.05,0.59,143.95,0.1
2020-02-08T18:00:00-05:00,93.95,11.05,734.73,-0.05,0.56,174.1,0
2020-02-08T18:01:00-05:00,94.05,11.02,734.76,0.39,0.65,163.17,0
2020-02-08T18:02:00-05:00,94.13,11.01,735.77,-0.64,0.53,157.32,0
2020-02-08T18:03:00-05:00,94.64,11.02,734.73,1.27,0.58,129.18,0.1
2020-02-08T18:04:00-05:00,94.62,11,735.16,0.24,0.39,136.6,0
2020-02-08T18:05:00-05:00,94.64,10.98,734.76,0.24,0.56,111.13,0
2020-02-08T18:06:00-05:00,94.92,10.98,734.59,1.27,0.17,280.58,0
2020-02-08T18:07:00-05:00,94.91,10.98,735.56,1.86,0.09,116.32,0.1
2020-02-08T18:08:00-05:00,94.8,10.97,736.1,-1.08,0.73,142.31,0
2020-02-08T18:09:00-05:00,94.77,10.95,735.03,0.98,0.26,89.29,0
2020-02-08T18:10:00-05:00,95.15,10.94,735.4,1.12,0.84,94.3,0
2020-02-08T18:11:00-05:00,95.3,10.95,734.76,0.09,0.71,42.74,0.1
2020-02-08T18:12:00-05:00,95.3,10.94,734.76,0.98,0.93,54.84,0
2020-02-08T18:13:00-05:00,94.92,10.91,736.03,-0.35,0.99,65.93,0
2020-02-08T18:14:00-05:00,94.72,10.85,734.66,-1.08,0.89,92.57,0
2020-02-08T18:15:00-05:00,94.7,10.84,735.87,-0.2,0.59,16.93,0
2020-02-08T18:16:00-05:00,94.62,10.82,734.19,0.24,1.17,88.21,0
2020-02-08T18:17:00-05:00,94.48,10.8,734.83,-1.38,1.17,62.04,0
2020-02-08T18:18:00-05:00,94.26,10.78,735.46,-0.79,0.74,42.98,0.1
2020-02-08T18:19:00-05:00,94.2,10.78,735.7,-0.79,1.15,66.77,0
2020-02-08T18:20:00-05:00,94.24,10.78,734.76,-0.64,1.04,72.43,0
2020-02-08T18:21:00-05:00,94.16,10.81,733.89,0.39,0.8,46.24,0
2020-02-08T18:22:00-05:00,94.44,10.86,734.93,-1.08,0.74,54.6,0
2020-02-08T18:23:00-05:00,94.74,10.9,734.26,-1.08,1.55,27.04,0.1
2020-02-08T18:24:00-05:00,95.1,10.94,734.43,-0.2,1.21,33.79,0
2020-02-08T18:25:00-05:00,94.76,10.94,734.26,0.53,0.85,70.56,0
2020-02-08T18:26:00-05:00,94.72,10.9,735.46,-0.64,1.17,71.45,0
2020-02-08T18:27:00-05:00,94.46,10.9,734.29,0.68,0.67,87.2,0.1
2020-02-08T18:28:00-05:00,94.3,10.87,734.39,-0.79,2.72,50.13,0
2020-02-08T18:29:00-05:00,93.88,10.84,734.59,-0.64,2.5,49.29,0
2020-02-08T18:30:00-05:00,93.39,10.83,735.5,0.68,3.63,58.75,0
2020-02-08T18:31:00-05:00,93.14,10.9,735.26,0.68,2.28,48.5,0
2020-02-08T18:32:00-05:00,92.64,10.92,735.13,-0.94,0.88,57.89,0.1
2020-02-08T18:33:00-05:00,92.39,10.94,734.02,1.56,2.09,65.74,0
2020-02-08T18:34:00-05:00,91.94,10.92,735.06,-1.38,0.86,77.52,0
2020-02-08T18:35:00-05:00,92.38,10.94,734.06,0.24,0.74,73.49,0
2020-02-08T18:36:00-05:00,92.41,10.91,734.73,0.98,0.79,109.79,0
2020-02-08T18:37:00-05:00,92.66,10.86,735.06,-0.49,2.67,51.45,0.1
2020-02-08T18:38:00-05:00,92.48,10.84,734.9,2,3.41,57.86,0
2020-02-08T18:39:00-05:00,91.53,10.86,734.76,-0.35,0.91,26.13,0
2020-02-08T18:40:00-05:00,90.83,10.9,733.76,1.71,4.48,54.86,0
2020-02-08T18:41:00-05:00,88.15,11.04,733.72,0.24,3.05,65.18,0.1
2020-02-08T18:42:00-05:00,88.65,11.02,733.15,0.68,5.48,71.62,0
2020-02-08T18:43:00-05:00,87.38,11.15,732.92,2,4.5,81.24,0
2020-02-08T18:44:00-05:00,87.35,11.16,732.99,-0.35,3.27,53.13,0.1
2020-02-08T18:45:00-05:00,88.51,11.12,733.46,0.39,3.22,55.75,0
2020-02-08T18:46:00-05:00,86.57,11.17,733.12,-0.64,1.33,44.9,0
2020-02-08T18:47:00-05:00,85.53,11.21,733.59,2.59,2.25,67.56,0
2020-02-08T18:48:00-05:00,86.1,11.21,734.43,0.83,1.08,77.19,0
2020-02-08T18:49:00-05:00,86.44,11.21,734.33,-0.35,3.21,78,0
2020-02-08T18:50:00-05:00,87.08,11.16,734.49,0.83,2.34,79.49,0.1
2020-02-08T18:51:00-05:00,87.25,11.16,734.36,0.39,2.36,65.78,0
2020-02-08T18:52:00-05:00,87.99,11.1,734.43,-0.05,0.59,67.42,0
2020-02-08T18:53:00-05:00,87,11.09,733.09,0.24,1.3,109.33,0
2020-02-08T18:54:00-05:00,87.31,11.09,732.82,-1.23,0.78,255.71,0
2020-02-08T18:55:00-05:00,87.87,11.05,732.85,-1.08,0.69,228.16,0.1
2020-02-08T18:56:00-05:00,88.64,10.98,733.99,-0.79,0.58,274.73,0
2020-02-08T18:57:00-05:00,89.26,10.93,732.85,-1.82,3.03,343.55,0
2020-02-08T18:58:00-05:00,89.47,10.88,733.82,-1.67,0.73,36.71,0
2020-02-08T18:59:00-05:00,89.41,10.88,732.55,-1.67,0.96,21.38,0
2020-02-08T19:00:00-05:00,90.04,10.86,733.56,-1.82,0.46,113.94,0
2020-02-08T19:01:00-05:00,90.06,10.83,734.09,-0.2,0.62,72.22,0.1
2020-02-08T19:02:00-05:00,90.37,10.78,732.85,-1.38,0.98,71.91,0
2020-02-08T19:03:00-05:00,91.48,10.8,734.46,-0.94,0.6,86.33,0
2020-02-08T19:04:00-05:00,91.96,10.81,734.19,-0.79,1.04,80.33,0
2020-02-08T19:05:00-05:00,92.42,10.83,734.13,-0.94,2.6,57.02,0
2020-02-08T19:06:00-05:00,92.99,10.88,733.36,-0.79,2.3,67.23,0
2020-02-08T19:07:00-05:00,92.96,10.92,734.79,1.42,3.02,68.14,0
2020-02-08T19:08:00-05:00,92.85,10.94,733.92,0.09,0.97,50.61,0
2020-02-08T19:09:00-05:00,92.8,10.98,735,-0.64,2.64,63.94,0.1
2020-02-08T19:10:00-05:00,92.92,11.02,734.16,-0.64,1.55,56.28,0
2020-02-08T19:11:00-05:00,92.52,11.04,735.1,-0.2,0.93,73.97,0
2020-02-08T19:12:00-05:00,92.33,11.03,733.72,-1.67,0.63,54.12,0
2020-02-08T19:13:00-05:00,92.38,11.06,734.13,-0.94,0.96,61.46,0
2020-02-08T19:14:00-05:00,92.44,11.04,735,-0.64,1.12,82.9,0
2020-02-08T19:15:00-05:00,92.66,11.06,735.53,-0.49,1.28,48.98,0
2020-02-08T19:16:00-05:00,92.54,11.04,735.36,0.68,2.6,56.01,0
2020-02-08T19:17:00-05:00,92,10.98,735.36,-0.79,2.95,56.85,0
2020-02-08T19:18:00-05:00,91.17,11.03,733.79,-0.94,1.92,58.9,0
2020-02-08T19:19:00-05:00,91.22,11.06,734.73,-0.49,1,51.07,0.1
2020-02-08T19:20:00-05:00,91.48,11.1,734.73,-0.2,0.62,76.06,0
2020-02-08T19:21:00-05:00,91.82,11.1,733.92,-0.35,1,91.76,0
2020-02-08T19:22:00-05:00,91.96,11.08,733.99,0.39,1.18,47.37,0
2020-02-08T19:23:00-05:00,91.79,11.02,735.36,-1.52,0.87,74.55,0
2020-02-08T19:24:00-05:00,92.02,11,735.16,0.09,1.26,65.95,0
2020-02-08T19:25:00-05:00,92.43,10.96,735.33,-1.82,0.86,64.58,0
2020-02-08T19:26:00-05:00,92.62,10.97,735.16,-0.79,1.32,72.27,0
2020-02-08T19:27:00-05:00,92.83,10.92,734.39,0.09,1.17,90.41,0
2020-02-08T19:28:00-05:00,92.54,10.9,733.76,0.98,1.1,91.16,0
2020-02-08T19:29:00-05:00,92.75,10.88,734.26,0.24,0.83,109.11,0
2020-02-08T19:30:00-05:00,92.93,10.85,734.93,0.24,0.57,182.02,0
2020-02-08T19:31:00-05:00,93.03,10.86,734.53,-1.23,0.17,68.43,0
2020-02-08T19:32:00-05:00,93.39,10.85,735.16,-1.23,0.56,109.21,0
2020-02-08T19:33:00-05:00,93.55,10.84,735.06,0.39,0.56,56.09,0
2020-02-08T19:34:00-05:00,93.6,10.85,734.66,-1.67,1.01,48.57,0
2020-02-08T19:35:00-05:00,93.77,10.84,735.56,-0.49,1.06,61.97,0
2020-02-08T19:36:00-05:00,93.84,10.84,734.49,-0.05,0.3,149.35,0
2020-02-08T19:37:00-05:00,93.89,10.84,733.92,-1.52,0.58,64.85,0
2020-02-08T19:38:00-05:00,93.84,10.85,735.06,0.53,0.73,62.98,0
2020-02-08T19:39:00-05:00,93.47,10.84,735.3,-1.08,1.52,67.47,0
2020-02-08T19:40:00-05:00,93.58,10.85,734.76,-0.35,1.04,50.42,0
2020-02-08T19:41:00-05:00,93.79,10.86,734.76,0.83,3,35.03,0
2020-02-08T19:42:00-05:00,92.74,10.89,734.02,-0.64,1.1,68.04,0
2020-02-08T19:43:00-05:00,91.38,10.91,734.43,-1.08,1.43,63.53,0
2020-02-08T19:44:00-05:00,91.27,10.96,733.72,-1.38,0.76,70.92,0
2020-02-08T19:45:00-05:00,90.47,11.01,735.03,-0.35,0.58,91.64,0
2020-02-08T19:46:00-05:00,88.98,11.06,734.49,0.98,0.71,94.45,0
2020-02-08T19:47:00-05:00,88.59,11.12,734.43,0.83,0.56,96.42,0
2020-02-08T19:48:00-05:00,89.27,11.12,733.96,0.68,0.69,95.31,0
2020-02-08T19:49:00-05:00,89.85,11.12,733.76,0.24,0.78,70.66,0
2020-02-08T19:50:00-05:00,90.31,11.08,734.39,0.39,0.73,94.52,0
2020-02-08T19:51:00-05:00,90.61,11.05,733.72,0.53,0.62,105.03,0
2020-02-08T19:52:00-05:00,91.04,11.02,734.33,0.39,0.6,89.31,0
2020-02-08T19:53:00-05:00,91.48,11,735.26,-1.82,0.56,77.04,0
2020-02-08T19:54:00-05:00,91.37,10.97,734.9,-1.82,0.59,80.16,0
2020-02-08T19:55:00-05:00,91.41,10.94,735.13,0.39,0.89,100.98,0
2020-02-08T19:56:00-05:00,90.89,10.91,734.33,-1.52,0.6,94.42,0
2020-02-08T19:57:00-05:00,90.2,10.93,734.02,-0.35,0.69,91.13,0
2020-02-08T19:58:00-05:00,None,None,None,None,None,None,None
2020-02-08T19:59:00-05:00,90.21,10.94,735.1,0.98,0.72,122.17,0
2020-02-08T20:00:00-05:00,90.18,10.93,733.72,0.39,0.93,77.45,0
2020-02-08T20:01:00-05:00,90.42,10.93,735.4,0.83,0.26,123.66,0
2020-02-08T20:02:00-05:00,90.35,10.91,735.1,0.39,0.82,139.36,0
2020-02-08T20:03:00-05:00,90.76,10.89,735.16,-0.79,0.66,162.62,0
2020-02-08T20:04:00-05:00,90.81,10.85,734.43,-1.38,0.71,130.6,0
2020-02-08T20:05:00-05:00,90.81,10.79,735.1,0.09,0.7,90.73,0
2020-02-08T20:06:00-05:00,91.06,10.8,734.59,-1.52,0.51,108.25,0
2020-02-08T20:07:00-05:00,91.03,10.81,734.63,-1.52,0.59,101.29,0
2020-02-08T20:08:00-05:00,90.83,10.8,735.2,-0.2,0.81,112.93,0
2020-02-08T20:09:00-05:00,90.79,10.78,733.56,0.09,0.67,93.97,0
2020-02-08T20:10:00-05:00,90.96,10.8,733.56,-0.05,0.6,124.77,0
2020-02-08T20:11:00-05:00,91.13,10.78,734.76,-2.11,0.7,123.97,0
2020-02-08T20:12:00-05:00,91.33,10.78,734.19,-0.64,0.59,107.91,0
2020-02-08T20:13:00-05:00,91.16,10.75,733.86,0.53,1.07,90.65,0
2020-02-08T20:14:00-05:00,90.69,10.74,734.19,0.24,0.78,98.1,0
2020-02-08T20:15:00-05:00,89.86,10.72,734.93,-1.38,0.66,64.82,0
2020-02-08T20:16:00-05:00,89.5,10.74,734.36,-1.67,0.7,73.11,0
2020-02-08T20:17:00-05:00,88.92,10.75,734.66,-1.23,0.83,60.55,0
2020-02-08T20:18:00-05:00,89.13,10.81,734.06,0.53,0.68,110.7,0
2020-02-08T20:19:00-05:00,89.66,10.8,733.99,-2.26,0.6,116.2,0
2020-02-08T20:20:00-05:00,89.38,10.8,733.25,-1.82,0.55,138.42,0
2020-02-08T20:21:00-05:00,89.54,10.79,734.49,-2.55,0.59,128.29,0
2020-02-08T20:22:00-05:00,89.24,10.8,734.29,-2.11,0.74,114.88,0
2020-02-08T20:23:00-05:00,88.94,10.78,733.42,-0.79,0.81,117.83,0
2020-02-08T20:24:00-05:00,88.9,10.8,733.12,-1.97,0.93,100.16,0
2020-02-08T20:25:00-05:00,88.56,10.8,734.69,-1.08,0.61,103.11,0
2020-02-08T20:26:00-05:00,88.21,10.81,733.79,-1.52,0.68,113.36,0
2020-02-08T20:27:00-05:00,87.79,10.82,733.15,-0.49,0.61,107.27,0
2020-02-08T20:28:00-05:00,88.74,10.85,733.32,-0.79,0.81,55.27,0
2020-02-08T20:29:00-05:00,89.32,10.83,733.02,-0.35,0.82,69.48,0
2020-02-08T20:30:00-05:00,89.51,10.8,732.45,-1.23,0.8,84.27,0
2020-02-08T20:31:00-05:00,88.74,10.79,733.25,-2.7,0.62,105.83,0
2020-02-08T20:32:00-05:00,87.93,10.77,734.02,-1.97,0.59,71.4,0
2020-02-08T20:33:00-05:00,87.73,10.78,733.22,-2.7,1.07,50.95,0
2020-02-08T20:34:00-05:00,89.24,10.78,734.39,-2.11,0.87,118.02,0
2020-02-08T20:35:00-05:00,87.82,10.76,733.05,-0.64,1.14,114.08,0
2020-02-08T20:36:00-05:00,87,10.75,734.26,-2.11,0.96,55.49,0
2020-02-08T20:37:00-05:00,87.41,10.76,732.55,-1.52,0.69,120.11,0
2020-02-08T20:38:00-05:00,86.62,10.77,733.02,-1.82,1.08,125.2,0
2020-02-08T20:39:00-05:00,87.17,10.8,734.46,-0.2,0.63,114.08,0
2020-02-08T20:40:00-05:00,87.14,10.77,733.05,-0.49,0.9,119.44,0
2020-02-08T20:41:00-05:00,87.39,10.77,732.95,-0.94,0.72,117.44,0
2020-02-08T20:42:00-05:00,87.55,10.76,732.72,-1.52,0.78,122.32,0
2020-02-08T20:43:00-05:00,87.51,10.77,733.05,-1.82,0.87,131.29,0
2020-02-08T20:44:00-05:00,86.7,10.8,733.86,-1.97,0.95,127.96,0
2020-02-08T20:45:00-05:00,86.21,10.82,734.33,-0.79,1.07,109.11,0
2020-02-08T20:46:00-05:00,86.1,10.79,734.83,-1.38,0.79,125.1,0
2020-02-08T20:47:00-05:00,85.85,10.82,733.09,0.53,1.02,124.6,0
2020-02-08T20:48:00-05:00,86.12,10.82,733.99,-1.52,0.74,113.7,0
2020-02-08T20:49:00-05:00,86.04,10.83,733.25,0.39,0.89,130.57,0
2020-02-08T20:50:00-05:00,85.79,10.86,733.89,0.53,0.73,128.87,0
2020-02-08T20:51:00-05:00,86.02,10.84,733.12,0.68,0.69,125.37,0
2020-02-08T20:52:00-05:00,86.27,10.83,733.15,0.39,0.9,129.81,0
2020-02-08T20:53:00-05:00,86.17,10.84,733.52,-0.79,0.63,132.3,0
2020-02-08T20:54:00-05:00,86.02,10.84,734.09,-0.49,0.63,128.15,0
2020-02-08T20:55:00-05:00,85.39,10.88,734.49,-1.52,0.84,119.08,0
2020-02-08T20:56:00-05:00,85.22,10.93,734.09,0.53,0.91,116.05,0
2020-02-08T20:57:00-05:00,85.09,10.96,733.12,-0.79,0.77,127.74,0
2020-02-08T20:58:00-05:00,84.79,11,735.06,-0.94,0.58,115,0
2020-02-08T20:59:00-05:00,84.69,11.04,734.93,0.09,0.59,135.3,0
2020-02-08T21:00:00-05:00,85.09,11.05,734.23,0.09,0.72,120.49,0
2020-02-08T21:01:00-05:00,85.51,11.04,733.39,-0.35,0.76,118.98,0
2020-02-08T21:02:00-05:00,85.52,11.04,733.56,-0.64,0.67,102.99,0
2020-02-08T21:03:00-05:00,85.59,11.02,734.23,0.09,0.59,94.13,0
2020-02-08T21:04:00-05:00,86.04,11.02,735.06,0.98,0.74,121.55,0
2020-02-08T21:05:00-05:00,85.86,11.01,733.42,0.53,0.78,123.49,0
2020-02-08T21:06:00-05:00,85,11.06,735.2,-0.35,0.72,124.26,0
2020-02-08T21:07:00-05:00,84.67,11.1,734.39,1.56,0.82,124.29,0
2020-02-08T21:08:00-05:00,84.32,11.14,734.09,2.3,0.71,104.77,0
2020-02-08T21:09:00-05:00,84.61,11.16,735.6,0.39,0.67,117.08,0
2020-02-08T21:10:00-05:00,84.67,11.2,734.26,0.39,0.76,123.66,0
2020-02-08T21:11:00-05:00,85.38,11.17,735.87,-0.05,0.84,124.21,0
2020-02-08T21:12:00-05:00,85.5,11.15,735.46,0.83,0.76,114.71,0
2020-02-08T21:13:00-05:00,85.38,11.14,735,0.98,0.63,106.91,0
2020-02-08T21:14:00-05:00,85.43,11.1,735.26,-0.2,0.78,83.79,0
2020-02-08T21:15:00-05:00,85.14,11.08,733.92,-1.97,0.67,113.53,0
2020-02-08T21:16:00-05:00,85.01,11.09,735,-0.79,0.67,89.24,0
2020-02-08T21:17:00-05:00,84.87,11.08,734.49,-0.2,0.85,77.26,0
2020-02-08T21:18:00-05:00,84.59,11.08,735.06,-1.38,1.06,80.33,0
2020-02-08T21:19:00-05:00,84.21,11.11,733.25,-0.2,0.74,81.58,0
2020-02-08T21:20:00-05:00,84.28,11.12,734.73,-1.82,0.84,87.49,0
2020-02-08T21:21:00-05:00,84.44,11.11,733.36,0.39,0.85,108.25,0
2020-02-08T21:22:00-05:00,84.81,11.09,733.59,-0.05,0.73,86.33,0
2020-02-08T21:23:00-05:00,85.11,11.08,733.86,0.68,0.68,101,0
2020-02-08T21:24:00-05:00,85.53,11.08,734.73,-1.08,0.98,106.59,0
2020-02-08T21:25:00-05:00,85.89,11.07,732.85,-0.64,0.71,83.21,0
2020-02-08T21:26:00-05:00,86.01,11.07,732.72,0.53,0.61,109.93,0
2020-02-08T21:27:00-05:00,86.5,11.07,733.89,-0.05,0.68,116.72,0
2020-02-08T21:28:00-05:00,86.99,11.1,734.46,1.86,0.58,76.47,0
2020-02-08T21:29:00-05:00,86.94,11.1,732.75,-1.97,0.63,64.32,0
2020-02-08T21:30:00-05:00,87.63,11.1,734.19,-2.41,0.77,69.27,0
2020-02-08T21:31:00-05:00,87.95,11.1,734.02,-2.99,0.82,65.98,0
2020-02-08T21:32:00-05:00,88.15,11.05,733.92,-3.29,0.8,65.3,0
2020-02-08T21:33:00-05:00,88.58,10.97,733.59,-2.85,0.99,51.31,0
2020-02-08T21:34:00-05:00,88.89,10.9,732.45,-1.52,0.96,47.37,0
2020-02-08T21:35:00-05:00,88.99,10.86,733.62,-2.99,0.66,51.19,0
2020-02-08T21:36:00-05:00,89.41,10.82,733.36,-2.26,0.66,65.42,0
2020-02-08T21:37:00-05:00,89.82,10.81,734.02,-0.94,0.72,66.43,0
2020-02-08T21:38:00-05:00,89.9,10.78,733.49,-1.67,0.91,58.27,0
2020-02-08T21:39:00-05:00,90.33,10.76,733.99,-0.79,0.96,73.95,0
2020-02-08T21:40:00-05:00,89.79,10.74,733.76,-0.79,1.28,61.61,0
2020-02-08T21:41:00-05:00,89.99,10.75,733.19,-1.08,1.07,72.12,0
2020-02-08T21:42:00-05:00,90.04,10.74,733.12,-1.23,1.05,52.39,0
2020-02-08T21:43:00-05:00,89.84,10.74,733.09,-0.64,1.07,56.69,0
2020-02-08T21:44:00-05:00,89.67,10.76,734.56,-2.85,0.65,50.59,0
2020-02-08T21:45:00-05:00,89.74,10.78,734.19,-1.08,0.75,45.96,0
2020-02-08T21:46:00-05:00,89.45,10.78,733.49,-2.85,0.71,69.39,0
2020-02-08T21:47:00-05:00,89,10.78,733.82,-0.79,0.78,76.32,0
2020-02-08T21:48:00-05:00,88.51,10.83,734.76,-2.26,0.72,93.68,0
2020-02-08T21:49:00-05:00,87.86,10.88,733.12,-1.82,0.57,93.44,0
2020-02-08T21:50:00-05:00,87.34,10.91,734.39,-0.2,0.57,77.88,0
2020-02-08T21:51:00-05:00,87.47,10.93,732.89,-0.05,1.49,36.31,0
2020-02-08T21:52:00-05:00,86.7,10.87,733.56,-1.67,0.88,49.22,0
2020-02-08T21:53:00-05:00,87.43,10.86,733.12,-1.82,1.1,66.65,0
2020-02-08T21:54:00-05:00,87.9,10.82,733.76,-1.08,0.92,66.29,0
2020-02-08T21:55:00-05:00,88.51,10.79,734.36,-1.38,0.79,70.59,0
2020-02-08T21:56:00-05:00,88.79,10.76,734.06,-3.14,0.81,61.25,0
2020-02-08T21:57:00-05:00,88.87,10.68,733.86,-3.29,0.66,98.74,0
2020-02-08T21:58:00-05:00,88.63,10.65,733.29,-3.73,0.64,87.29,0
2020-02-08T21:59:00-05:00,88.24,10.64,733.99,-3.73,0.71,61.63,0
2020-02-08T22:00:00-05:00,88.49,10.68,732.69,-0.94,0.79,95.86,0
2020-02-08T22:01:00-05:00,88.24,10.7,733.86,-3.44,0.71,65.98,0
2020-02-08T22:02:00-05:00,87.97,10.74,733.29,-1.38,0.71,78.84,0
2020-02-08T22:03:00-05:00,87.67,10.76,733.52,-0.2,0.61,85.42,0
2020-02-08T22:04:00-05:00,87.49,10.81,733.69,-1.67,0.63,84.6,0
2020-02-08T22:05:00-05:00,87.42,10.83,733.49,-3.14,0.82,116.94,0
2020-02-08T22:06:00-05:00,86.96,10.91,734.46,-2.41,0.59,125.41,0
2020-02-08T22:07:00-05:00,86.85,10.95,734.59,-1.08,0.61,67.01,0
2020-02-08T22:08:00-05:00,86.76,10.98,734.69,-0.2,0.84,108.99,0
2020-02-08T22:09:00-05:00,86.75,11.02,733.52,-0.79,0.85,107.03,0
2020-02-08T22:10:00-05:00,86.5,11.04,734.9,0.09,0.65,121.14,0
2020-02-08T22:11:00-05:00,86.6,11.06,734.09,-2.55,0.92,99.51,0
2020-02-08T22:12:00-05:00,86.23,11.08,734.56,-2.11,0.77,119.87,0
2020-02-08T22:13:00-05:00,86.37,11.09,734.02,-1.97,0.65,120.16,0
2020-02-08T22:14:00-05:00,86.47,11.1,735.4,0.09,0.76,117.16,0
2020-02-08T22:15:00-05:00,86.38,11.08,734.09,-1.52,0.84,111.35,0
2020-02-08T22:16:00-05:00,86.44,11.1,735.06,-0.79,0.77,119.82,0
2020-02-08T22:17:00-05:00,86.74,11.15,735.2,-1.97,0.7,108.85,0
2020-02-08T22:18:00-05:00,86.6,11.19,735.46,0.24,1.06,120.11,0
2020-02-08T22:19:00-05:00,86.83,11.17,734.43,-0.05,0.83,103.66,0
2020-02-08T22:20:00-05:00,87.22,11.18,735.3,-0.64,0.77,119.77,0
2020-02-08T22:21:00-05:00,87.57,11.24,735.8,0.09,0.85,120.97,0
2020-02-08T22:22:00-05:00,87.69,11.26,735.63,-1.82,0.88,117.78,0
2020-02-08T22:23:00-05:00,87.7,11.28,734.59,-2.26,0.82,112.74,0
2020-02-08T22:24:00-05:00,87.71,11.29,735.4,-0.05,1.08,113.72,0
2020-02-08T22:25:00-05:00,87.76,11.3,736.37,-2.26,0.71,88.42,0
2020-02-08T22:26:00-05:00,87.87,11.3,735.56,-1.82,0.77,71.52,0
2020-02-08T22:27:00-05:00,87.76,11.32,734.73,-0.79,0.66,98.02,0
2020-02-08T22:28:00-05:00,87.94,11.33,735.8,-1.23,0.6,88.81,0
2020-02-08T22:29:00-05:00,87.93,11.34,735.6,-2.55,0.4,67.73,0
2020-02-08T22:30:00-05:00,87.87,11.33,735.46,-1.67,0.52,85.85,0
2020-02-08T22:31:00-05:00,88.09,11.34,734.69,-2.55,0.98,113.34,0
2020-02-08T22:32:00-05:00,88.08,11.33,734.39,-2.41,0.86,99.61,0
2020-02-08T22:33:00-05:00,88.24,11.35,736.37,-0.94,0.55,91.04,0
2020-02-08T22:34:00-05:00,88.2,11.36,734.63,-2.85,0.87,107.7,0
2020-02-08T22:35:00-05:00,88.53,11.35,735.87,-2.55,0.73,79.61,0
2020-02-08T22:36:00-05:00,88.76,11.34,734.9,-1.82,0.61,82.83,0
2020-02-08T22:37:00-05:00,88.83,11.32,735.26,-2.85,0.97,110.07,0
2020-02-08T22:38:00-05:00,89.22,11.32,735.8,-2.26,0.66,83.5,0
2020-02-08T22:39:00-05:00,89.45,11.32,735.33,-3.14,0.77,125.51,0
2020-02-08T22:40:00-05:00,89.52,11.3,735.77,-1.38,1.04,89.67,0
2020-02-08T22:41:00-05:00,89.7,11.3,735.8,-3.44,0.74,106.11,0
2020-02-08T22:42:00-05:00,89.72,11.28,736.03,-1.08,0.69,115.96,0
2020-02-08T22:43:00-05:00,89.68,11.27,734.53,-2.55,0.78,114.4,0
2020-02-08T22:44:00-05:00,89.97,11.25,735.63,-1.82,0.59,97.47,0
2020-02-08T22:45:00-05:00,90.03,11.25,734.39,-3.73,1.06,111.61,0
2020-02-08T22:46:00-05:00,90.25,11.26,735.36,-2.41,0.72,101.17,0
2020-02-08T22:47:00-05:00,90.01,11.29,735.46,-2.55,0.98,106.45,0
2020-02-08T22:48:00-05:00,89.75,11.28,734.96,-2.7,1.17,104.58,0
2020-02-08T22:49:00-05:00,89.64,11.3,736.1,-1.08,0.92,100.95,0
2020-02-08T22:50:00-05:00,89.42,11.29,735.46,-1.67,0.58,121.19,0
2020-02-08T22:51:00-05:00,89.04,11.26,735.26,-2.85,0.76,88.97,0
2020-02-08T22:52:00-05:00,89.04,11.25,735.06,-3.44,0.62,115.62,0
2020-02-08T22:53:00-05:00,89.14,11.21,735.2,-2.99,0.79,107.27,0
2020-02-08T22:54:00-05:00,89.29,11.16,735.97,-3.73,0.98,77.93,0
2020-02-08T22:55:00-05:00,89.35,11.15,736.27,-1.23,0.8,86.77,0
2020-02-08T22:56:00-05:00,89.3,11.18,736.03,-1.97,0.78,94.76,0
2020-02-08T22:57:00-05:00,89.28,11.16,735.43,-1.38,0.78,103.74,0
2020-02-08T22:58:00-05:00,89.36,11.14,736.4,-0.94,0.75,99.37,0
2020-02-08T22:59:00-05:00,89.32,11.14,735.7,-3.44,0.74,67.39,0
2020-02-08T23:00:00-05:00,89.66,11.1,736.2,-3.44,0.77,70.11,0
2020-02-08T23:01:00-05:00,89.74,11.05,735.26,-3.14,0.69,94.45,0
2020-02-08T23:02:00-05:00,90.1,10.97,734.76,-3.29,0.9,43.39,0
2020-02-08T23:03:00-05:00,90.34,10.9,734.23,-2.41,0.97,57.48,0
2020-02-08T23:04:00-05:00,90.95,10.89,735.6,-4.02,0.87,62.21,0
2020-02-08T23:05:00-05:00,91.25,10.84,735.8,-1.67,0.94,52.46,0
2020-02-08T23:06:00-05:00,91.52,10.82,735.63,-0.79,1.14,55.05,0
2020-02-08T23:07:00-05:00,91.58,10.81,734.33,-1.97,0.95,72.17,0
2020-02-08T23:08:00-05:00,91.6,10.81,735.46,-1.82,0.88,58.7,0
2020-02-08T23:09:00-05:00,91.6,10.83,734.56,-1.82,0.8,53.54,0
2020-02-08T23:10:00-05:00,91.52,10.81,734.66,-2.99,0.93,64.42,0
2020-02-08T23:11:00-05:00,92,10.84,735.26,-1.97,0.81,68.69,0
2020-02-08T23:12:00-05:00,92.23,10.89,735.06,-1.82,0.98,60.26,0
2020-02-08T23:13:00-05:00,91.82,10.92,735.87,-1.97,0.83,54.53,0
2020-02-08T23:14:00-05:00,91.92,10.95,734.39,-1.08,0.69,79.42,0
2020-02-08T23:15:00-05:00,91.64,10.98,734.69,-0.2,0.62,96.68,0
2020-02-08T23:16:00-05:00,91.6,11.01,735.7,-1.82,0.64,72.39,0
2020-02-08T23:17:00-05:00,91.5,11.02,735.67,-0.05,0.83,51.26,0
2020-02-08T23:18:00-05:00,91.44,11.02,735.36,-1.82,0.73,54.12,0
2020-02-08T23:19:00-05:00,91.54,11,735.13,-0.2,0.78,55.05,0
2020-02-08T23:20:00-05:00,91.64,10.96,735.06,0.83,0.8,59.06,0
2020-02-08T23:21:00-05:00,91.89,10.94,735.23,0.83,0.69,61.54,0
2020-02-08T23:22:00-05:00,92.19,10.92,736.1,0.09,0.59,61.1,0
2020-02-08T23:23:00-05:00,92.44,10.89,734.59,-1.52,0.57,71.98,0
2020-02-08T23:24:00-05:00,92.62,10.9,734.9,-1.52,0.57,64.34,0
2020-02-08T23:25:00-05:00,92.65,10.9,736.33,-0.49,0.64,55.87,0
2020-02-08T23:26:00-05:00,92.87,10.89,735.83,-0.05,0.78,64.92,0
2020-02-08T23:27:00-05:00,92.77,10.88,735.63,-0.35,0.58,77.86,0
2020-02-08T23:28:00-05:00,92.89,10.89,735.9,0.24,0.55,74.76,0
2020-02-08T23:29:00-05:00,93.09,10.92,735.36,-0.05,0.54,122.46,0
2020-02-08T23:30:00-05:00,93.05,10.93,736.64,-0.94,0.44,129.33,0
2020-02-08T23:31:00-05:00,93.15,10.98,735.4,0.83,0.21,83.74,0
2020-02-08T23:32:00-05:00,93.03,10.99,736.84,-1.08,0.48,139.7,0
2020-02-08T23:33:00-05:00,93.01,11.04,736.8,0.68,0.57,132.25,0
2020-02-08T23:34:00-05:00,92.86,11.03,735.9,-0.64,0.6,133.62,0
2020-02-08T23:35:00-05:00,92.79,11.07,735.8,0.24,0.57,127.21,0
2020-02-08T23:36:00-05:00,92.68,11.12,737.04,0.09,0.64,117.83,0
2020-02-08T23:37:00-05:00,92.08,11.17,737.47,-2.55,0.67,121.24,0
2020-02-08T23:38:00-05:00,91.72,11.22,735.83,-1.82,0.68,95.24,0
2020-02-08T23:39:00-05:00,91.48,11.24,736.27,-0.94,0.61,101.02,0
2020-02-08T23:40:00-05:00,91.05,11.28,735.9,-3.73,0.67,117.66,0
2020-02-08T23:41:00-05:00,90.87,11.29,736.4,-3.73,0.6,132.28,0
2020-02-08T23:42:00-05:00,90.63,11.29,735.6,-1.08,0.6,135.28,0
2020-02-08T23:43:00-05:00,90.49,11.28,737.07,-3.58,0.56,133.98,0
2020-02-08T23:44:00-05:00,90.31,11.3,735.87,-2.7,0.57,123.66,0
2020-02-08T23:45:00-05:00,90.27,11.29,736.8,-2.99,0.56,121.45,0
2020-02-08T23:46:00-05:00,90.23,11.28,736.74,-3.14,0.59,96.9,0
2020-02-08T23:47:00-05:00,90.45,11.3,736.74,-1.97,0.57,125.22,0
2020-02-08T23:48:00-05:00,90.45,11.3,736.17,-1.67,0.62,105.44,0
2020-02-08T23:49:00-05:00,90.3,11.29,736.7,-2.85,0.66,93.15,0
2020-02-08T23:50:00-05:00,90.36,11.28,735.43,-1.97,0.71,111.8,0
2020-02-08T23:51:00-05:00,90.26,11.26,736.84,-1.82,0.77,92.31,0
2020-02-08T23:52:00-05:00,90.28,11.26,735,-1.67,0.77,96.51,0
2020-02-08T23:53:00-05:00,90.21,11.24,735.23,-3.73,0.63,75.17,0
2020-02-08T23:54:00-05:00,90.44,11.25,735.9,-3.44,0.79,100.38,0
2020-02-08T23:55:00-05:00,90.41,11.22,735,-2.55,0.62,75.65,0
2020-02-08T23:56:00-05:00,90.42,11.18,735.16,-3.73,0.6,79.97,0
2020-02-08T23:57:00-05:00,90.51,11.16,734.59,-3.88,0.78,60.98,0
2020-02-08T23:58:00-05:00,90.55,11.1,735.9,-1.82,0.79,48.26,0
2020-02-08T23:59:00-05:00,90.99,11.04,735.16,-3.88,0.62,49.25,0
